{
  "ID": "97b9de73-f0f7-41d1-a9a0-be09d58604ad",
  "Version": "2.3.4",
  "Name": "FriendShareListLayer",
  "Content": {
    "Content": {
      "Animation": {
        "Duration": 0,
        "Speed": 1.0,
        "Timelines": [],
        "ctype": "TimelineActionData"
      },
      "AnimationList": [],
      "ObjectData": {
        "Tag": 23,
        "Children": [
          {
            "ClipAble": false,
            "BackColorAlpha": 102,
            "SingleColor": {
              "R": 150,
              "G": 200
            },
            "FirstColor": {
              "R": 150,
              "G": 200
            },
            "EndColor": {},
            "ColorVector": {
              "ScaleY": 1.0
            },
            "Scale9Width": 1,
            "Scale9Height": 1,
            "TouchEnable": true,
            "AnchorPoint": {},
            "Position": {
              "X": 0.0,
              "Y": 0.0
            },
            "Scale": {
              "ScaleX": 1.0,
              "ScaleY": 1.0
            },
            "CColor": {},
            "IconVisible": false,
            "PrePosition": {
              "X": 0.0,
              "Y": 0.0
            },
            "PercentWidthEnable": true,
            "PercentHeightEnable": true,
            "PercentWidthEnabled": true,
            "PercentHeightEnabled": true,
            "PreSize": {
              "X": 1.0,
              "Y": 1.0
            },
            "Tag": 59,
            "ActionTag": 55119364,
            "Size": {
              "X": 1334.0,
              "Y": 750.0
            },
            "Name": "Panel_1",
            "ctype": "PanelObjectData"
          },
          {
            "FileData": {
              "Type": "Normal",
              "Path": "Friend/sp_friendlist_bg1.png",
              "Plist": ""
            },
            "Scale9OriginX": 361,
            "Scale9OriginY": 190,
            "Scale9Width": 432,
            "Scale9Height": 202,
            "TouchEnable": true,
            "AnchorPoint": {
              "ScaleX": 0.5,
              "ScaleY": 0.5
            },
            "Position": {
              "X": 667.0,
              "Y": 375.0
            },
            "Scale": {
              "ScaleX": 1.0,
              "ScaleY": 1.0
            },
            "CColor": {},
            "IconVisible": false,
            "PositionPercentXEnabled": true,
            "PositionPercentYEnabled": true,
            "PrePosition": {
              "X": 0.5,
              "Y": 0.5
            },
            "PreSize": {
              "X": 0.8651,
              "Y": 0.776
            },
            "LeftMargin": 90.0,
            "RightMargin": 90.0,
            "TopMargin": 84.0,
            "BottomMargin": 84.0,
            "Tag": 58,
            "Children": [
              {
                "ClipAble": false,
                "BackColorAlpha": 102,
                "SingleColor": {
                  "R": 150,
                  "G": 200
                },
                "FirstColor": {
                  "R": 150,
                  "G": 200
                },
                "EndColor": {},
                "ColorVector": {
                  "ScaleY": 1.0
                },
                "Scale9Width": 1,
                "Scale9Height": 1,
                "TouchEnable": true,
                "AnchorPoint": {},
                "Position": {
                  "X": 77.0,
                  "Y": 58.0
                },
                "Scale": {
                  "ScaleX": 1.0,
                  "ScaleY": 1.0
                },
                "CColor": {},
                "IconVisible": false,
                "PrePosition": {
                  "X": 0.0667,
                  "Y": 0.0997
                },
                "PreSize": {
                  "X": 0.8666,
                  "Y": 0.7216
                },
                "LeftMargin": 77.0,
                "RightMargin": 77.0,
                "TopMargin": 104.0,
                "BottomMargin": 58.0,
                "Tag": 80,
                "ActionTag": -1257646570,
                "Size": {
                  "X": 1000.0,
                  "Y": 420.0
                },
                "Name": "content",
                "ctype": "PanelObjectData"
              },
              {
                "FontSize": 14,
                "ButtonText": "",
                "TextColor": {
                  "R": 65,
                  "G": 65,
                  "B": 70
                },
                "PressedFileData": {
                  "Type": "Normal",
                  "Path": "General/bt_close_1.png",
                  "Plist": ""
                },
                "NormalFileData": {
                  "Type": "Normal",
                  "Path": "General/bt_close_0.png",
                  "Plist": ""
                },
                "Scale9Enable": true,
                "Scale9OriginX": 15,
                "Scale9OriginY": 11,
                "Scale9Width": 62,
                "Scale9Height": 70,
                "OutlineColor": {
                  "G": 0,
                  "B": 0
                },
                "ShadowColor": {
                  "R": 110,
                  "G": 110,
                  "B": 110
                },
                "ShadowOffsetX": 2.0,
                "ShadowOffsetY": -2.0,
                "TouchEnable": true,
                "AnchorPoint": {
                  "ScaleX": 0.5,
                  "ScaleY": 0.5
                },
                "Position": {
                  "X": 1140.0,
                  "Y": 550.0
                },
                "Scale": {
                  "ScaleX": 1.0,
                  "ScaleY": 1.0
                },
                "CColor": {},
                "IconVisible": false,
                "PrePosition": {
                  "X": 0.9879,
                  "Y": 0.945
                },
                "PreSize": {
                  "X": 0.0797,
                  "Y": 0.1581
                },
                "LeftMargin": 1094.0,
                "RightMargin": -32.0,
                "TopMargin": -14.0,
                "BottomMargin": 504.0,
                "Tag": 79,
                "ActionTag": 1428445848,
                "Size": {
                  "X": 92.0,
                  "Y": 92.0
                },
                "Name": "btn_cancelshare",
                "ctype": "ButtonObjectData"
              }
            ],
            "ActionTag": -1166809397,
            "Size": {
              "X": 1154.0,
              "Y": 582.0
            },
            "Name": "image_bg",
            "ctype": "ImageViewObjectData"
          }
        ],
        "Size": {
          "X": 1334.0,
          "Y": 750.0
        },
        "Name": "Layer",
        "ctype": "LayerObjectData"
      },
      "UsedResources": [
        "General/bt_close_0.png",
        "General/bt_close_1.png",
        "Friend/sp_friendlist_bg1.png"
      ],
      "ctype": "GameFileData"
    }
  },
  "Type": "Layer"
}