{
  "ID": "7cfa1444-79cb-4145-a5d7-8ba1ea1cbad2",
  "Version": "2.3.4",
  "Name": "GamePopInfoNormal",
  "Content": {
    "Content": {
      "Animation": {
        "Duration": 0,
        "Speed": 1.0,
        "Timelines": [],
        "ctype": "TimelineActionData"
      },
      "AnimationList": [],
      "ObjectData": {
        "Tag": 192,
        "Children": [
          {
            "ClipAble": false,
            "BackColorAlpha": 102,
            "ComboBoxIndex": 1,
            "SingleColor": {
              "R": 26,
              "G": 26,
              "B": 26
            },
            "FirstColor": {
              "R": 150,
              "G": 200
            },
            "EndColor": {},
            "ColorVector": {
              "ScaleY": 1.0
            },
            "Scale9Width": 1,
            "Scale9Height": 1,
            "AnchorPoint": {},
            "Position": {
              "X": 0.9413,
              "Y": -1.7827
            },
            "Scale": {
              "ScaleX": 1.0,
              "ScaleY": 1.0
            },
            "CColor": {},
            "IconVisible": false,
            "PrePosition": {
              "X": 0.0007,
              "Y": -0.0024
            },
            "PercentWidthEnable": true,
            "PercentHeightEnable": true,
            "PercentWidthEnabled": true,
            "PercentHeightEnabled": true,
            "PreSize": {
              "X": 1.0,
              "Y": 1.0
            },
            "LeftMargin": 0.9413,
            "RightMargin": -0.9413,
            "TopMargin": 1.7827,
            "BottomMargin": -1.7827,
            "Tag": 193,
            "ActionTag": 484548114,
            "Size": {
              "X": 1334.0,
              "Y": 750.0
            },
            "VisibleForFrame": false,
            "Name": "Panel_1",
            "ctype": "PanelObjectData"
          },
          {
            "FileData": {
              "Type": "PlistSubImage",
              "Path": "bg_kuang_game_normal.png",
              "Plist": "public/public.plist"
            },
            "BlendFunc": {
              "Src": 770,
              "Dst": 771
            },
            "AnchorPoint": {
              "ScaleX": 0.5,
              "ScaleY": 0.5
            },
            "Position": {
              "X": 667.0,
              "Y": 375.0
            },
            "Scale": {
              "ScaleX": 1.0,
              "ScaleY": 1.0
            },
            "CColor": {},
            "IconVisible": false,
            "PositionPercentXEnabled": true,
            "PositionPercentYEnabled": true,
            "PrePosition": {
              "X": 0.5,
              "Y": 0.5
            },
            "PreSize": {
              "X": 0.2999,
              "Y": 0.4307
            },
            "LeftMargin": 467.0,
            "RightMargin": 467.0,
            "TopMargin": 213.5,
            "BottomMargin": 213.5,
            "Tag": 194,
            "Children": [
              {
                "FileData": {
                  "Type": "PlistSubImage",
                  "Path": "player_vip_game.png",
                  "Plist": "public/public.plist"
                },
                "BlendFunc": {
                  "Src": 770,
                  "Dst": 771
                },
                "AnchorPoint": {
                  "ScaleX": 0.5,
                  "ScaleY": 0.5
                },
                "Position": {
                  "X": 75.96,
                  "Y": 251.8431
                },
                "Scale": {
                  "ScaleX": 1.0,
                  "ScaleY": 1.0
                },
                "CColor": {},
                "IconVisible": false,
                "PositionPercentXEnabled": true,
                "PositionPercentYEnabled": true,
                "PrePosition": {
                  "X": 0.1899,
                  "Y": 0.7797
                },
                "PreSize": {
                  "X": 0.285,
                  "Y": 0.3529
                },
                "LeftMargin": 18.96,
                "RightMargin": 267.04,
                "TopMargin": 14.1569,
                "BottomMargin": 194.8431,
                "Tag": 228,
                "ActionTag": -1292145578,
                "Size": {
                  "X": 114.0,
                  "Y": 114.0
                },
                "Name": "head_bg",
                "ctype": "SpriteObjectData"
              },
              {
                "IsCustomSize": true,
                "FontSize": 16,
                "LabelText": "",
                "OutlineColor": {
                  "G": 0,
                  "B": 0
                },
                "ShadowColor": {
                  "R": 110,
                  "G": 110,
                  "B": 110
                },
                "ShadowOffsetX": 2.0,
                "ShadowOffsetY": -2.0,
                "AnchorPoint": {
                  "ScaleY": 1.0
                },
                "Position": {
                  "X": 146.7138,
                  "Y": 259.732
                },
                "Scale": {
                  "ScaleX": 1.0,
                  "ScaleY": 1.0
                },
                "CColor": {},
                "IconVisible": false,
                "PrePosition": {
                  "X": 0.3668,
                  "Y": 0.8041
                },
                "PreSize": {
                  "X": 0.55,
                  "Y": 0.1858
                },
                "LeftMargin": 146.7138,
                "RightMargin": 33.2862,
                "TopMargin": 63.268,
                "BottomMargin": 199.732,
                "Tag": 31,
                "ActionTag": 1526070798,
                "Size": {
                  "X": 220.0,
                  "Y": 60.0
                },
                "Name": "sign_text",
                "ctype": "TextObjectData"
              },
              {
                "IsCustomSize": true,
                "FontSize": 20,
                "LabelText": "",
                "FontResource": {
                  "Type": "Normal",
                  "Path": "fonts/round_body.ttf",
                  "Plist": ""
                },
                "OutlineColor": {
                  "G": 0,
                  "B": 0
                },
                "ShadowColor": {
                  "R": 110,
                  "G": 110,
                  "B": 110
                },
                "ShadowOffsetX": 2.0,
                "ShadowOffsetY": -2.0,
                "AnchorPoint": {
                  "ScaleY": 0.5
                },
                "Position": {
                  "X": 275.9999,
                  "Y": 158.0
                },
                "Scale": {
                  "ScaleX": 1.0,
                  "ScaleY": 1.0
                },
                "CColor": {
                  "B": 0
                },
                "IconVisible": false,
                "PrePosition": {
                  "X": 0.69,
                  "Y": 0.4892
                },
                "PreSize": {
                  "X": 0.275,
                  "Y": 0.0619
                },
                "LeftMargin": 275.9999,
                "RightMargin": 14.0001,
                "TopMargin": 155.0,
                "BottomMargin": 148.0,
                "Tag": 28,
                "ActionTag": -1391323821,
                "Size": {
                  "X": 110.0,
                  "Y": 20.0
                },
                "Name": "vip_text",
                "ctype": "TextObjectData"
              },
              {
                "IsCustomSize": true,
                "FontSize": 20,
                "LabelText": "",
                "OutlineColor": {
                  "G": 0,
                  "B": 0
                },
                "ShadowColor": {
                  "R": 110,
                  "G": 110,
                  "B": 110
                },
                "ShadowOffsetX": 2.0,
                "ShadowOffsetY": -2.0,
                "AnchorPoint": {
                  "ScaleY": 0.5
                },
                "Position": {
                  "X": 78.0,
                  "Y": 157.0
                },
                "Scale": {
                  "ScaleX": 1.0,
                  "ScaleY": 1.0
                },
                "CColor": {},
                "IconVisible": false,
                "PrePosition": {
                  "X": 0.195,
                  "Y": 0.4861
                },
                "PreSize": {
                  "X": 0.275,
                  "Y": 0.0619
                },
                "LeftMargin": 78.0,
                "RightMargin": 212.0,
                "TopMargin": 156.0,
                "BottomMargin": 147.0,
                "Tag": 145,
                "ActionTag": 940244423,
                "Size": {
                  "X": 110.0,
                  "Y": 20.0
                },
                "Name": "nick_text",
                "ctype": "TextObjectData"
              },
              {
                "FontSize": 20,
                "LabelText": "",
                "FontResource": {
                  "Type": "Normal",
                  "Path": "fonts/round_body.ttf",
                  "Plist": ""
                },
                "OutlineColor": {
                  "G": 0,
                  "B": 0
                },
                "ShadowColor": {
                  "R": 110,
                  "G": 110,
                  "B": 110
                },
                "ShadowOffsetX": 2.0,
                "ShadowOffsetY": -2.0,
                "AnchorPoint": {
                  "ScaleY": 0.5
                },
                "Position": {
                  "X": 78.0,
                  "Y": 126.0
                },
                "Scale": {
                  "ScaleX": 1.0,
                  "ScaleY": 1.0
                },
                "CColor": {
                  "G": 232,
                  "B": 170
                },
                "IconVisible": false,
                "PrePosition": {
                  "X": 0.195,
                  "Y": 0.3901
                },
                "PreSize": {
                  "X": 0.0,
                  "Y": 0.0
                },
                "LeftMargin": 78.0,
                "RightMargin": 322.0,
                "TopMargin": 197.0,
                "BottomMargin": 126.0,
                "Tag": 234,
                "ActionTag": 720358670,
                "Size": {
                  "X": 0.0,
                  "Y": 0.0
                },
                "Name": "id_text",
                "ctype": "TextObjectData"
              },
              {
                "FontSize": 20,
                "LabelText": "",
                "FontResource": {
                  "Type": "Normal",
                  "Path": "fonts/round_body.ttf",
                  "Plist": ""
                },
                "OutlineColor": {
                  "G": 0,
                  "B": 0
                },
                "ShadowColor": {
                  "R": 110,
                  "G": 110,
                  "B": 110
                },
                "ShadowOffsetX": 2.0,
                "ShadowOffsetY": -2.0,
                "AnchorPoint": {
                  "ScaleY": 0.5
                },
                "Position": {
                  "X": 78.0,
                  "Y": 96.0
                },
                "Scale": {
                  "ScaleX": 1.0,
                  "ScaleY": 1.0
                },
                "CColor": {
                  "G": 232,
                  "B": 170
                },
                "IconVisible": false,
                "PrePosition": {
                  "X": 0.195,
                  "Y": 0.2972
                },
                "PreSize": {
                  "X": 0.0,
                  "Y": 0.0
                },
                "LeftMargin": 78.0,
                "RightMargin": 322.0,
                "TopMargin": 227.0,
                "BottomMargin": 96.0,
                "Tag": 30,
                "ActionTag": -1511633111,
                "Size": {
                  "X": 0.0,
                  "Y": 0.0
                },
                "Name": "ingot_text",
                "ctype": "TextObjectData"
              },
              {
                "FontSize": 20,
                "LabelText": "",
                "FontResource": {
                  "Type": "Normal",
                  "Path": "fonts/round_body.ttf",
                  "Plist": ""
                },
                "OutlineColor": {
                  "G": 0,
                  "B": 0
                },
                "ShadowColor": {
                  "R": 110,
                  "G": 110,
                  "B": 110
                },
                "ShadowOffsetX": 2.0,
                "ShadowOffsetY": -2.0,
                "AnchorPoint": {
                  "ScaleY": 0.5
                },
                "Position": {
                  "X": 276.0,
                  "Y": 126.0
                },
                "Scale": {
                  "ScaleX": 1.0,
                  "ScaleY": 1.0
                },
                "CColor": {
                  "B": 0
                },
                "IconVisible": false,
                "PrePosition": {
                  "X": 0.69,
                  "Y": 0.3901
                },
                "PreSize": {
                  "X": 0.0,
                  "Y": 0.0
                },
                "LeftMargin": 276.0,
                "RightMargin": 124.0,
                "TopMargin": 197.0,
                "BottomMargin": 126.0,
                "CallBackType": "Click",
                "Tag": 235,
                "ActionTag": -1688199708,
                "Size": {
                  "X": 0.0,
                  "Y": 0.0
                },
                "Name": "score_text",
                "ctype": "TextObjectData"
              },
              {
                "FontSize": 20,
                "LabelText": "",
                "FontResource": {
                  "Type": "Normal",
                  "Path": "fonts/round_body.ttf",
                  "Plist": ""
                },
                "OutlineColor": {
                  "G": 0,
                  "B": 0
                },
                "ShadowColor": {
                  "R": 110,
                  "G": 110,
                  "B": 110
                },
                "ShadowOffsetX": 2.0,
                "ShadowOffsetY": -2.0,
                "AnchorPoint": {
                  "ScaleY": 0.5
                },
                "Position": {
                  "X": 276.0,
                  "Y": 96.0
                },
                "Scale": {
                  "ScaleX": 1.0,
                  "ScaleY": 1.0
                },
                "CColor": {
                  "B": 0
                },
                "IconVisible": false,
                "PrePosition": {
                  "X": 0.69,
                  "Y": 0.2972
                },
                "PreSize": {
                  "X": 0.0,
                  "Y": 0.0
                },
                "LeftMargin": 276.0,
                "RightMargin": 124.0,
                "TopMargin": 227.0,
                "BottomMargin": 96.0,
                "Tag": 236,
                "ActionTag": 1766717664,
                "Size": {
                  "X": 0.0,
                  "Y": 0.0
                },
                "Name": "bean_text",
                "ctype": "TextObjectData"
              },
              {
                "FontSize": 14,
                "ButtonText": "",
                "TextColor": {
                  "R": 65,
                  "G": 65,
                  "B": 70
                },
                "DisabledFileData": {
                  "Type": "PlistSubImage",
                  "Path": "bt_addfriend_game.png",
                  "Plist": "public/public.plist"
                },
                "PressedFileData": {
                  "Type": "PlistSubImage",
                  "Path": "bt_addfriend_game.png",
                  "Plist": "public/public.plist"
                },
                "NormalFileData": {
                  "Type": "PlistSubImage",
                  "Path": "bt_addfriend_game.png",
                  "Plist": "public/public.plist"
                },
                "Scale9Enable": true,
                "Scale9OriginX": 10,
                "Scale9OriginY": 10,
                "Scale9Width": 223,
                "Scale9Height": 63,
                "OutlineColor": {
                  "G": 0,
                  "B": 0
                },
                "ShadowColor": {
                  "R": 110,
                  "G": 110,
                  "B": 110
                },
                "ShadowOffsetX": 2.0,
                "ShadowOffsetY": -2.0,
                "TouchEnable": true,
                "AnchorPoint": {
                  "ScaleX": 0.5,
                  "ScaleY": 0.5
                },
                "Position": {
                  "X": 272.052,
                  "Y": 218.554
                },
                "Scale": {
                  "ScaleX": 1.0,
                  "ScaleY": 1.0
                },
                "CColor": {},
                "IconVisible": false,
                "PositionPercentXEnabled": true,
                "PrePosition": {
                  "X": 0.6801,
                  "Y": 0.6766
                },
                "PreSize": {
                  "X": 0.6025,
                  "Y": 0.2508
                },
                "LeftMargin": 151.552,
                "RightMargin": 7.448,
                "TopMargin": 63.946,
                "BottomMargin": 178.054,
                "Tag": 160,
                "ActionTag": 675523784,
                "Size": {
                  "X": 241.0,
                  "Y": 81.0
                },
                "Name": "addfriend_btn",
                "ctype": "ButtonObjectData"
              },
              {
                "FontSize": 20,
                "LabelText": "",
                "FontResource": {
                  "Type": "Normal",
                  "Path": "fonts/round_body.ttf",
                  "Plist": ""
                },
                "OutlineColor": {
                  "G": 0,
                  "B": 0
                },
                "ShadowColor": {
                  "R": 110,
                  "G": 110,
                  "B": 110
                },
                "ShadowOffsetX": 2.0,
                "ShadowOffsetY": -2.0,
                "AnchorPoint": {
                  "ScaleY": 0.5
                },
                "Position": {
                  "X": 421.0,
                  "Y": 44.0
                },
                "Scale": {
                  "ScaleX": 1.0,
                  "ScaleY": 1.0
                },
                "CColor": {
                  "G": 232,
                  "B": 170
                },
                "IconVisible": false,
                "PrePosition": {
                  "X": 1.0525,
                  "Y": 0.1362
                },
                "PreSize": {
                  "X": 0.0,
                  "Y": 0.0
                },
                "LeftMargin": 421.0,
                "RightMargin": -21.0,
                "TopMargin": 279.0,
                "BottomMargin": 44.0,
                "Tag": 209,
                "ActionTag": 553627213,
                "Size": {
                  "X": 0.0,
                  "Y": 0.0
                },
                "Name": "ip_text",
                "ctype": "TextObjectData"
              },
              {
                "FontSize": 20,
                "LabelText": "",
                "FontResource": {
                  "Type": "Normal",
                  "Path": "fonts/round_body.ttf",
                  "Plist": ""
                },
                "OutlineColor": {
                  "G": 0,
                  "B": 0
                },
                "ShadowColor": {
                  "R": 110,
                  "G": 110,
                  "B": 110
                },
                "ShadowOffsetX": 2.0,
                "ShadowOffsetY": -2.0,
                "AnchorPoint": {
                  "ScaleY": 0.5
                },
                "Position": {
                  "X": 549.0,
                  "Y": 15.9999
                },
                "Scale": {
                  "ScaleX": 1.0,
                  "ScaleY": 1.0
                },
                "CColor": {
                  "G": 232,
                  "B": 170
                },
                "IconVisible": false,
                "PrePosition": {
                  "X": 1.3725,
                  "Y": 0.0495
                },
                "PreSize": {
                  "X": 0.0,
                  "Y": 0.0
                },
                "LeftMargin": 549.0,
                "RightMargin": -149.0,
                "TopMargin": 307.0001,
                "BottomMargin": 15.9999,
                "Tag": 208,
                "ActionTag": -1021129114,
                "Size": {
                  "X": 0.0,
                  "Y": 0.0
                },
                "Name": "distance_text",
                "ctype": "TextObjectData"
              }
            ],
            "ActionTag": 1300026572,
            "Size": {
              "X": 400.0,
              "Y": 323.0
            },
            "Name": "bg_kuang",
            "ctype": "SpriteObjectData"
          }
        ],
        "Size": {
          "X": 1334.0,
          "Y": 750.0
        },
        "Name": "Layer",
        "ctype": "LayerObjectData"
      },
      "UsedResources": [
        "fonts/round_body.ttf",
        "public/public.plist",
        "public/public.png"
      ],
      "ctype": "GameFileData"
    }
  },
  "Type": "Layer"
}