{
  "ID": "d97756e2-dce4-41c7-81a4-6565c92a0d76",
  "Version": "2.3.4",
  "Name": "PromoterInputLayer",
  "Content": {
    "Content": {
      "Animation": {
        "Duration": 0,
        "Speed": 1.0,
        "Timelines": [],
        "ctype": "TimelineActionData"
      },
      "AnimationList": [],
      "ObjectData": {
        "Tag": 63,
        "Children": [
          {
            "ClipAble": false,
            "BackColorAlpha": 102,
            "ComboBoxIndex": 1,
            "SingleColor": {
              "R": 0,
              "G": 0,
              "B": 0
            },
            "FirstColor": {
              "R": 150,
              "G": 200
            },
            "EndColor": {},
            "ColorVector": {
              "ScaleY": 1.0
            },
            "Scale9Width": 1,
            "Scale9Height": 1,
            "TouchEnable": true,
            "AnchorPoint": {},
            "Position": {
              "X": -1.0832,
              "Y": 0.0
            },
            "Scale": {
              "ScaleX": 1.0,
              "ScaleY": 1.0
            },
            "CColor": {},
            "IconVisible": false,
            "PrePosition": {
              "X": -0.0008,
              "Y": 0.0
            },
            "PercentWidthEnable": true,
            "PercentHeightEnable": true,
            "PercentWidthEnabled": true,
            "PercentHeightEnabled": true,
            "PreSize": {
              "X": 1.0,
              "Y": 1.0
            },
            "LeftMargin": -1.0832,
            "RightMargin": 1.0833,
            "Tag": 71,
            "ActionTag": 299375585,
            "Size": {
              "X": 1334.0,
              "Y": 750.0
            },
            "Alpha": 101,
            "Name": "panel_mask",
            "ctype": "PanelObjectData"
          },
          {
            "FileData": {
              "Type": "Normal",
              "Path": "userinfo/uinfo_sp_sharebg.png",
              "Plist": ""
            },
            "Scale9Enable": true,
            "Scale9OriginX": 223,
            "Scale9OriginY": 50,
            "Scale9Width": 369,
            "Scale9Height": 405,
            "AnchorPoint": {
              "ScaleX": 0.5,
              "ScaleY": 0.5
            },
            "Position": {
              "X": 682.5518,
              "Y": 375.2913
            },
            "Scale": {
              "ScaleX": 1.0,
              "ScaleY": 1.0
            },
            "CColor": {},
            "IconVisible": false,
            "PrePosition": {
              "X": 0.5117,
              "Y": 0.5004
            },
            "PreSize": {
              "X": 0.6109,
              "Y": 0.6733
            },
            "LeftMargin": 275.0518,
            "RightMargin": 243.9482,
            "TopMargin": 122.2087,
            "BottomMargin": 122.7913,
            "Tag": 174,
            "Children": [
              {
                "FontSize": 14,
                "ButtonText": "",
                "TextColor": {
                  "R": 65,
                  "G": 65,
                  "B": 70
                },
                "DisabledFileData": {
                  "Type": "Normal",
                  "Path": "General/bt_confirm_0.png",
                  "Plist": ""
                },
                "PressedFileData": {
                  "Type": "Normal",
                  "Path": "General/bt_confirm_1.png",
                  "Plist": ""
                },
                "NormalFileData": {
                  "Type": "Normal",
                  "Path": "General/bt_confirm_0.png",
                  "Plist": ""
                },
                "Scale9Enable": true,
                "Scale9OriginX": 15,
                "Scale9OriginY": 11,
                "Scale9Width": 160,
                "Scale9Height": 42,
                "OutlineColor": {
                  "G": 0,
                  "B": 0
                },
                "ShadowColor": {
                  "R": 110,
                  "G": 110,
                  "B": 110
                },
                "ShadowOffsetX": 2.0,
                "ShadowOffsetY": -2.0,
                "TouchEnable": true,
                "AnchorPoint": {
                  "ScaleX": 0.5,
                  "ScaleY": 0.5
                },
                "Position": {
                  "X": 679.1395,
                  "Y": 68.9675
                },
                "Scale": {
                  "ScaleX": 1.0,
                  "ScaleY": 1.0
                },
                "CColor": {},
                "IconVisible": false,
                "PositionPercentXEnabled": true,
                "PrePosition": {
                  "X": 0.8333,
                  "Y": 0.1366
                },
                "PreSize": {
                  "X": 0.2331,
                  "Y": 0.1267
                },
                "LeftMargin": 584.1395,
                "RightMargin": 40.8605,
                "TopMargin": 404.0325,
                "BottomMargin": 36.9675,
                "Tag": 68,
                "ActionTag": 85106436,
                "Size": {
                  "X": 190.0,
                  "Y": 64.0
                },
                "Name": "btn_sure",
                "ctype": "ButtonObjectData"
              },
              {
                "FileData": {
                  "Type": "MarkedSubImage",
                  "Path": "userinfo/userinfo/uinfo_sp_edit_bg.png",
                  "Plist": "userinfo/userinfo.plist"
                },
                "Scale9Enable": true,
                "Scale9OriginX": 80,
                "Scale9OriginY": 25,
                "Scale9Width": 211,
                "Scale9Height": 7,
                "AnchorPoint": {
                  "ScaleX": 0.5,
                  "ScaleY": 0.5
                },
                "Position": {
                  "X": 374.6815,
                  "Y": 71.5014
                },
                "Scale": {
                  "ScaleX": 1.0,
                  "ScaleY": 1.0
                },
                "CColor": {},
                "IconVisible": false,
                "PrePosition": {
                  "X": 0.4597,
                  "Y": 0.1416
                },
                "PreSize": {
                  "X": 0.4552,
                  "Y": 0.1129
                },
                "LeftMargin": 189.1815,
                "RightMargin": 254.8185,
                "TopMargin": 404.9986,
                "BottomMargin": 43.0014,
                "Tag": 20,
                "ActionTag": 35182124,
                "Size": {
                  "X": 371.0,
                  "Y": 57.0
                },
                "Name": "sp_uinfoedit_bg",
                "ctype": "ImageViewObjectData"
              },
              {
                "FontSize": 14,
                "ButtonText": "",
                "TextColor": {
                  "R": 65,
                  "G": 65,
                  "B": 70
                },
                "PressedFileData": {
                  "Type": "Normal",
                  "Path": "General/bt_close_1.png",
                  "Plist": ""
                },
                "NormalFileData": {
                  "Type": "Normal",
                  "Path": "General/bt_close_0.png",
                  "Plist": ""
                },
                "Scale9Enable": true,
                "Scale9OriginX": 15,
                "Scale9OriginY": 11,
                "Scale9Width": 61,
                "Scale9Height": 69,
                "OutlineColor": {
                  "G": 0,
                  "B": 0
                },
                "ShadowColor": {
                  "R": 110,
                  "G": 110,
                  "B": 110
                },
                "ShadowOffsetX": 2.0,
                "ShadowOffsetY": -2.0,
                "TouchEnable": true,
                "AnchorPoint": {
                  "ScaleX": 0.5,
                  "ScaleY": 0.5
                },
                "Position": {
                  "X": 815.0,
                  "Y": 500.0
                },
                "Scale": {
                  "ScaleX": 1.0,
                  "ScaleY": 1.0
                },
                "CColor": {},
                "IconVisible": false,
                "PositionPercentXEnabled": true,
                "PrePosition": {
                  "X": 1.0,
                  "Y": 0.9901
                },
                "PreSize": {
                  "X": 0.1117,
                  "Y": 0.1802
                },
                "LeftMargin": 769.5,
                "RightMargin": -45.5,
                "TopMargin": -40.5,
                "BottomMargin": 454.5,
                "Tag": 175,
                "ActionTag": 486876906,
                "Size": {
                  "X": 91.0,
                  "Y": 91.0
                },
                "VisibleForFrame": false,
                "Name": "btn_close",
                "ctype": "ButtonObjectData"
              },
              {
                "FontSize": 14,
                "ButtonText": "",
                "TextColor": {
                  "R": 65,
                  "G": 65,
                  "B": 70
                },
                "PressedFileData": {
                  "Type": "MarkedSubImage",
                  "Path": "userinfo/userinfo/uinfo_btn_wechat.png",
                  "Plist": "userinfo/userinfo.plist"
                },
                "NormalFileData": {
                  "Type": "MarkedSubImage",
                  "Path": "userinfo/userinfo/uinfo_btn_wechat.png",
                  "Plist": "userinfo/userinfo.plist"
                },
                "Scale9Enable": true,
                "Scale9OriginX": 15,
                "Scale9OriginY": 11,
                "Scale9Width": 69,
                "Scale9Height": 66,
                "OutlineColor": {
                  "G": 0,
                  "B": 0
                },
                "ShadowColor": {
                  "R": 110,
                  "G": 110,
                  "B": 110
                },
                "ShadowOffsetX": 2.0,
                "ShadowOffsetY": -2.0,
                "TouchEnable": true,
                "AnchorPoint": {
                  "ScaleX": 0.5,
                  "ScaleY": 0.5
                },
                "Position": {
                  "X": 462.0,
                  "Y": 360.0
                },
                "Scale": {
                  "ScaleX": 1.0,
                  "ScaleY": 1.0
                },
                "CColor": {},
                "IconVisible": false,
                "PrePosition": {
                  "X": 0.5669,
                  "Y": 0.7129
                },
                "PreSize": {
                  "X": 0.1215,
                  "Y": 0.1743
                },
                "LeftMargin": 412.5,
                "RightMargin": 303.5,
                "TopMargin": 101.0,
                "BottomMargin": 316.0,
                "Tag": 375,
                "ActionTag": -1396729777,
                "Size": {
                  "X": 99.0,
                  "Y": 88.0
                },
                "Name": "btn_wechat",
                "ctype": "ButtonObjectData"
              },
              {
                "FontSize": 14,
                "ButtonText": "",
                "TextColor": {
                  "R": 65,
                  "G": 65,
                  "B": 70
                },
                "PressedFileData": {
                  "Type": "MarkedSubImage",
                  "Path": "userinfo/userinfo/uinfo_btn_cycle.png",
                  "Plist": "userinfo/userinfo.plist"
                },
                "NormalFileData": {
                  "Type": "MarkedSubImage",
                  "Path": "userinfo/userinfo/uinfo_btn_cycle.png",
                  "Plist": "userinfo/userinfo.plist"
                },
                "Scale9Enable": true,
                "Scale9OriginX": 15,
                "Scale9OriginY": 11,
                "Scale9Width": 75,
                "Scale9Height": 87,
                "OutlineColor": {
                  "G": 0,
                  "B": 0
                },
                "ShadowColor": {
                  "R": 110,
                  "G": 110,
                  "B": 110
                },
                "ShadowOffsetX": 2.0,
                "ShadowOffsetY": -2.0,
                "TouchEnable": true,
                "AnchorPoint": {
                  "ScaleX": 0.5,
                  "ScaleY": 0.5
                },
                "Position": {
                  "X": 576.0,
                  "Y": 360.0
                },
                "Scale": {
                  "ScaleX": 1.0,
                  "ScaleY": 1.0
                },
                "CColor": {},
                "IconVisible": false,
                "PrePosition": {
                  "X": 0.7067,
                  "Y": 0.7129
                },
                "PreSize": {
                  "X": 0.1288,
                  "Y": 0.2158
                },
                "LeftMargin": 523.5,
                "RightMargin": 186.5,
                "TopMargin": 90.5,
                "BottomMargin": 305.5,
                "Tag": 376,
                "ActionTag": -644095512,
                "Size": {
                  "X": 105.0,
                  "Y": 109.0
                },
                "Name": "btn_cycle",
                "ctype": "ButtonObjectData"
              },
              {
                "FontSize": 14,
                "ButtonText": "",
                "TextColor": {
                  "R": 65,
                  "G": 65,
                  "B": 70
                },
                "PressedFileData": {
                  "Type": "MarkedSubImage",
                  "Path": "userinfo/userinfo/uinfo_btn_contact.png",
                  "Plist": "userinfo/userinfo.plist"
                },
                "NormalFileData": {
                  "Type": "MarkedSubImage",
                  "Path": "userinfo/userinfo/uinfo_btn_contact.png",
                  "Plist": "userinfo/userinfo.plist"
                },
                "Scale9Enable": true,
                "Scale9OriginX": 15,
                "Scale9OriginY": 11,
                "Scale9Width": 53,
                "Scale9Height": 75,
                "OutlineColor": {
                  "G": 0,
                  "B": 0
                },
                "ShadowColor": {
                  "R": 110,
                  "G": 110,
                  "B": 110
                },
                "ShadowOffsetX": 2.0,
                "ShadowOffsetY": -2.0,
                "TouchEnable": true,
                "AnchorPoint": {
                  "ScaleX": 0.5,
                  "ScaleY": 0.5
                },
                "Position": {
                  "X": 686.7553,
                  "Y": 360.0
                },
                "Scale": {
                  "ScaleX": 1.0,
                  "ScaleY": 1.0
                },
                "CColor": {},
                "IconVisible": false,
                "PrePosition": {
                  "X": 0.8426,
                  "Y": 0.7129
                },
                "PreSize": {
                  "X": 0.1018,
                  "Y": 0.1921
                },
                "LeftMargin": 645.2553,
                "RightMargin": 86.7447,
                "TopMargin": 96.5,
                "BottomMargin": 311.5,
                "Tag": 377,
                "ActionTag": -194761579,
                "Size": {
                  "X": 83.0,
                  "Y": 97.0
                },
                "Name": "btn_contact",
                "ctype": "ButtonObjectData"
              },
              {
                "FontSize": 14,
                "ButtonText": "",
                "TextColor": {
                  "R": 65,
                  "G": 65,
                  "B": 70
                },
                "DisabledFileData": {
                  "Type": "MarkedSubImage",
                  "Path": "userinfo/userinfo/uinfo_btn_copy_1.png",
                  "Plist": "userinfo/userinfo.plist"
                },
                "PressedFileData": {
                  "Type": "MarkedSubImage",
                  "Path": "userinfo/userinfo/uinfo_btn_copy_1.png",
                  "Plist": "userinfo/userinfo.plist"
                },
                "NormalFileData": {
                  "Type": "MarkedSubImage",
                  "Path": "userinfo/userinfo/uinfo_btn_copy_0.png",
                  "Plist": "userinfo/userinfo.plist"
                },
                "Scale9Enable": true,
                "Scale9OriginX": 15,
                "Scale9OriginY": 11,
                "Scale9Width": 124,
                "Scale9Height": 52,
                "OutlineColor": {
                  "G": 0,
                  "B": 0
                },
                "ShadowColor": {
                  "R": 110,
                  "G": 110,
                  "B": 110
                },
                "ShadowOffsetX": 2.0,
                "ShadowOffsetY": -2.0,
                "TouchEnable": true,
                "AnchorPoint": {
                  "ScaleX": 0.5,
                  "ScaleY": 0.5
                },
                "Position": {
                  "X": 570.178,
                  "Y": 222.6199
                },
                "Scale": {
                  "ScaleX": 1.0,
                  "ScaleY": 1.0
                },
                "CColor": {},
                "IconVisible": false,
                "PrePosition": {
                  "X": 0.6996,
                  "Y": 0.4408
                },
                "PreSize": {
                  "X": 0.189,
                  "Y": 0.1465
                },
                "LeftMargin": 493.178,
                "RightMargin": 167.822,
                "TopMargin": 245.3801,
                "BottomMargin": 185.6199,
                "Tag": 392,
                "ActionTag": -473771605,
                "Size": {
                  "X": 154.0,
                  "Y": 74.0
                },
                "Name": "btn_copy",
                "ctype": "ButtonObjectData"
              },
              {
                "CharWidth": 25,
                "CharHeight": 31,
                "LabelText": "",
                "StartChar": "0",
                "LabelAtlasFileImage_CNB": {
                  "Type": "Normal",
                  "Path": "userinfo/uinfo_atlas_sendcount.png",
                  "Plist": ""
                },
                "AnchorPoint": {
                  "ScaleX": 0.5,
                  "ScaleY": 0.5
                },
                "Position": {
                  "X": 510.1523,
                  "Y": 639.9999
                },
                "Scale": {
                  "ScaleX": 1.0,
                  "ScaleY": 1.0
                },
                "CColor": {},
                "IconVisible": false,
                "PrePosition": {
                  "X": 0.626,
                  "Y": 1.2673
                },
                "PreSize": {
                  "X": 0.0,
                  "Y": 0.0
                },
                "LeftMargin": 510.1523,
                "RightMargin": 304.8477,
                "TopMargin": -134.9999,
                "BottomMargin": 639.9999,
                "Tag": 394,
                "ActionTag": 801218108,
                "Size": {
                  "X": 0.0,
                  "Y": 0.0
                },
                "VisibleForFrame": false,
                "Name": "atlas_sendcount",
                "ctype": "TextAtlasObjectData"
              },
              {
                "FontSize": 14,
                "ButtonText": "",
                "TextColor": {
                  "R": 65,
                  "G": 65,
                  "B": 70
                },
                "Scale9Enable": true,
                "Scale9OriginX": 15,
                "Scale9OriginY": 11,
                "Scale9Width": 161,
                "Scale9Height": 56,
                "OutlineColor": {
                  "G": 0,
                  "B": 0
                },
                "ShadowColor": {
                  "R": 110,
                  "G": 110,
                  "B": 110
                },
                "ShadowOffsetX": 2.0,
                "ShadowOffsetY": -2.0,
                "TouchEnable": true,
                "AnchorPoint": {
                  "ScaleX": 0.5,
                  "ScaleY": 0.5
                },
                "Position": {
                  "X": 767.0,
                  "Y": 460.0
                },
                "Scale": {
                  "ScaleX": 1.0,
                  "ScaleY": 1.0
                },
                "CColor": {
                  "R": 0,
                  "G": 0
                },
                "IconVisible": false,
                "PrePosition": {
                  "X": 0.9411,
                  "Y": 0.9109
                },
                "PreSize": {
                  "X": 0.0,
                  "Y": 0.0
                },
                "LeftMargin": 767.0,
                "RightMargin": 48.0,
                "TopMargin": 45.0,
                "BottomMargin": 460.0,
                "Tag": 396,
                "ActionTag": -128037218,
                "Size": {
                  "X": 0.0,
                  "Y": 0.0
                },
                "Name": "btn_qrcode",
                "ctype": "ButtonObjectData"
              }
            ],
            "ActionTag": -134254605,
            "Size": {
              "X": 815.0,
              "Y": 505.0
            },
            "Name": "qr_sp_bg",
            "ctype": "ImageViewObjectData"
          }
        ],
        "Size": {
          "X": 1334.0,
          "Y": 750.0
        },
        "Name": "Layer",
        "ctype": "LayerObjectData"
      },
      "UsedResources": [
        "General/bt_close_0.png",
        "General/bt_close_1.png",
        "General/bt_confirm_0.png",
        "General/bt_confirm_1.png",
        "userinfo/uinfo_atlas_sendcount.png",
        "userinfo/uinfo_sp_sharebg.png",
        "userinfo/userinfo.plist",
        "userinfo/userinfo.png"
      ],
      "ctype": "GameFileData"
    }
  },
  "Type": "Layer"
}