{
  "ID": "6c4b4851-14b8-4c16-9fbe-ae28a6a9ae55",
  "Version": "2.3.4",
  "Name": "QrCodeLayer",
  "Content": {
    "Content": {
      "Animation": {
        "Duration": 0,
        "Speed": 1.0,
        "Timelines": [],
        "ctype": "TimelineActionData"
      },
      "AnimationList": [],
      "ObjectData": {
        "Tag": 24,
        "Children": [
          {
            "FileData": {
              "Type": "Normal",
              "Path": "userinfo/qr_sp_bg.png",
              "Plist": ""
            },
            "BlendFunc": {
              "Src": 1,
              "Dst": 771
            },
            "AnchorPoint": {
              "ScaleX": 0.5,
              "ScaleY": 1.5
            },
            "Position": {
              "X": 667.0,
              "Y": 845.0
            },
            "Scale": {
              "ScaleX": 1.0,
              "ScaleY": 1.0
            },
            "CColor": {},
            "IconVisible": false,
            "PositionPercentXEnabled": true,
            "PrePosition": {
              "X": 0.5,
              "Y": 1.1267
            },
            "PreSize": {
              "X": 0.5787,
              "Y": 0.6267
            },
            "LeftMargin": 281.0,
            "RightMargin": 281.0,
            "TopMargin": 140.0,
            "BottomMargin": 140.0,
            "Tag": 25,
            "Children": [
              {
                "FileData": {
                  "Type": "MarkedSubImage",
                  "Path": "userinfo/userinfo/qr_sp_title.png",
                  "Plist": "userinfo/userinfo.plist"
                },
                "BlendFunc": {
                  "Src": 1,
                  "Dst": 771
                },
                "AnchorPoint": {
                  "ScaleX": 0.5,
                  "ScaleY": 0.5
                },
                "Position": {
                  "X": 386.0,
                  "Y": 470.0
                },
                "Scale": {
                  "ScaleX": 1.0,
                  "ScaleY": 1.0
                },
                "CColor": {},
                "IconVisible": false,
                "PrePosition": {
                  "X": 0.5,
                  "Y": 1.0
                },
                "PreSize": {
                  "X": 0.487,
                  "Y": 0.1957
                },
                "LeftMargin": 198.0,
                "RightMargin": 198.0,
                "TopMargin": -46.0,
                "BottomMargin": 424.0,
                "Tag": 26,
                "ActionTag": 158209304,
                "Size": {
                  "X": 376.0,
                  "Y": 92.0
                },
                "Name": "qr_sp_title_2",
                "ctype": "SpriteObjectData"
              },
              {
                "FontSize": 14,
                "ButtonText": "",
                "TextColor": {
                  "R": 65,
                  "G": 65,
                  "B": 70
                },
                "PressedFileData": {
                  "Type": "MarkedSubImage",
                  "Path": "userinfo/userinfo/qr_btn_share_1.png",
                  "Plist": "userinfo/userinfo.plist"
                },
                "NormalFileData": {
                  "Type": "MarkedSubImage",
                  "Path": "userinfo/userinfo/qr_btn_share_0.png",
                  "Plist": "userinfo/userinfo.plist"
                },
                "Scale9OriginX": 15,
                "Scale9OriginY": 11,
                "Scale9Width": 154,
                "Scale9Height": 46,
                "OutlineColor": {
                  "G": 0,
                  "B": 0
                },
                "ShadowColor": {
                  "R": 110,
                  "G": 110,
                  "B": 110
                },
                "ShadowOffsetX": 2.0,
                "ShadowOffsetY": -2.0,
                "TouchEnable": true,
                "AnchorPoint": {
                  "ScaleX": 0.5,
                  "ScaleY": 0.5
                },
                "Position": {
                  "X": 193.0,
                  "Y": -50.0
                },
                "Scale": {
                  "ScaleX": 1.0,
                  "ScaleY": 1.0
                },
                "CColor": {},
                "IconVisible": false,
                "PrePosition": {
                  "X": 0.25,
                  "Y": -0.1064
                },
                "PreSize": {
                  "X": 0.2383,
                  "Y": 0.1447
                },
                "LeftMargin": 101.0,
                "RightMargin": 487.0,
                "TopMargin": 486.0,
                "BottomMargin": -84.0,
                "Tag": 27,
                "ActionTag": 1537968126,
                "Size": {
                  "X": 184.0,
                  "Y": 68.0
                },
                "Name": "btn_share",
                "ctype": "ButtonObjectData"
              },
              {
                "FontSize": 14,
                "ButtonText": "",
                "TextColor": {
                  "R": 65,
                  "G": 65,
                  "B": 70
                },
                "PressedFileData": {
                  "Type": "MarkedSubImage",
                  "Path": "userinfo/userinfo/qr_btn_save_1.png",
                  "Plist": "userinfo/userinfo.plist"
                },
                "NormalFileData": {
                  "Type": "MarkedSubImage",
                  "Path": "userinfo/userinfo/qr_btn_save_0.png",
                  "Plist": "userinfo/userinfo.plist"
                },
                "Scale9OriginX": 15,
                "Scale9OriginY": 11,
                "Scale9Width": 154,
                "Scale9Height": 46,
                "OutlineColor": {
                  "G": 0,
                  "B": 0
                },
                "ShadowColor": {
                  "R": 110,
                  "G": 110,
                  "B": 110
                },
                "ShadowOffsetX": 2.0,
                "ShadowOffsetY": -2.0,
                "TouchEnable": true,
                "AnchorPoint": {
                  "ScaleX": 0.5,
                  "ScaleY": 0.5
                },
                "Position": {
                  "X": 579.0,
                  "Y": -50.0
                },
                "Scale": {
                  "ScaleX": 1.0,
                  "ScaleY": 1.0
                },
                "CColor": {},
                "IconVisible": false,
                "PrePosition": {
                  "X": 0.75,
                  "Y": -0.1064
                },
                "PreSize": {
                  "X": 0.2383,
                  "Y": 0.1447
                },
                "LeftMargin": 487.0,
                "RightMargin": 101.0,
                "TopMargin": 486.0,
                "BottomMargin": -84.0,
                "Tag": 28,
                "ActionTag": -206833575,
                "Size": {
                  "X": 184.0,
                  "Y": 68.0
                },
                "Name": "btn_save",
                "ctype": "ButtonObjectData"
              },
              {
                "FontSize": 32,
                "LabelText": "912游戏下载",
                "FontResource": {
                  "Type": "Normal",
                  "Path": "fonts/round_body.ttf",
                  "Plist": ""
                },
                "OutlineColor": {
                  "G": 0,
                  "B": 0
                },
                "ShadowColor": {
                  "R": 110,
                  "G": 110,
                  "B": 110
                },
                "ShadowOffsetX": 2.0,
                "ShadowOffsetY": -2.0,
                "AnchorPoint": {
                  "ScaleX": 0.5,
                  "ScaleY": 0.5
                },
                "Position": {
                  "X": 386.0,
                  "Y": 400.0
                },
                "Scale": {
                  "ScaleX": 1.0,
                  "ScaleY": 1.0
                },
                "CColor": {
                  "R": 108,
                  "G": 40,
                  "B": 7
                },
                "IconVisible": false,
                "PrePosition": {
                  "X": 0.5,
                  "Y": 0.8511
                },
                "PreSize": {
                  "X": 0.2306,
                  "Y": 0.0809
                },
                "LeftMargin": 297.0,
                "RightMargin": 297.0,
                "TopMargin": 51.0,
                "BottomMargin": 381.0,
                "Tag": 162,
                "ActionTag": -1007545457,
                "Size": {
                  "X": 178.0,
                  "Y": 38.0
                },
                "Name": "bg_title",
                "ctype": "TextObjectData"
              },
              {
                "FontSize": 32,
                "LabelText": "ID:123456",
                "FontResource": {
                  "Type": "Normal",
                  "Path": "fonts/round_body.ttf",
                  "Plist": ""
                },
                "OutlineColor": {
                  "G": 0,
                  "B": 0
                },
                "ShadowColor": {
                  "R": 110,
                  "G": 110,
                  "B": 110
                },
                "ShadowOffsetX": 2.0,
                "ShadowOffsetY": -2.0,
                "AnchorPoint": {
                  "ScaleX": 0.5,
                  "ScaleY": 0.5
                },
                "Position": {
                  "X": 386.0,
                  "Y": 70.0
                },
                "Scale": {
                  "ScaleX": 1.0,
                  "ScaleY": 1.0
                },
                "CColor": {
                  "R": 108,
                  "G": 40,
                  "B": 7
                },
                "IconVisible": false,
                "PrePosition": {
                  "X": 0.5,
                  "Y": 0.1489
                },
                "PreSize": {
                  "X": 0.1852,
                  "Y": 0.0809
                },
                "LeftMargin": 314.5,
                "RightMargin": 314.5,
                "TopMargin": 381.0,
                "BottomMargin": 51.0,
                "Tag": 164,
                "ActionTag": 1814801542,
                "Size": {
                  "X": 143.0,
                  "Y": 38.0
                },
                "Name": "txt_id",
                "ctype": "TextObjectData"
              }
            ],
            "ActionTag": 1338316553,
            "Size": {
              "X": 772.0,
              "Y": 470.0
            },
            "Name": "qr_sp_bg",
            "ctype": "SpriteObjectData"
          }
        ],
        "Size": {
          "X": 1334.0,
          "Y": 750.0
        },
        "Name": "Layer",
        "ctype": "LayerObjectData"
      },
      "UsedResources": [
        "fonts/round_body.ttf",
        "userinfo/qr_sp_bg.png",
        "userinfo/userinfo.plist",
        "userinfo/userinfo.png"
      ],
      "ctype": "GameFileData"
    }
  },
  "Type": "Layer"
}