{
  "ID": "6df64713-d597-40e9-8f89-99f522e8581a",
  "Version": "2.3.4",
  "Name": "SelectHeadLayer",
  "Content": {
    "Content": {
      "Animation": {
        "Duration": 0,
        "Speed": 1.0,
        "Timelines": [],
        "ctype": "TimelineActionData"
      },
      "AnimationList": [],
      "ObjectData": {
        "Tag": 82,
        "Children": [
          {
            "FileData": {
              "Type": "Normal",
              "Path": "userinfo/sp_head_sel_bg.png",
              "Plist": ""
            },
            "BlendFunc": {
              "Src": 1,
              "Dst": 771
            },
            "AnchorPoint": {
              "ScaleX": 0.5,
              "ScaleY": 0.5
            },
            "Position": {
              "X": 667.0,
              "Y": 375.0
            },
            "Scale": {
              "ScaleX": 1.0,
              "ScaleY": 1.0
            },
            "CColor": {},
            "IconVisible": false,
            "PositionPercentXEnabled": true,
            "PositionPercentYEnabled": true,
            "PrePosition": {
              "X": 0.5,
              "Y": 0.5
            },
            "PreSize": {
              "X": 0.5487,
              "Y": 0.5253
            },
            "LeftMargin": 301.0,
            "RightMargin": 301.0,
            "TopMargin": 178.0,
            "BottomMargin": 178.0,
            "Tag": 83,
            "Children": [
              {
                "FontSize": 14,
                "ButtonText": "",
                "TextColor": {
                  "R": 65,
                  "G": 65,
                  "B": 70
                },
                "PressedFileData": {
                  "Type": "MarkedSubImage",
                  "Path": "userinfo/userinfo/btn_zdy_head.png",
                  "Plist": "userinfo/userinfo.plist"
                },
                "NormalFileData": {
                  "Type": "MarkedSubImage",
                  "Path": "userinfo/userinfo/btn_zdy_head.png",
                  "Plist": "userinfo/userinfo.plist"
                },
                "Scale9Enable": true,
                "Scale9OriginX": 15,
                "Scale9OriginY": 11,
                "Scale9Width": 156,
                "Scale9Height": 150,
                "OutlineColor": {
                  "G": 0,
                  "B": 0
                },
                "ShadowColor": {
                  "R": 110,
                  "G": 110,
                  "B": 110
                },
                "ShadowOffsetX": 2.0,
                "ShadowOffsetY": -2.0,
                "TouchEnable": true,
                "AnchorPoint": {
                  "ScaleX": 0.5,
                  "ScaleY": 0.5
                },
                "Position": {
                  "X": 219.6,
                  "Y": 120.0
                },
                "Scale": {
                  "ScaleX": 1.0,
                  "ScaleY": 1.0
                },
                "CColor": {},
                "IconVisible": false,
                "PositionPercentXEnabled": true,
                "PrePosition": {
                  "X": 0.3,
                  "Y": 0.3046
                },
                "PreSize": {
                  "X": 0.2541,
                  "Y": 0.4365
                },
                "LeftMargin": 126.6,
                "RightMargin": 419.4,
                "TopMargin": 188.0,
                "BottomMargin": 34.0,
                "Tag": 88,
                "ActionTag": -386382458,
                "Size": {
                  "X": 186.0,
                  "Y": 172.0
                },
                "Name": "local_btn",
                "ctype": "ButtonObjectData"
              },
              {
                "FontSize": 14,
                "ButtonText": "",
                "TextColor": {
                  "R": 65,
                  "G": 65,
                  "B": 70
                },
                "PressedFileData": {
                  "Type": "MarkedSubImage",
                  "Path": "userinfo/userinfo/btn_sys_head.png",
                  "Plist": "userinfo/userinfo.plist"
                },
                "NormalFileData": {
                  "Type": "MarkedSubImage",
                  "Path": "userinfo/userinfo/btn_sys_head.png",
                  "Plist": "userinfo/userinfo.plist"
                },
                "Scale9Enable": true,
                "Scale9OriginX": 15,
                "Scale9OriginY": 11,
                "Scale9Width": 149,
                "Scale9Height": 148,
                "OutlineColor": {
                  "G": 0,
                  "B": 0
                },
                "ShadowColor": {
                  "R": 110,
                  "G": 110,
                  "B": 110
                },
                "ShadowOffsetX": 2.0,
                "ShadowOffsetY": -2.0,
                "TouchEnable": true,
                "AnchorPoint": {
                  "ScaleX": 0.5,
                  "ScaleY": 0.5
                },
                "Position": {
                  "X": 512.4,
                  "Y": 120.0
                },
                "Scale": {
                  "ScaleX": 1.0,
                  "ScaleY": 1.0
                },
                "CColor": {},
                "IconVisible": false,
                "PositionPercentXEnabled": true,
                "PrePosition": {
                  "X": 0.7,
                  "Y": 0.3046
                },
                "PreSize": {
                  "X": 0.2445,
                  "Y": 0.4315
                },
                "LeftMargin": 422.9,
                "RightMargin": 130.1,
                "TopMargin": 189.0,
                "BottomMargin": 35.0,
                "Tag": 89,
                "ActionTag": 1133283511,
                "Size": {
                  "X": 179.0,
                  "Y": 170.0
                },
                "Name": "system_btn",
                "ctype": "ButtonObjectData"
              }
            ],
            "ActionTag": -150359265,
            "Size": {
              "X": 732.0,
              "Y": 394.0
            },
            "Name": "select_type",
            "ctype": "SpriteObjectData"
          },
          {
            "FileData": {
              "Type": "Normal",
              "Path": "userinfo/sp_head_list.png",
              "Plist": ""
            },
            "BlendFunc": {
              "Src": 1,
              "Dst": 771
            },
            "AnchorPoint": {
              "ScaleX": 0.5,
              "ScaleY": 0.5
            },
            "Position": {
              "X": 667.0,
              "Y": 375.0
            },
            "Scale": {
              "ScaleX": 1.0,
              "ScaleY": 1.0
            },
            "CColor": {},
            "IconVisible": false,
            "PositionPercentXEnabled": true,
            "PositionPercentYEnabled": true,
            "PrePosition": {
              "X": 0.5,
              "Y": 0.5
            },
            "PreSize": {
              "X": 0.7631,
              "Y": 0.772
            },
            "LeftMargin": 158.0,
            "RightMargin": 158.0,
            "TopMargin": 85.5,
            "BottomMargin": 85.5,
            "Tag": 98,
            "Children": [
              {
                "ClipAble": false,
                "BackColorAlpha": 102,
                "SingleColor": {
                  "R": 150,
                  "G": 200
                },
                "FirstColor": {
                  "R": 150,
                  "G": 200
                },
                "EndColor": {},
                "ColorVector": {
                  "ScaleY": 1.0
                },
                "Scale9Width": 1,
                "Scale9Height": 1,
                "TouchEnable": true,
                "AnchorPoint": {},
                "Position": {
                  "X": 10.919,
                  "Y": 60.2021
                },
                "Scale": {
                  "ScaleX": 1.0,
                  "ScaleY": 1.0
                },
                "CColor": {},
                "IconVisible": false,
                "PrePosition": {
                  "X": 0.0107,
                  "Y": 0.104
                },
                "PreSize": {
                  "X": 0.9823,
                  "Y": 0.6736
                },
                "LeftMargin": 10.919,
                "RightMargin": 7.081,
                "TopMargin": 128.7979,
                "BottomMargin": 60.2021,
                "Tag": 100,
                "ActionTag": -37384663,
                "Size": {
                  "X": 1000.0,
                  "Y": 390.0
                },
                "Name": "content",
                "ctype": "PanelObjectData"
              }
            ],
            "ActionTag": 1373097205,
            "Size": {
              "X": 1018.0,
              "Y": 579.0
            },
            "VisibleForFrame": false,
            "Name": "head_list",
            "ctype": "SpriteObjectData"
          }
        ],
        "Size": {
          "X": 1334.0,
          "Y": 750.0
        },
        "Name": "Layer",
        "ctype": "LayerObjectData"
      },
      "UsedResources": [
        "userinfo/sp_head_list.png",
        "userinfo/sp_head_sel_bg.png",
        "userinfo/userinfo.plist",
        "userinfo/userinfo.png"
      ],
      "ctype": "GameFileData"
    }
  },
  "Type": "Layer"
}