{
  "ID": "5d2ecbd8-7abe-42ae-9123-a8a9512ec064",
  "Version": "2.3.4",
  "Name": "TableLayer",
  "Content": {
    "Content": {
      "Animation": {
        "Duration": 0,
        "Speed": 1.0,
        "Timelines": [],
        "ctype": "TimelineActionData"
      },
      "AnimationList": [],
      "ObjectData": {
        "Tag": 18,
        "Children": [
          {
            "FileData": {
              "Type": "Normal",
              "Path": "table/tab_background.png",
              "Plist": ""
            },
            "BlendFunc": {
              "Src": 1,
              "Dst": 771
            },
            "AnchorPoint": {
              "ScaleX": 0.5,
              "ScaleY": 0.5
            },
            "Position": {
              "X": 667.0,
              "Y": 375.0
            },
            "Scale": {
              "ScaleX": 1.0,
              "ScaleY": 1.0
            },
            "CColor": {},
            "IconVisible": false,
            "PositionPercentXEnabled": true,
            "PositionPercentYEnabled": true,
            "PrePosition": {
              "X": 0.5,
              "Y": 0.5
            },
            "PreSize": {
              "X": 1.0,
              "Y": 1.0
            },
            "Tag": 39,
            "ActionTag": -1696431237,
            "Size": {
              "X": 1334.0,
              "Y": 750.0
            },
            "Name": "sp_tabBg",
            "ctype": "SpriteObjectData"
          },
          {
            "FileData": {
              "Type": "PlistSubImage",
              "Path": "table_sp_table.png",
              "Plist": "table/table.plist"
            },
            "BlendFunc": {
              "Src": 770,
              "Dst": 771
            },
            "AnchorPoint": {
              "ScaleX": 0.5,
              "ScaleY": 0.5
            },
            "Position": {
              "X": 933.8,
              "Y": 450.0
            },
            "Scale": {
              "ScaleX": 1.0,
              "ScaleY": 1.0
            },
            "CColor": {},
            "IconVisible": false,
            "PositionPercentXEnabled": true,
            "PositionPercentYEnabled": true,
            "PrePosition": {
              "X": 0.7,
              "Y": 0.6
            },
            "PreSize": {
              "X": 0.3246,
              "Y": 0.5773
            },
            "LeftMargin": 717.3,
            "RightMargin": 183.7,
            "TopMargin": 83.5,
            "BottomMargin": 233.5,
            "Tag": 20,
            "Children": [
              {
                "AnchorPoint": {},
                "Position": {
                  "X": 216.5,
                  "Y": 216.5
                },
                "Scale": {
                  "ScaleX": 1.0,
                  "ScaleY": 1.0
                },
                "CColor": {},
                "IconVisible": true,
                "PositionPercentXEnabled": true,
                "PositionPercentYEnabled": true,
                "PrePosition": {
                  "X": 0.5,
                  "Y": 0.5
                },
                "PreSize": {
                  "X": 0.0,
                  "Y": 0.0
                },
                "LeftMargin": 216.5,
                "RightMargin": 216.5,
                "TopMargin": 216.5,
                "BottomMargin": 216.5,
                "Tag": 34,
                "Children": [
                  {
                    "CharWidth": 24,
                    "CharHeight": 30,
                    "LabelText": "",
                    "StartChar": "0",
                    "LabelAtlasFileImage_CNB": {
                      "Type": "Normal",
                      "Path": "table/tab_atlas_num3.png",
                      "Plist": ""
                    },
                    "AnchorPoint": {
                      "ScaleX": 0.5,
                      "ScaleY": 0.5
                    },
                    "Position": {
                      "X": 0.0,
                      "Y": 145.0
                    },
                    "Scale": {
                      "ScaleX": 1.0,
                      "ScaleY": 1.0
                    },
                    "RotationSkewX": 270.0,
                    "RotationSkewY": 270.0,
                    "CColor": {},
                    "IconVisible": false,
                    "PrePosition": {
                      "X": 0.0,
                      "Y": 0.0
                    },
                    "PreSize": {
                      "X": 0.0,
                      "Y": 0.0
                    },
                    "TopMargin": -145.0,
                    "BottomMargin": 145.0,
                    "Tag": 22,
                    "ActionTag": -259746126,
                    "Size": {
                      "X": 0.0,
                      "Y": 0.0
                    },
                    "Name": "altas_pos_1",
                    "ctype": "TextAtlasObjectData"
                  },
                  {
                    "CharWidth": 24,
                    "CharHeight": 30,
                    "LabelText": "",
                    "StartChar": "0",
                    "LabelAtlasFileImage_CNB": {
                      "Type": "Normal",
                      "Path": "table/tab_atlas_num4.png",
                      "Plist": ""
                    },
                    "AnchorPoint": {
                      "ScaleX": 0.5,
                      "ScaleY": 0.5
                    },
                    "Position": {
                      "X": 72.5,
                      "Y": 125.0
                    },
                    "Scale": {
                      "ScaleX": 1.0,
                      "ScaleY": 1.0
                    },
                    "RotationSkewX": 299.9999,
                    "RotationSkewY": 299.9999,
                    "CColor": {},
                    "IconVisible": false,
                    "PrePosition": {
                      "X": 0.0,
                      "Y": 0.0
                    },
                    "PreSize": {
                      "X": 0.0,
                      "Y": 0.0
                    },
                    "LeftMargin": 72.5,
                    "RightMargin": -72.5,
                    "TopMargin": -125.0,
                    "BottomMargin": 125.0,
                    "Tag": 23,
                    "ActionTag": -344273974,
                    "Size": {
                      "X": 0.0,
                      "Y": 0.0
                    },
                    "Name": "altas_pos_2",
                    "ctype": "TextAtlasObjectData"
                  },
                  {
                    "CharWidth": 24,
                    "CharHeight": 30,
                    "LabelText": "",
                    "StartChar": "0",
                    "LabelAtlasFileImage_CNB": {
                      "Type": "Normal",
                      "Path": "table/tab_atlas_num5.png",
                      "Plist": ""
                    },
                    "AnchorPoint": {
                      "ScaleX": 0.5,
                      "ScaleY": 0.5
                    },
                    "Position": {
                      "X": 125.0,
                      "Y": 72.5
                    },
                    "Scale": {
                      "ScaleX": 1.0,
                      "ScaleY": 1.0
                    },
                    "RotationSkewX": 330.0001,
                    "RotationSkewY": 330.0001,
                    "CColor": {},
                    "IconVisible": false,
                    "PrePosition": {
                      "X": 0.0,
                      "Y": 0.0
                    },
                    "PreSize": {
                      "X": 0.0,
                      "Y": 0.0
                    },
                    "LeftMargin": 125.0,
                    "RightMargin": -125.0,
                    "TopMargin": -72.5,
                    "BottomMargin": 72.5,
                    "Tag": 24,
                    "ActionTag": -975933067,
                    "Size": {
                      "X": 0.0,
                      "Y": 0.0
                    },
                    "Name": "altas_pos_3",
                    "ctype": "TextAtlasObjectData"
                  },
                  {
                    "CharWidth": 24,
                    "CharHeight": 30,
                    "LabelText": "",
                    "StartChar": "0",
                    "LabelAtlasFileImage_CNB": {
                      "Type": "Normal",
                      "Path": "table/tab_atlas_num6.png",
                      "Plist": ""
                    },
                    "AnchorPoint": {
                      "ScaleX": 0.5,
                      "ScaleY": 0.5
                    },
                    "Position": {
                      "X": 145.0,
                      "Y": 0.0
                    },
                    "Scale": {
                      "ScaleX": 1.0,
                      "ScaleY": 1.0
                    },
                    "CColor": {},
                    "IconVisible": false,
                    "PrePosition": {
                      "X": 0.0,
                      "Y": 0.0
                    },
                    "PreSize": {
                      "X": 0.0,
                      "Y": 0.0
                    },
                    "LeftMargin": 145.0,
                    "RightMargin": -145.0,
                    "Tag": 25,
                    "ActionTag": -1537887417,
                    "Size": {
                      "X": 0.0,
                      "Y": 0.0
                    },
                    "Name": "altas_pos_4",
                    "ctype": "TextAtlasObjectData"
                  },
                  {
                    "CharWidth": 24,
                    "CharHeight": 30,
                    "LabelText": "",
                    "StartChar": "0",
                    "LabelAtlasFileImage_CNB": {
                      "Type": "Normal",
                      "Path": "table/tab_atlas_num7.png",
                      "Plist": ""
                    },
                    "AnchorPoint": {
                      "ScaleX": 0.5,
                      "ScaleY": 0.5
                    },
                    "Position": {
                      "X": 125.0,
                      "Y": -72.5
                    },
                    "Scale": {
                      "ScaleX": 1.0,
                      "ScaleY": 1.0
                    },
                    "RotationSkewX": 30.0,
                    "RotationSkewY": 30.0,
                    "CColor": {},
                    "IconVisible": false,
                    "PrePosition": {
                      "X": 0.0,
                      "Y": 0.0
                    },
                    "PreSize": {
                      "X": 0.0,
                      "Y": 0.0
                    },
                    "LeftMargin": 125.0,
                    "RightMargin": -125.0,
                    "TopMargin": 72.5,
                    "BottomMargin": -72.5,
                    "Tag": 26,
                    "ActionTag": -1160077163,
                    "Size": {
                      "X": 0.0,
                      "Y": 0.0
                    },
                    "Name": "altas_pos_5",
                    "ctype": "TextAtlasObjectData"
                  },
                  {
                    "CharWidth": 24,
                    "CharHeight": 30,
                    "LabelText": "",
                    "StartChar": "0",
                    "LabelAtlasFileImage_CNB": {
                      "Type": "Normal",
                      "Path": "table/tab_atlas_num8.png",
                      "Plist": ""
                    },
                    "AnchorPoint": {
                      "ScaleX": 0.5,
                      "ScaleY": 0.5
                    },
                    "Position": {
                      "X": 72.5,
                      "Y": -125.0
                    },
                    "Scale": {
                      "ScaleX": 1.0,
                      "ScaleY": 1.0
                    },
                    "RotationSkewX": 60.0001,
                    "RotationSkewY": 59.9999,
                    "CColor": {},
                    "IconVisible": false,
                    "PrePosition": {
                      "X": 0.0,
                      "Y": 0.0
                    },
                    "PreSize": {
                      "X": 0.0,
                      "Y": 0.0
                    },
                    "LeftMargin": 72.5,
                    "RightMargin": -72.5,
                    "TopMargin": 125.0,
                    "BottomMargin": -125.0,
                    "Tag": 27,
                    "ActionTag": 2109631864,
                    "Size": {
                      "X": 0.0,
                      "Y": 0.0
                    },
                    "Name": "altas_pos_6",
                    "ctype": "TextAtlasObjectData"
                  },
                  {
                    "CharWidth": 24,
                    "CharHeight": 30,
                    "LabelText": "",
                    "StartChar": "0",
                    "LabelAtlasFileImage_CNB": {
                      "Type": "Normal",
                      "Path": "table/tab_atlas_num3.png",
                      "Plist": ""
                    },
                    "AnchorPoint": {
                      "ScaleX": 0.5,
                      "ScaleY": 0.5
                    },
                    "Position": {
                      "X": 0.0,
                      "Y": -145.0
                    },
                    "Scale": {
                      "ScaleX": 1.0,
                      "ScaleY": 1.0
                    },
                    "RotationSkewX": 90.0,
                    "RotationSkewY": 90.0,
                    "CColor": {},
                    "IconVisible": false,
                    "PrePosition": {
                      "X": 0.0,
                      "Y": 0.0
                    },
                    "PreSize": {
                      "X": 0.0,
                      "Y": 0.0
                    },
                    "TopMargin": 145.0,
                    "BottomMargin": -145.0,
                    "Tag": 28,
                    "ActionTag": -272896597,
                    "Size": {
                      "X": 0.0,
                      "Y": 0.0
                    },
                    "Name": "altas_pos_7",
                    "ctype": "TextAtlasObjectData"
                  },
                  {
                    "CharWidth": 24,
                    "CharHeight": 30,
                    "LabelText": "",
                    "StartChar": "0",
                    "LabelAtlasFileImage_CNB": {
                      "Type": "Normal",
                      "Path": "table/tab_atlas_num4.png",
                      "Plist": ""
                    },
                    "AnchorPoint": {
                      "ScaleX": 0.5,
                      "ScaleY": 0.5
                    },
                    "Position": {
                      "X": -72.5,
                      "Y": -125.0
                    },
                    "Scale": {
                      "ScaleX": 1.0,
                      "ScaleY": 1.0
                    },
                    "RotationSkewX": 119.9999,
                    "RotationSkewY": 119.9999,
                    "CColor": {},
                    "IconVisible": false,
                    "PrePosition": {
                      "X": 0.0,
                      "Y": 0.0
                    },
                    "PreSize": {
                      "X": 0.0,
                      "Y": 0.0
                    },
                    "LeftMargin": -72.5,
                    "RightMargin": 72.5,
                    "TopMargin": 125.0,
                    "BottomMargin": -125.0,
                    "Tag": 29,
                    "ActionTag": -1745892613,
                    "Size": {
                      "X": 0.0,
                      "Y": 0.0
                    },
                    "Name": "altas_pos_8",
                    "ctype": "TextAtlasObjectData"
                  },
                  {
                    "CharWidth": 24,
                    "CharHeight": 30,
                    "LabelText": "",
                    "StartChar": "0",
                    "LabelAtlasFileImage_CNB": {
                      "Type": "Normal",
                      "Path": "table/tab_atlas_num5.png",
                      "Plist": ""
                    },
                    "AnchorPoint": {
                      "ScaleX": 0.5,
                      "ScaleY": 0.5
                    },
                    "Position": {
                      "X": -125.0,
                      "Y": -72.5
                    },
                    "Scale": {
                      "ScaleX": 1.0,
                      "ScaleY": 1.0
                    },
                    "RotationSkewX": 150.0,
                    "RotationSkewY": 150.0,
                    "CColor": {},
                    "IconVisible": false,
                    "PrePosition": {
                      "X": 0.0,
                      "Y": 0.0
                    },
                    "PreSize": {
                      "X": 0.0,
                      "Y": 0.0
                    },
                    "LeftMargin": -125.0,
                    "RightMargin": 125.0,
                    "TopMargin": 72.5,
                    "BottomMargin": -72.5,
                    "Tag": 30,
                    "ActionTag": 999001110,
                    "Size": {
                      "X": 0.0,
                      "Y": 0.0
                    },
                    "Name": "altas_pos_9",
                    "ctype": "TextAtlasObjectData"
                  },
                  {
                    "CharWidth": 24,
                    "CharHeight": 30,
                    "LabelText": "",
                    "StartChar": "0",
                    "LabelAtlasFileImage_CNB": {
                      "Type": "Normal",
                      "Path": "table/tab_atlas_num6.png",
                      "Plist": ""
                    },
                    "AnchorPoint": {
                      "ScaleX": 0.5,
                      "ScaleY": 0.5
                    },
                    "Position": {
                      "X": -145.0,
                      "Y": 0.0
                    },
                    "Scale": {
                      "ScaleX": 1.0,
                      "ScaleY": 1.0
                    },
                    "RotationSkewX": 180.0,
                    "RotationSkewY": 180.0,
                    "CColor": {},
                    "IconVisible": false,
                    "PrePosition": {
                      "X": 0.0,
                      "Y": 0.0
                    },
                    "PreSize": {
                      "X": 0.0,
                      "Y": 0.0
                    },
                    "LeftMargin": -145.0,
                    "RightMargin": 145.0,
                    "Tag": 31,
                    "ActionTag": 736890008,
                    "Size": {
                      "X": 0.0,
                      "Y": 0.0
                    },
                    "Name": "altas_pos_10",
                    "ctype": "TextAtlasObjectData"
                  },
                  {
                    "CharWidth": 24,
                    "CharHeight": 30,
                    "LabelText": "",
                    "StartChar": "0",
                    "LabelAtlasFileImage_CNB": {
                      "Type": "Normal",
                      "Path": "table/tab_atlas_num7.png",
                      "Plist": ""
                    },
                    "AnchorPoint": {
                      "ScaleX": 0.5,
                      "ScaleY": 0.5
                    },
                    "Position": {
                      "X": -125.0,
                      "Y": 72.5
                    },
                    "Scale": {
                      "ScaleX": 1.0,
                      "ScaleY": 1.0
                    },
                    "RotationSkewX": 209.9999,
                    "RotationSkewY": 209.9996,
                    "CColor": {},
                    "IconVisible": false,
                    "PrePosition": {
                      "X": 0.0,
                      "Y": 0.0
                    },
                    "PreSize": {
                      "X": 0.0,
                      "Y": 0.0
                    },
                    "LeftMargin": -125.0,
                    "RightMargin": 125.0,
                    "TopMargin": -72.5,
                    "BottomMargin": 72.5,
                    "Tag": 32,
                    "ActionTag": -964133130,
                    "Size": {
                      "X": 0.0,
                      "Y": 0.0
                    },
                    "Name": "altas_pos_11",
                    "ctype": "TextAtlasObjectData"
                  },
                  {
                    "CharWidth": 24,
                    "CharHeight": 30,
                    "LabelText": "",
                    "StartChar": "0",
                    "LabelAtlasFileImage_CNB": {
                      "Type": "Normal",
                      "Path": "table/tab_atlas_num8.png",
                      "Plist": ""
                    },
                    "AnchorPoint": {
                      "ScaleX": 0.5,
                      "ScaleY": 0.5
                    },
                    "Position": {
                      "X": -72.5,
                      "Y": 125.0
                    },
                    "Scale": {
                      "ScaleX": 1.0,
                      "ScaleY": 1.0
                    },
                    "RotationSkewX": 240.0001,
                    "RotationSkewY": 240.0001,
                    "CColor": {},
                    "IconVisible": false,
                    "PrePosition": {
                      "X": 0.0,
                      "Y": 0.0
                    },
                    "PreSize": {
                      "X": 0.0,
                      "Y": 0.0
                    },
                    "LeftMargin": -72.5,
                    "RightMargin": 72.5,
                    "TopMargin": -125.0,
                    "BottomMargin": 125.0,
                    "Tag": 33,
                    "ActionTag": -197340195,
                    "Size": {
                      "X": 0.0,
                      "Y": 0.0
                    },
                    "Name": "altas_pos_12",
                    "ctype": "TextAtlasObjectData"
                  }
                ],
                "ActionTag": -1088362495,
                "Size": {
                  "X": 0.0,
                  "Y": 0.0
                },
                "Name": "node_point",
                "ctype": "SingleNodeObjectData"
              }
            ],
            "ActionTag": 109296396,
            "Size": {
              "X": 433.0,
              "Y": 433.0
            },
            "Name": "sp_table",
            "ctype": "SpriteObjectData"
          },
          {
            "FileData": {
              "Type": "PlistSubImage",
              "Path": "sp_ring.png",
              "Plist": "table/table.plist"
            },
            "BlendFunc": {
              "Src": 1,
              "Dst": 771
            },
            "AnchorPoint": {
              "ScaleX": 0.5,
              "ScaleY": 0.5
            },
            "Position": {
              "X": 933.8,
              "Y": 450.0
            },
            "Scale": {
              "ScaleX": 1.0,
              "ScaleY": 1.0
            },
            "CColor": {},
            "IconVisible": false,
            "PositionPercentXEnabled": true,
            "PositionPercentYEnabled": true,
            "PrePosition": {
              "X": 0.7,
              "Y": 0.6
            },
            "PreSize": {
              "X": 0.4273,
              "Y": 0.76
            },
            "LeftMargin": 648.8,
            "RightMargin": 115.2,
            "TopMargin": 15.0,
            "BottomMargin": 165.0,
            "Tag": 21,
            "ActionTag": -75230044,
            "Size": {
              "X": 570.0,
              "Y": 570.0
            },
            "Name": "Sprite_2",
            "ctype": "SpriteObjectData"
          },
          {
            "FileData": {
              "Type": "PlistSubImage",
              "Path": "sp_pointer_bg.png",
              "Plist": "table/table.plist"
            },
            "BlendFunc": {
              "Src": 770,
              "Dst": 771
            },
            "AnchorPoint": {
              "ScaleX": 0.5,
              "ScaleY": 0.5
            },
            "Position": {
              "X": 933.8,
              "Y": 601.9727
            },
            "Scale": {
              "ScaleX": 1.0,
              "ScaleY": 1.0
            },
            "CColor": {},
            "IconVisible": false,
            "PositionPercentXEnabled": true,
            "PrePosition": {
              "X": 0.7,
              "Y": 0.8026
            },
            "PreSize": {
              "X": 0.1274,
              "Y": 0.2587
            },
            "LeftMargin": 848.8,
            "RightMargin": 315.2,
            "TopMargin": 51.0273,
            "BottomMargin": 504.9727,
            "Tag": 47,
            "ActionTag": 33303479,
            "Size": {
              "X": 170.0,
              "Y": 194.0
            },
            "Name": "sp_pointer_bg_2",
            "ctype": "SpriteObjectData"
          },
          {
            "FileData": {
              "Type": "PlistSubImage",
              "Path": "sp_pointer.png",
              "Plist": "table/table.plist"
            },
            "BlendFunc": {
              "Src": 770,
              "Dst": 771
            },
            "AnchorPoint": {
              "ScaleX": 0.5,
              "ScaleY": 0.5
            },
            "Position": {
              "X": 933.8,
              "Y": 655.7155
            },
            "Scale": {
              "ScaleX": 1.0,
              "ScaleY": 1.0
            },
            "CColor": {},
            "IconVisible": false,
            "PositionPercentXEnabled": true,
            "PrePosition": {
              "X": 0.7,
              "Y": 0.8743
            },
            "PreSize": {
              "X": 0.0532,
              "Y": 0.1187
            },
            "LeftMargin": 898.3,
            "RightMargin": 364.7,
            "TopMargin": 49.7845,
            "BottomMargin": 611.2155,
            "Tag": 48,
            "ActionTag": 1737718668,
            "Size": {
              "X": 71.0,
              "Y": 89.0
            },
            "Name": "sp_pointer_3",
            "ctype": "SpriteObjectData"
          },
          {
            "FontSize": 14,
            "ButtonText": "",
            "TextColor": {
              "R": 65,
              "G": 65,
              "B": 70
            },
            "DisabledFileData": {
              "Type": "PlistSubImage",
              "Path": "btn_start.png",
              "Plist": "table/table.plist"
            },
            "NormalFileData": {
              "Type": "PlistSubImage",
              "Path": "btn_start.png",
              "Plist": "table/table.plist"
            },
            "Scale9OriginX": 15,
            "Scale9OriginY": 11,
            "Scale9Width": 167,
            "Scale9Height": 175,
            "OutlineColor": {
              "G": 0,
              "B": 0
            },
            "ShadowColor": {
              "R": 110,
              "G": 110,
              "B": 110
            },
            "ShadowOffsetX": 2.0,
            "ShadowOffsetY": -2.0,
            "TouchEnable": true,
            "AnchorPoint": {
              "ScaleX": 0.5,
              "ScaleY": 0.5
            },
            "Position": {
              "X": 933.8,
              "Y": 444.0
            },
            "Scale": {
              "ScaleX": 1.0,
              "ScaleY": 1.0
            },
            "CColor": {},
            "IconVisible": false,
            "PositionPercentXEnabled": true,
            "PositionPercentYEnabled": true,
            "PrePosition": {
              "X": 0.7,
              "Y": 0.592
            },
            "PreSize": {
              "X": 0.1132,
              "Y": 0.2053
            },
            "LeftMargin": 858.3,
            "RightMargin": 324.7,
            "TopMargin": 229.0,
            "BottomMargin": 367.0,
            "Tag": 23,
            "ActionTag": -762305224,
            "Size": {
              "X": 151.0,
              "Y": 154.0
            },
            "Name": "start_btn",
            "ctype": "ButtonObjectData"
          },
          {
            "FileData": {
              "Type": "PlistSubImage",
              "Path": "sp_bottom_tip.png",
              "Plist": "table/table.plist"
            },
            "BlendFunc": {
              "Src": 770,
              "Dst": 771
            },
            "AnchorPoint": {
              "ScaleX": 0.5,
              "ScaleY": 0.5
            },
            "Position": {
              "X": 933.8,
              "Y": 112.5
            },
            "Scale": {
              "ScaleX": 1.0,
              "ScaleY": 1.0
            },
            "CColor": {},
            "IconVisible": false,
            "PositionPercentXEnabled": true,
            "PositionPercentYEnabled": true,
            "PrePosition": {
              "X": 0.7,
              "Y": 0.15
            },
            "PreSize": {
              "X": 0.3163,
              "Y": 0.092
            },
            "LeftMargin": 722.8,
            "RightMargin": 189.2,
            "TopMargin": 603.0,
            "BottomMargin": 78.0,
            "Tag": 39,
            "ActionTag": 1034464369,
            "Size": {
              "X": 422.0,
              "Y": 69.0
            },
            "Name": "sp_bottom_tip_13",
            "ctype": "SpriteObjectData"
          },
          {
            "FileData": {
              "Type": "PlistSubImage",
              "Path": "sp_tips.png",
              "Plist": "table/table.plist"
            },
            "BlendFunc": {
              "Src": 770,
              "Dst": 771
            },
            "AnchorPoint": {
              "ScaleX": 0.5,
              "ScaleY": 0.5
            },
            "Position": {
              "X": 933.8,
              "Y": 112.5
            },
            "Scale": {
              "ScaleX": 1.0,
              "ScaleY": 1.0
            },
            "CColor": {},
            "IconVisible": false,
            "PositionPercentXEnabled": true,
            "PositionPercentYEnabled": true,
            "PrePosition": {
              "X": 0.7,
              "Y": 0.15
            },
            "PreSize": {
              "X": 0.2616,
              "Y": 0.0387
            },
            "LeftMargin": 759.3,
            "RightMargin": 225.7,
            "TopMargin": 623.0,
            "BottomMargin": 98.0,
            "Tag": 45,
            "ActionTag": 1537139279,
            "Size": {
              "X": 349.0,
              "Y": 29.0
            },
            "Name": "sp_tips_1",
            "ctype": "SpriteObjectData"
          },
          {
            "CharWidth": 17,
            "CharHeight": 23,
            "LabelText": "0",
            "StartChar": "0",
            "LabelAtlasFileImage_CNB": {
              "Type": "Normal",
              "Path": "table/atlas_count.png",
              "Plist": ""
            },
            "AnchorPoint": {
              "ScaleX": 0.5,
              "ScaleY": 0.5
            },
            "Position": {
              "X": 993.7708,
              "Y": 111.5252
            },
            "Scale": {
              "ScaleX": 1.0,
              "ScaleY": 1.0
            },
            "CColor": {},
            "IconVisible": false,
            "PositionPercentYEnabled": true,
            "PrePosition": {
              "X": 0.745,
              "Y": 0.1487
            },
            "PreSize": {
              "X": 0.0127,
              "Y": 0.0307
            },
            "LeftMargin": 985.2708,
            "RightMargin": 331.7292,
            "TopMargin": 626.9749,
            "BottomMargin": 100.0252,
            "Tag": 46,
            "ActionTag": 1560787390,
            "Size": {
              "X": 17.0,
              "Y": 23.0
            },
            "Name": "atlas_count",
            "ctype": "TextAtlasObjectData"
          },
          {
            "FileData": {
              "Type": "PlistSubImage",
              "Path": "sp_res.png",
              "Plist": "table/table.plist"
            },
            "BlendFunc": {
              "Src": 770,
              "Dst": 771
            },
            "AnchorPoint": {
              "ScaleX": 0.5,
              "ScaleY": 0.5
            },
            "Position": {
              "X": 933.8,
              "Y": 595.1697
            },
            "Scale": {
              "ScaleX": 1.0,
              "ScaleY": 1.0
            },
            "CColor": {},
            "IconVisible": false,
            "PositionPercentXEnabled": true,
            "PrePosition": {
              "X": 0.7,
              "Y": 0.7936
            },
            "PreSize": {
              "X": 0.1417,
              "Y": 0.2573
            },
            "LeftMargin": 839.3,
            "RightMargin": 305.7,
            "TopMargin": 58.3303,
            "BottomMargin": 498.6697,
            "Tag": 49,
            "ActionTag": -660386680,
            "Size": {
              "X": 189.0,
              "Y": 193.0
            },
            "Name": "sp_res",
            "ctype": "SpriteObjectData"
          },
          {
            "CharWidth": 25,
            "CharHeight": 35,
            "LabelText": "0",
            "StartChar": "0",
            "LabelAtlasFileImage_CNB": {
              "Type": "Normal",
              "Path": "table/atlas_res.png",
              "Plist": ""
            },
            "AnchorPoint": {
              "ScaleX": 0.5,
              "ScaleY": 0.5
            },
            "Position": {
              "X": 933.8,
              "Y": 601.9333
            },
            "Scale": {
              "ScaleX": 1.0,
              "ScaleY": 1.0
            },
            "CColor": {},
            "IconVisible": false,
            "PositionPercentXEnabled": true,
            "PrePosition": {
              "X": 0.7,
              "Y": 0.8026
            },
            "PreSize": {
              "X": 0.0187,
              "Y": 0.0467
            },
            "LeftMargin": 921.3,
            "RightMargin": 387.7,
            "TopMargin": 130.5667,
            "BottomMargin": 584.4333,
            "Tag": 50,
            "ActionTag": 82510383,
            "Size": {
              "X": 25.0,
              "Y": 35.0
            },
            "Name": "atlas_res",
            "ctype": "TextAtlasObjectData"
          }
        ],
        "Size": {
          "X": 1334.0,
          "Y": 750.0
        },
        "Name": "Layer",
        "ctype": "LayerObjectData"
      },
      "UsedResources": [
        "table/atlas_count.png",
        "table/atlas_res.png",
        "table/tab_atlas_num3.png",
        "table/tab_atlas_num4.png",
        "table/tab_atlas_num5.png",
        "table/tab_atlas_num6.png",
        "table/tab_atlas_num7.png",
        "table/tab_atlas_num8.png",
        "table/tab_background.png",
        "table/table.plist",
        "table/table.png"
      ],
      "ctype": "GameFileData"
    }
  },
  "Type": "Layer"
}