{
  "ID": "181a902e-4800-435b-810c-f05839653e13",
  "Version": "2.3.4",
  "Name": "TrumpetSendLayer",
  "Content": {
    "Content": {
      "Animation": {
        "Duration": 0,
        "Speed": 1.0,
        "Timelines": [],
        "ctype": "TimelineActionData"
      },
      "AnimationList": [],
      "ObjectData": {
        "Children": [
          {
            "FileData": {
              "Type": "Normal",
              "Path": "General/frame_0.png",
              "Plist": ""
            },
            "BlendFunc": {
              "Src": 770,
              "Dst": 771
            },
            "AnchorPoint": {
              "ScaleX": 0.5,
              "ScaleY": 0.5
            },
            "Position": {
              "X": 667.0,
              "Y": 375.0
            },
            "Scale": {
              "ScaleX": 1.0,
              "ScaleY": 1.0
            },
            "CColor": {},
            "IconVisible": false,
            "PositionPercentXEnabled": true,
            "PositionPercentYEnabled": true,
            "PrePosition": {
              "X": 0.5,
              "Y": 0.5
            },
            "PreSize": {
              "X": 0.6019,
              "Y": 0.5507
            },
            "LeftMargin": 265.5,
            "RightMargin": 265.5,
            "TopMargin": 168.5,
            "BottomMargin": 168.5,
            "Tag": 2,
            "Children": [
              {
                "FontSize": 24,
                "LabelText": "剩余喇叭",
                "FontResource": {
                  "Type": "Normal",
                  "Path": "fonts/round_body.ttf",
                  "Plist": ""
                },
                "OutlineColor": {
                  "G": 0,
                  "B": 0
                },
                "ShadowColor": {
                  "R": 110,
                  "G": 110,
                  "B": 110
                },
                "ShadowOffsetX": 2.0,
                "ShadowOffsetY": -2.0,
                "AnchorPoint": {
                  "ScaleX": 0.5,
                  "ScaleY": 0.5
                },
                "Position": {
                  "X": 338.4071,
                  "Y": 174.4265
                },
                "Scale": {
                  "ScaleX": 1.0,
                  "ScaleY": 1.0
                },
                "CColor": {
                  "R": 103,
                  "G": 33,
                  "B": 12
                },
                "IconVisible": false,
                "PrePosition": {
                  "X": 0.4214,
                  "Y": 0.4223
                },
                "PreSize": {
                  "X": 0.1233,
                  "Y": 0.0678
                },
                "LeftMargin": 288.9071,
                "RightMargin": 415.0929,
                "TopMargin": 224.5735,
                "BottomMargin": 160.4265,
                "Tag": 68,
                "ActionTag": 1230163576,
                "Size": {
                  "X": 99.0,
                  "Y": 28.0
                },
                "Name": "Text_number",
                "ctype": "TextObjectData"
              },
              {
                "FileData": {
                  "Type": "PlistSubImage",
                  "Path": "sp_trumpet_edit.png",
                  "Plist": "plaza/plaza.plist"
                },
                "BlendFunc": {
                  "Src": 770,
                  "Dst": 771
                },
                "AnchorPoint": {
                  "ScaleX": 0.5,
                  "ScaleY": 0.5
                },
                "Position": {
                  "X": 400.0961,
                  "Y": 239.2339
                },
                "Scale": {
                  "ScaleX": 1.0,
                  "ScaleY": 1.0
                },
                "CColor": {},
                "IconVisible": false,
                "PositionPercentXEnabled": true,
                "PrePosition": {
                  "X": 0.4983,
                  "Y": 0.5793
                },
                "PreSize": {
                  "X": 0.4433,
                  "Y": 0.1114
                },
                "LeftMargin": 222.0961,
                "RightMargin": 224.9039,
                "TopMargin": 150.7661,
                "BottomMargin": 216.2339,
                "Tag": 5,
                "ActionTag": -1958338076,
                "Size": {
                  "X": 356.0,
                  "Y": 46.0
                },
                "Name": "edit_bg",
                "ctype": "SpriteObjectData"
              },
              {
                "CharWidth": 19,
                "CharHeight": 24,
                "LabelText": "",
                "StartChar": "/",
                "LabelAtlasFileImage_CNB": {
                  "Type": "Normal",
                  "Path": "plaza/atlas_trumpet_num.png",
                  "Plist": ""
                },
                "AnchorPoint": {
                  "ScaleY": 0.5
                },
                "Position": {
                  "X": 414.1248,
                  "Y": 174.295
                },
                "Scale": {
                  "ScaleX": 1.0,
                  "ScaleY": 1.0
                },
                "CColor": {},
                "IconVisible": false,
                "PositionPercentXEnabled": true,
                "PrePosition": {
                  "X": 0.5157,
                  "Y": 0.422
                },
                "PreSize": {
                  "X": 0.0,
                  "Y": 0.0
                },
                "LeftMargin": 414.1248,
                "RightMargin": 388.8752,
                "TopMargin": 238.705,
                "BottomMargin": 174.295,
                "Tag": 13,
                "ActionTag": 403984127,
                "Size": {
                  "X": 0.0,
                  "Y": 0.0
                },
                "Name": "atlas_left",
                "ctype": "TextAtlasObjectData"
              },
              {
                "FontSize": 14,
                "ButtonText": "",
                "TextColor": {
                  "R": 65,
                  "G": 65,
                  "B": 70
                },
                "DisabledFileData": {
                  "Type": "PlistSubImage",
                  "Path": "p_bt_cancel_0.png",
                  "Plist": "public/public.plist"
                },
                "PressedFileData": {
                  "Type": "PlistSubImage",
                  "Path": "p_bt_cancel_1.png",
                  "Plist": "public/public.plist"
                },
                "NormalFileData": {
                  "Type": "PlistSubImage",
                  "Path": "p_bt_cancel_0.png",
                  "Plist": "public/public.plist"
                },
                "Scale9Enable": true,
                "Scale9OriginX": 15,
                "Scale9OriginY": 11,
                "Scale9Width": 138,
                "Scale9Height": 42,
                "OutlineColor": {
                  "G": 0,
                  "B": 0
                },
                "ShadowColor": {
                  "R": 110,
                  "G": 110,
                  "B": 110
                },
                "ShadowOffsetX": 2.0,
                "ShadowOffsetY": -2.0,
                "TouchEnable": true,
                "AnchorPoint": {
                  "ScaleX": 0.5,
                  "ScaleY": 0.5
                },
                "Position": {
                  "X": 281.0498,
                  "Y": 101.3121
                },
                "Scale": {
                  "ScaleX": 1.0,
                  "ScaleY": 1.0
                },
                "CColor": {},
                "IconVisible": false,
                "PositionPercentXEnabled": true,
                "PrePosition": {
                  "X": 0.35,
                  "Y": 0.2453
                },
                "PreSize": {
                  "X": 0.2092,
                  "Y": 0.155
                },
                "LeftMargin": 197.0498,
                "RightMargin": 437.9502,
                "TopMargin": 279.6879,
                "BottomMargin": 69.3121,
                "Tag": 45,
                "ActionTag": 694945135,
                "Size": {
                  "X": 168.0,
                  "Y": 64.0
                },
                "Name": "btn_cancel",
                "ctype": "ButtonObjectData"
              },
              {
                "FontSize": 14,
                "ButtonText": "",
                "TextColor": {
                  "R": 65,
                  "G": 65,
                  "B": 70
                },
                "DisabledFileData": {
                  "Type": "PlistSubImage",
                  "Path": "p_bt_sure_0.png",
                  "Plist": "public/public.plist"
                },
                "PressedFileData": {
                  "Type": "PlistSubImage",
                  "Path": "p_bt_sure_1.png",
                  "Plist": "public/public.plist"
                },
                "NormalFileData": {
                  "Type": "PlistSubImage",
                  "Path": "p_bt_sure_0.png",
                  "Plist": "public/public.plist"
                },
                "Scale9Enable": true,
                "Scale9OriginX": 15,
                "Scale9OriginY": 11,
                "Scale9Width": 138,
                "Scale9Height": 42,
                "OutlineColor": {
                  "G": 0,
                  "B": 0
                },
                "ShadowColor": {
                  "R": 110,
                  "G": 110,
                  "B": 110
                },
                "ShadowOffsetX": 2.0,
                "ShadowOffsetY": -2.0,
                "TouchEnable": true,
                "AnchorPoint": {
                  "ScaleX": 0.5,
                  "ScaleY": 0.5
                },
                "Position": {
                  "X": 521.9499,
                  "Y": 101.3121
                },
                "Scale": {
                  "ScaleX": 1.0,
                  "ScaleY": 1.0
                },
                "CColor": {},
                "IconVisible": false,
                "PositionPercentXEnabled": true,
                "PrePosition": {
                  "X": 0.65,
                  "Y": 0.2453
                },
                "PreSize": {
                  "X": 0.2092,
                  "Y": 0.155
                },
                "LeftMargin": 437.9499,
                "RightMargin": 197.0501,
                "TopMargin": 279.6879,
                "BottomMargin": 69.3121,
                "Tag": 46,
                "ActionTag": -189126481,
                "Size": {
                  "X": 168.0,
                  "Y": 64.0
                },
                "Name": "btn_sure",
                "ctype": "ButtonObjectData"
              },
              {
                "FileData": {
                  "Type": "PlistSubImage",
                  "Path": "sp_message_title.png",
                  "Plist": "public/public.plist"
                },
                "BlendFunc": {
                  "Src": 1,
                  "Dst": 771
                },
                "AnchorPoint": {
                  "ScaleX": 0.5,
                  "ScaleY": 0.5
                },
                "Position": {
                  "X": 399.9661,
                  "Y": 382.9352
                },
                "Scale": {
                  "ScaleX": 1.0,
                  "ScaleY": 1.0
                },
                "CColor": {},
                "IconVisible": false,
                "PrePosition": {
                  "X": 0.4981,
                  "Y": 0.9272
                },
                "PreSize": {
                  "X": 0.2105,
                  "Y": 0.1211
                },
                "LeftMargin": 315.4661,
                "RightMargin": 318.5339,
                "TopMargin": 5.0648,
                "BottomMargin": 357.9352,
                "Tag": 67,
                "ActionTag": 997709453,
                "Size": {
                  "X": 169.0,
                  "Y": 50.0
                },
                "Name": "sp_message_title",
                "ctype": "SpriteObjectData"
              },
              {
                "FontSize": 14,
                "ButtonText": "",
                "TextColor": {
                  "R": 65,
                  "G": 65,
                  "B": 70
                },
                "DisabledFileData": {
                  "Type": "Normal",
                  "Path": "public/bt_return_0.png",
                  "Plist": ""
                },
                "PressedFileData": {
                  "Type": "Normal",
                  "Path": "public/bt_return_1.png",
                  "Plist": ""
                },
                "NormalFileData": {
                  "Type": "Normal",
                  "Path": "public/bt_return_0.png",
                  "Plist": ""
                },
                "Scale9Enable": true,
                "Scale9OriginX": 15,
                "Scale9OriginY": 11,
                "Scale9Width": 59,
                "Scale9Height": 69,
                "OutlineColor": {
                  "G": 0,
                  "B": 0
                },
                "ShadowColor": {
                  "R": 110,
                  "G": 110,
                  "B": 110
                },
                "ShadowOffsetX": 2.0,
                "ShadowOffsetY": -2.0,
                "TouchEnable": true,
                "AnchorPoint": {
                  "ScaleX": 0.5,
                  "ScaleY": 0.5
                },
                "Position": {
                  "X": 1285.7273,
                  "Y": 490.1007
                },
                "Scale": {
                  "ScaleX": 1.0,
                  "ScaleY": 1.0
                },
                "CColor": {},
                "IconVisible": false,
                "PrePosition": {
                  "X": 1.6012,
                  "Y": 1.1867
                },
                "PreSize": {
                  "X": 0.1108,
                  "Y": 0.2203
                },
                "LeftMargin": 1241.2273,
                "RightMargin": -527.2273,
                "TopMargin": -122.6007,
                "BottomMargin": 444.6007,
                "Tag": 3,
                "ActionTag": 505583572,
                "Size": {
                  "X": 89.0,
                  "Y": 91.0
                },
                "VisibleForFrame": false,
                "Name": "btn_close",
                "ctype": "ButtonObjectData"
              }
            ],
            "ActionTag": -836680730,
            "Size": {
              "X": 803.0,
              "Y": 413.0
            },
            "Name": "sp_bg",
            "ctype": "SpriteObjectData"
          }
        ],
        "Size": {
          "X": 1334.0,
          "Y": 750.0
        },
        "Name": "Layer",
        "ctype": "LayerObjectData"
      },
      "UsedResources": [
        "fonts/round_body.ttf",
        "General/frame_0.png",
        "public/bt_return_0.png",
        "public/bt_return_1.png",
        "public/public.plist",
        "public/public.png",
        "plaza/atlas_trumpet_num.png",
        "plaza/plaza.plist",
        "plaza/plaza.png"
      ],
      "ctype": "GameFileData"
    }
  },
  "Type": "Layer"
}