{
  "ID": "2a525d93-4c30-4635-9ebf-a7f988937b9c",
  "Version": "2.3.4",
  "Name": "VerifiedLayer",
  "Content": {
    "Content": {
      "Animation": {
        "Duration": 0,
        "Speed": 1.0,
        "Timelines": [],
        "ctype": "TimelineActionData"
      },
      "AnimationList": [],
      "ObjectData": {
        "Tag": 90,
        "Children": [
          {
            "FileData": {
              "Type": "Normal",
              "Path": "Verified/bg.png",
              "Plist": ""
            },
            "Scale9OriginX": 265,
            "Scale9OriginY": 168,
            "Scale9Width": 273,
            "Scale9Height": 77,
            "AnchorPoint": {
              "ScaleX": 0.5,
              "ScaleY": 0.5
            },
            "Position": {
              "X": 668.3992,
              "Y": 377.8002
            },
            "Scale": {
              "ScaleX": 1.0,
              "ScaleY": 1.0
            },
            "CColor": {},
            "IconVisible": false,
            "PrePosition": {
              "X": 0.501,
              "Y": 0.5037
            },
            "PreSize": {
              "X": 0.6027,
              "Y": 0.6827
            },
            "LeftMargin": 266.3992,
            "RightMargin": 263.6008,
            "TopMargin": 116.1998,
            "BottomMargin": 121.8002,
            "Tag": 91,
            "Children": [
              {
                "FileData": {
                  "Type": "Normal",
                  "Path": "Verified/input_frame.png",
                  "Plist": ""
                },
                "Scale9OriginX": 139,
                "Scale9OriginY": 16,
                "Scale9Width": 78,
                "Scale9Height": 14,
                "AnchorPoint": {
                  "ScaleX": 0.5,
                  "ScaleY": 0.5
                },
                "Position": {
                  "X": 504.439,
                  "Y": 293.332
                },
                "Scale": {
                  "ScaleX": 1.0,
                  "ScaleY": 1.0
                },
                "CColor": {},
                "IconVisible": false,
                "PrePosition": {
                  "X": 0.6274,
                  "Y": 0.5729
                },
                "PreSize": {
                  "X": 0.4428,
                  "Y": 0.0898
                },
                "LeftMargin": 326.439,
                "RightMargin": 121.561,
                "TopMargin": 195.668,
                "BottomMargin": 270.332,
                "Tag": 92,
                "ActionTag": 1716677187,
                "Size": {
                  "X": 356.0,
                  "Y": 46.0
                },
                "Name": "input_frame_1",
                "ctype": "ImageViewObjectData"
              },
              {
                "FileData": {
                  "Type": "Normal",
                  "Path": "Verified/input_frame.png",
                  "Plist": ""
                },
                "Scale9OriginX": 139,
                "Scale9OriginY": 16,
                "Scale9Width": 78,
                "Scale9Height": 14,
                "AnchorPoint": {
                  "ScaleX": 0.5,
                  "ScaleY": 0.5
                },
                "Position": {
                  "X": 504.4449,
                  "Y": 203.8565
                },
                "Scale": {
                  "ScaleX": 1.0,
                  "ScaleY": 1.0
                },
                "CColor": {},
                "IconVisible": false,
                "PrePosition": {
                  "X": 0.6274,
                  "Y": 0.3982
                },
                "PreSize": {
                  "X": 0.4428,
                  "Y": 0.0898
                },
                "LeftMargin": 326.4449,
                "RightMargin": 121.5551,
                "TopMargin": 285.1435,
                "BottomMargin": 180.8565,
                "Tag": 93,
                "ActionTag": -24461484,
                "Size": {
                  "X": 356.0,
                  "Y": 46.0
                },
                "Name": "input_frame_2",
                "ctype": "ImageViewObjectData"
              },
              {
                "FileData": {
                  "Type": "Normal",
                  "Path": "Verified/sp_please_name.png",
                  "Plist": ""
                },
                "BlendFunc": {
                  "Src": 1,
                  "Dst": 771
                },
                "AnchorPoint": {
                  "ScaleX": 0.5,
                  "ScaleY": 0.5
                },
                "Position": {
                  "X": 202.0734,
                  "Y": 290.9008
                },
                "Scale": {
                  "ScaleX": 1.0,
                  "ScaleY": 1.0
                },
                "CColor": {},
                "IconVisible": false,
                "PrePosition": {
                  "X": 0.2513,
                  "Y": 0.5682
                },
                "PreSize": {
                  "X": 0.0572,
                  "Y": 0.0898
                },
                "LeftMargin": 122.5734,
                "RightMargin": 522.4266,
                "TopMargin": 211.0992,
                "BottomMargin": 280.9008,
                "Tag": 69,
                "ActionTag": -1284484302,
                "Size": {
                  "X": 159.0,
                  "Y": 20.0
                },
                "Name": "sp_please_name",
                "ctype": "SpriteObjectData"
              },
              {
                "FileData": {
                  "Type": "Normal",
                  "Path": "Verified/sp_please_number.png",
                  "Plist": ""
                },
                "BlendFunc": {
                  "Src": 1,
                  "Dst": 771
                },
                "AnchorPoint": {
                  "ScaleX": 0.5,
                  "ScaleY": 0.5
                },
                "Position": {
                  "X": 195.4537,
                  "Y": 202.9218
                },
                "Scale": {
                  "ScaleX": 1.0,
                  "ScaleY": 1.0
                },
                "CColor": {},
                "IconVisible": false,
                "PrePosition": {
                  "X": 0.2431,
                  "Y": 0.3963
                },
                "PreSize": {
                  "X": 0.1978,
                  "Y": 0.0391
                },
                "LeftMargin": 115.9537,
                "RightMargin": 529.0463,
                "TopMargin": 299.0782,
                "BottomMargin": 192.9218,
                "Tag": 70,
                "ActionTag": -661750122,
                "Size": {
                  "X": 159.0,
                  "Y": 20.0
                },
                "Name": "sp_please_number",
                "ctype": "SpriteObjectData"
              }
            ],
            "ActionTag": -49607477,
            "Size": {
              "X": 804.0,
              "Y": 512.0
            },
            "Name": "bg",
            "ctype": "ImageViewObjectData"
          },
          {
            "FontSize": 14,
            "ButtonText": "",
            "TextColor": {
              "R": 65,
              "G": 65,
              "B": 70
            },
            "DisabledFileData": {
              "Type": "Normal",
              "Path": "Verified/bt_confirm_1.png",
              "Plist": ""
            },
            "PressedFileData": {
              "Type": "Normal",
              "Path": "Verified/bt_confirm_1.png",
              "Plist": ""
            },
            "NormalFileData": {
              "Type": "Normal",
              "Path": "Verified/bt_confirm_0.png",
              "Plist": ""
            },
            "Scale9OriginX": 15,
            "Scale9OriginY": 11,
            "Scale9Width": 136,
            "Scale9Height": 40,
            "OutlineColor": {
              "G": 0,
              "B": 0
            },
            "ShadowColor": {
              "R": 110,
              "G": 110,
              "B": 110
            },
            "ShadowOffsetX": 2.0,
            "ShadowOffsetY": -2.0,
            "TouchEnable": true,
            "AnchorPoint": {
              "ScaleX": 0.5,
              "ScaleY": 0.5
            },
            "Position": {
              "X": 802.1326,
              "Y": 232.5959
            },
            "Scale": {
              "ScaleX": 1.0,
              "ScaleY": 1.0
            },
            "CColor": {},
            "IconVisible": false,
            "PrePosition": {
              "X": 0.6013,
              "Y": 0.3101
            },
            "PreSize": {
              "X": 0.1244,
              "Y": 0.0827
            },
            "LeftMargin": 719.1326,
            "RightMargin": 448.8674,
            "TopMargin": 486.4041,
            "BottomMargin": 201.5959,
            "Tag": 94,
            "ActionTag": 176903518,
            "Size": {
              "X": 166.0,
              "Y": 62.0
            },
            "Name": "btn_confirm",
            "ctype": "ButtonObjectData"
          },
          {
            "FontSize": 14,
            "ButtonText": "",
            "TextColor": {
              "R": 65,
              "G": 65,
              "B": 70
            },
            "DisabledFileData": {
              "Type": "Normal",
              "Path": "Verified/bt_cancel_1.png",
              "Plist": ""
            },
            "PressedFileData": {
              "Type": "Normal",
              "Path": "Verified/bt_cancel_1.png",
              "Plist": ""
            },
            "NormalFileData": {
              "Type": "Normal",
              "Path": "Verified/bt_cancel_0.png",
              "Plist": ""
            },
            "Scale9OriginX": 15,
            "Scale9OriginY": 11,
            "Scale9Width": 136,
            "Scale9Height": 40,
            "OutlineColor": {
              "G": 0,
              "B": 0
            },
            "ShadowColor": {
              "R": 110,
              "G": 110,
              "B": 110
            },
            "ShadowOffsetX": 2.0,
            "ShadowOffsetY": -2.0,
            "TouchEnable": true,
            "AnchorPoint": {
              "ScaleX": 0.5,
              "ScaleY": 0.5
            },
            "Position": {
              "X": 531.5201,
              "Y": 233.4484
            },
            "Scale": {
              "ScaleX": 1.0,
              "ScaleY": 1.0
            },
            "CColor": {},
            "IconVisible": false,
            "PrePosition": {
              "X": 0.3984,
              "Y": 0.3113
            },
            "PreSize": {
              "X": 0.1244,
              "Y": 0.0827
            },
            "LeftMargin": 448.5201,
            "RightMargin": 719.4799,
            "TopMargin": 485.5516,
            "BottomMargin": 202.4484,
            "Tag": 95,
            "ActionTag": 836417841,
            "Size": {
              "X": 166.0,
              "Y": 62.0
            },
            "Name": "btn_return",
            "ctype": "ButtonObjectData"
          },
          {
            "FontResource": {
              "Type": "Normal",
              "Path": "fonts/round_body.ttf",
              "Plist": ""
            },
            "FontSize": 35,
            "IsCustomSize": true,
            "LabelText": "",
            "PlaceHolderText": "",
            "MaxLengthText": 10,
            "TouchEnable": true,
            "AnchorPoint": {
              "ScaleX": 0.5,
              "ScaleY": 0.5
            },
            "Position": {
              "X": 770.8465,
              "Y": 416.138
            },
            "Scale": {
              "ScaleX": 1.0,
              "ScaleY": 1.0
            },
            "CColor": {},
            "IconVisible": false,
            "PositionPercentXEnabled": true,
            "PrePosition": {
              "X": 0.5778,
              "Y": 0.5549
            },
            "PreSize": {
              "X": 0.2669,
              "Y": 0.0613
            },
            "LeftMargin": 592.8465,
            "RightMargin": 385.1535,
            "TopMargin": 310.862,
            "BottomMargin": 393.138,
            "Tag": 96,
            "ActionTag": -2034290027,
            "Size": {
              "X": 356.0,
              "Y": 46.0
            },
            "Name": "name",
            "ctype": "TextFieldObjectData"
          },
          {
            "FontResource": {
              "Type": "Normal",
              "Path": "fonts/round_body.ttf",
              "Plist": ""
            },
            "FontSize": 35,
            "IsCustomSize": true,
            "LabelText": "",
            "PlaceHolderText": "",
            "MaxLengthText": 10,
            "TouchEnable": true,
            "AnchorPoint": {
              "ScaleX": 0.5,
              "ScaleY": 0.5
            },
            "Position": {
              "X": 770.8486,
              "Y": 325.2585
            },
            "Scale": {
              "ScaleX": 1.0,
              "ScaleY": 1.0
            },
            "CColor": {},
            "IconVisible": false,
            "PositionPercentXEnabled": true,
            "PrePosition": {
              "X": 0.5778,
              "Y": 0.4337
            },
            "PreSize": {
              "X": 0.2669,
              "Y": 0.0613
            },
            "LeftMargin": 592.8486,
            "RightMargin": 385.1514,
            "TopMargin": 401.7415,
            "BottomMargin": 302.2585,
            "Tag": 97,
            "ActionTag": 1301607856,
            "Size": {
              "X": 356.0,
              "Y": 46.0
            },
            "Name": "cardid",
            "ctype": "TextFieldObjectData"
          },
          {
            "FileData": {
              "Type": "Normal",
              "Path": "Verified/sp_realname_title.png",
              "Plist": ""
            },
            "BlendFunc": {
              "Src": 1,
              "Dst": 771
            },
            "AnchorPoint": {
              "ScaleX": 0.5,
              "ScaleY": 0.5
            },
            "Position": {
              "X": 670.8261,
              "Y": 597.8455
            },
            "Scale": {
              "ScaleX": 1.0,
              "ScaleY": 1.0
            },
            "CColor": {},
            "IconVisible": false,
            "PrePosition": {
              "X": 0.5029,
              "Y": 0.7971
            },
            "PreSize": {
              "X": 0.0345,
              "Y": 0.0613
            },
            "LeftMargin": 587.3261,
            "RightMargin": 579.6739,
            "TopMargin": 128.1545,
            "BottomMargin": 573.8455,
            "Tag": 71,
            "ActionTag": -1101303250,
            "Size": {
              "X": 167.0,
              "Y": 48.0
            },
            "Name": "sp_realname_title",
            "ctype": "SpriteObjectData"
          }
        ],
        "Size": {
          "X": 1334.0,
          "Y": 750.0
        },
        "Name": "Layer",
        "ctype": "LayerObjectData"
      },
      "UsedResources": [
        "fonts/round_body.ttf",
        "Verified/bg.png",
        "Verified/bt_cancel_0.png",
        "Verified/bt_cancel_1.png",
        "Verified/bt_confirm_0.png",
        "Verified/bt_confirm_1.png",
        "Verified/input_frame.png",
        "Verified/sp_please_name.png",
        "Verified/sp_please_number.png",
        "Verified/sp_realname_title.png"
      ],
      "ctype": "GameFileData"
    }
  },
  "Type": "Layer"
}