{
  "ID": "f384e5ea-1a7a-428d-a0d2-48d0e5519ef9",
  "Version": "2.3.4",
  "Name": "RoomInfoLayer",
  "Content": {
    "Content": {
      "Animation": {
        "Duration": 0,
        "Speed": 1.0,
        "Timelines": [],
        "ctype": "TimelineActionData"
      },
      "AnimationList": [],
      "ObjectData": {
        "Children": [
          {
            "ClipAble": false,
            "BackColorAlpha": 102,
            "ComboBoxIndex": 1,
            "SingleColor": {
              "R": 0,
              "G": 0,
              "B": 0
            },
            "FirstColor": {
              "R": 150,
              "G": 200
            },
            "EndColor": {},
            "ColorVector": {
              "ScaleY": 1.0
            },
            "Scale9Width": 1,
            "Scale9Height": 1,
            "TouchEnable": true,
            "AnchorPoint": {},
            "Position": {
              "X": 0.0,
              "Y": 0.0
            },
            "Scale": {
              "ScaleX": 1.0,
              "ScaleY": 1.0
            },
            "CColor": {},
            "IconVisible": false,
            "PositionPercentXEnabled": true,
            "PrePosition": {
              "X": 0.0,
              "Y": 0.0
            },
            "PercentWidthEnable": true,
            "PercentHeightEnable": true,
            "PercentWidthEnabled": true,
            "PercentHeightEnabled": true,
            "PreSize": {
              "X": 1.0,
              "Y": 1.0
            },
            "Tag": 4,
            "ActionTag": -376297899,
            "Size": {
              "X": 1334.0,
              "Y": 750.0
            },
            "Name": "Panel_1",
            "ctype": "PanelObjectData"
          },
          {
            "FileData": {
              "Type": "Normal",
              "Path": "Room/pri_sp_roombg.png",
              "Plist": ""
            },
            "Scale9OriginX": 249,
            "Scale9OriginY": 148,
            "Scale9Width": 316,
            "Scale9Height": 128,
            "AnchorPoint": {
              "ScaleX": 0.5,
              "ScaleY": 0.5
            },
            "Position": {
              "X": 667.0,
              "Y": 375.0
            },
            "Scale": {
              "ScaleX": 1.0,
              "ScaleY": 1.0
            },
            "CColor": {},
            "IconVisible": false,
            "PositionPercentXEnabled": true,
            "PositionPercentYEnabled": true,
            "PrePosition": {
              "X": 0.5,
              "Y": 0.5
            },
            "PreSize": {
              "X": 0.7556,
              "Y": 0.672
            },
            "LeftMargin": 163.0,
            "RightMargin": 163.0,
            "TopMargin": 123.0,
            "BottomMargin": 123.0,
            "Tag": 5,
            "Children": [
              {
                "FontSize": 24,
                "LabelText": "房间ID:",
                "FontResource": {
                  "Type": "Normal",
                  "Path": "../fonts/round_body.ttf",
                  "Plist": ""
                },
                "OutlineColor": {
                  "G": 0,
                  "B": 0
                },
                "ShadowColor": {
                  "R": 110,
                  "G": 110,
                  "B": 110
                },
                "ShadowOffsetX": 2.0,
                "ShadowOffsetY": -2.0,
                "AnchorPoint": {
                  "ScaleY": 0.5
                },
                "Position": {
                  "X": 95.0,
                  "Y": 343.93
                },
                "Scale": {
                  "ScaleX": 1.0,
                  "ScaleY": 1.0
                },
                "CColor": {
                  "R": 140,
                  "G": 86,
                  "B": 47
                },
                "IconVisible": false,
                "PrePosition": {
                  "X": 0.0942,
                  "Y": 0.6824
                },
                "PreSize": {
                  "X": 0.0784,
                  "Y": 0.0556
                },
                "LeftMargin": 95.0,
                "RightMargin": 834.0,
                "TopMargin": 146.07,
                "BottomMargin": 329.93,
                "Tag": 7,
                "ActionTag": -283544076,
                "Size": {
                  "X": 79.0,
                  "Y": 28.0
                },
                "Name": "txt_roomid_0",
                "ctype": "TextObjectData"
              },
              {
                "FontSize": 24,
                "LabelText": "",
                "FontResource": {
                  "Type": "Normal",
                  "Path": "../fonts/round_body.ttf",
                  "Plist": ""
                },
                "OutlineColor": {
                  "G": 0,
                  "B": 0
                },
                "ShadowColor": {
                  "R": 110,
                  "G": 110,
                  "B": 110
                },
                "ShadowOffsetX": 2.0,
                "ShadowOffsetY": -2.0,
                "AnchorPoint": {
                  "ScaleY": 0.5
                },
                "Position": {
                  "X": 200.0,
                  "Y": 342.93
                },
                "Scale": {
                  "ScaleX": 1.0,
                  "ScaleY": 1.0
                },
                "CColor": {
                  "R": 140,
                  "G": 86,
                  "B": 47
                },
                "IconVisible": false,
                "PrePosition": {
                  "X": 0.1984,
                  "Y": 0.6804
                },
                "PreSize": {
                  "X": 0.0,
                  "Y": 0.0
                },
                "LeftMargin": 200.0,
                "RightMargin": 808.0,
                "TopMargin": 161.07,
                "BottomMargin": 342.93,
                "Tag": 14,
                "ActionTag": -962898531,
                "Size": {
                  "X": 0.0,
                  "Y": 0.0
                },
                "Name": "txt_roomid",
                "ctype": "TextObjectData"
              },
              {
                "FontSize": 24,
                "LabelText": "房间战绩:",
                "FontResource": {
                  "Type": "Normal",
                  "Path": "../fonts/round_body.ttf",
                  "Plist": ""
                },
                "OutlineColor": {
                  "G": 0,
                  "B": 0
                },
                "ShadowColor": {
                  "R": 110,
                  "G": 110,
                  "B": 110
                },
                "ShadowOffsetX": 2.0,
                "ShadowOffsetY": -2.0,
                "AnchorPoint": {
                  "ScaleY": 0.5
                },
                "Position": {
                  "X": 95.0,
                  "Y": 306.9322
                },
                "Scale": {
                  "ScaleX": 1.0,
                  "ScaleY": 1.0
                },
                "CColor": {
                  "R": 140,
                  "G": 86,
                  "B": 47
                },
                "IconVisible": false,
                "PrePosition": {
                  "X": 0.0942,
                  "Y": 0.609
                },
                "PreSize": {
                  "X": 0.1042,
                  "Y": 0.0556
                },
                "LeftMargin": 95.0,
                "RightMargin": 808.0,
                "TopMargin": 183.0678,
                "BottomMargin": 292.9322,
                "Tag": 15,
                "ActionTag": -1287556366,
                "Size": {
                  "X": 105.0,
                  "Y": 28.0
                },
                "Name": "txt_roomid_1",
                "ctype": "TextObjectData"
              },
              {
                "FontSize": 14,
                "ButtonText": "",
                "TextColor": {
                  "R": 65,
                  "G": 65,
                  "B": 70
                },
                "PressedFileData": {
                  "Type": "MarkedSubImage",
                  "Path": "room/png/pri_btn_joingame_1.png",
                  "Plist": "Room/room.plist"
                },
                "NormalFileData": {
                  "Type": "MarkedSubImage",
                  "Path": "room/png/pri_btn_joingame_0.png",
                  "Plist": "Room/room.plist"
                },
                "Scale9Enable": true,
                "Scale9OriginX": 15,
                "Scale9OriginY": 11,
                "Scale9Width": 136,
                "Scale9Height": 40,
                "OutlineColor": {
                  "G": 0,
                  "B": 0
                },
                "ShadowColor": {
                  "R": 110,
                  "G": 110,
                  "B": 110
                },
                "ShadowOffsetX": 2.0,
                "ShadowOffsetY": -2.0,
                "TouchEnable": true,
                "AnchorPoint": {
                  "ScaleX": 0.5,
                  "ScaleY": 0.5
                },
                "Position": {
                  "X": 201.6,
                  "Y": 75.0
                },
                "Scale": {
                  "ScaleX": 1.0,
                  "ScaleY": 1.0
                },
                "CColor": {},
                "IconVisible": false,
                "PositionPercentXEnabled": true,
                "PrePosition": {
                  "X": 0.2,
                  "Y": 0.1488
                },
                "PreSize": {
                  "X": 0.1647,
                  "Y": 0.123
                },
                "LeftMargin": 118.6,
                "RightMargin": 723.4,
                "TopMargin": 398.0,
                "BottomMargin": 44.0,
                "Tag": 157,
                "ActionTag": 466512376,
                "Size": {
                  "X": 166.0,
                  "Y": 62.0
                },
                "Name": "btn_jion",
                "ctype": "ButtonObjectData"
              },
              {
                "FontSize": 14,
                "ButtonText": "",
                "TextColor": {
                  "R": 65,
                  "G": 65,
                  "B": 70
                },
                "PressedFileData": {
                  "Type": "MarkedSubImage",
                  "Path": "room/png/pri_btn_jiesan_1.png",
                  "Plist": "Room/room.plist"
                },
                "NormalFileData": {
                  "Type": "MarkedSubImage",
                  "Path": "room/png/pri_btn_jiesan_0.png",
                  "Plist": "Room/room.plist"
                },
                "Scale9Enable": true,
                "Scale9OriginX": 15,
                "Scale9OriginY": 11,
                "Scale9Width": 136,
                "Scale9Height": 40,
                "OutlineColor": {
                  "G": 0,
                  "B": 0
                },
                "ShadowColor": {
                  "R": 110,
                  "G": 110,
                  "B": 110
                },
                "ShadowOffsetX": 2.0,
                "ShadowOffsetY": -2.0,
                "TouchEnable": true,
                "AnchorPoint": {
                  "ScaleX": 0.5,
                  "ScaleY": 0.5
                },
                "Position": {
                  "X": 504.0,
                  "Y": 75.0
                },
                "Scale": {
                  "ScaleX": 1.0,
                  "ScaleY": 1.0
                },
                "CColor": {},
                "IconVisible": false,
                "PositionPercentXEnabled": true,
                "PrePosition": {
                  "X": 0.5,
                  "Y": 0.1488
                },
                "PreSize": {
                  "X": 0.1647,
                  "Y": 0.123
                },
                "LeftMargin": 421.0,
                "RightMargin": 421.0,
                "TopMargin": 398.0,
                "BottomMargin": 44.0,
                "Tag": 163,
                "ActionTag": 546035397,
                "Size": {
                  "X": 166.0,
                  "Y": 62.0
                },
                "Name": "btn_dismiss",
                "ctype": "ButtonObjectData"
              },
              {
                "FontSize": 14,
                "ButtonText": "",
                "TextColor": {
                  "R": 65,
                  "G": 65,
                  "B": 70
                },
                "PressedFileData": {
                  "Type": "MarkedSubImage",
                  "Path": "room/png/pri_btn_invite_1.png",
                  "Plist": "Room/room.plist"
                },
                "NormalFileData": {
                  "Type": "MarkedSubImage",
                  "Path": "room/png/pri_btn_invite_0.png",
                  "Plist": "Room/room.plist"
                },
                "Scale9Enable": true,
                "Scale9OriginX": 15,
                "Scale9OriginY": 11,
                "Scale9Width": 136,
                "Scale9Height": 40,
                "OutlineColor": {
                  "G": 0,
                  "B": 0
                },
                "ShadowColor": {
                  "R": 110,
                  "G": 110,
                  "B": 110
                },
                "ShadowOffsetX": 2.0,
                "ShadowOffsetY": -2.0,
                "TouchEnable": true,
                "AnchorPoint": {
                  "ScaleX": 0.5,
                  "ScaleY": 0.5
                },
                "Position": {
                  "X": 806.4,
                  "Y": 75.0
                },
                "Scale": {
                  "ScaleX": 1.0,
                  "ScaleY": 1.0
                },
                "CColor": {},
                "IconVisible": false,
                "PositionPercentXEnabled": true,
                "PrePosition": {
                  "X": 0.8,
                  "Y": 0.1488
                },
                "PreSize": {
                  "X": 0.1647,
                  "Y": 0.123
                },
                "LeftMargin": 723.4,
                "RightMargin": 118.6,
                "TopMargin": 398.0,
                "BottomMargin": 44.0,
                "Tag": 164,
                "ActionTag": -1204524038,
                "Size": {
                  "X": 166.0,
                  "Y": 62.0
                },
                "Name": "btn_invite",
                "ctype": "ButtonObjectData"
              },
              {
                "FontSize": 14,
                "ButtonText": "",
                "TextColor": {
                  "R": 65,
                  "G": 65,
                  "B": 70
                },
                "PressedFileData": {
                  "Type": "MarkedSubImage",
                  "Path": "room/png/pri_btn_sharegrade_1.png",
                  "Plist": "Room/room.plist"
                },
                "NormalFileData": {
                  "Type": "MarkedSubImage",
                  "Path": "room/png/pri_btn_sharegrade_0.png",
                  "Plist": "Room/room.plist"
                },
                "Scale9Enable": true,
                "Scale9OriginX": 15,
                "Scale9OriginY": 11,
                "Scale9Width": 136,
                "Scale9Height": 40,
                "OutlineColor": {
                  "G": 0,
                  "B": 0
                },
                "ShadowColor": {
                  "R": 110,
                  "G": 110,
                  "B": 110
                },
                "ShadowOffsetX": 2.0,
                "ShadowOffsetY": -2.0,
                "TouchEnable": true,
                "AnchorPoint": {
                  "ScaleX": 0.5,
                  "ScaleY": 0.5
                },
                "Position": {
                  "X": 504.0,
                  "Y": 75.0
                },
                "Scale": {
                  "ScaleX": 1.0,
                  "ScaleY": 1.0
                },
                "CColor": {},
                "IconVisible": false,
                "PositionPercentXEnabled": true,
                "PrePosition": {
                  "X": 0.5,
                  "Y": 0.1488
                },
                "PreSize": {
                  "X": 0.1647,
                  "Y": 0.123
                },
                "LeftMargin": 421.0,
                "RightMargin": 421.0,
                "TopMargin": 398.0,
                "BottomMargin": 44.0,
                "Tag": 165,
                "ActionTag": 1228164907,
                "Size": {
                  "X": 166.0,
                  "Y": 62.0
                },
                "VisibleForFrame": false,
                "Name": "btn_share",
                "ctype": "ButtonObjectData"
              }
            ],
            "ActionTag": 592919944,
            "Size": {
              "X": 1008.0,
              "Y": 504.0
            },
            "Name": "image_bg",
            "ctype": "ImageViewObjectData"
          }
        ],
        "Size": {
          "X": 1334.0,
          "Y": 750.0
        },
        "Name": "Layer",
        "ctype": "LayerObjectData"
      },
      "UsedResources": [
        "../fonts/round_body.ttf",
        "Room/pri_sp_roombg.png",
        "Room/room.plist",
        "Room/room.png"
      ],
      "ctype": "GameFileData"
    }
  },
  "Type": "Layer"
}