{
  "ID": "7e1f33ff-c024-4f0c-ba6c-680f612e7b5f",
  "Version": "2.3.4",
  "Name": "GameScene",
  "Content": {
    "Content": {
      "Animation": {
        "Duration": 0,
        "Speed": 1.0,
        "Timelines": [],
        "ctype": "TimelineActionData"
      },
      "AnimationList": [],
      "ObjectData": {
        "Children": [
          {
            "FileData": {
              "Type": "Normal",
              "Path": "game/background_sparrowHz.png",
              "Plist": ""
            },
            "BlendFunc": {
              "Src": 1,
              "Dst": 771
            },
            "AnchorPoint": {
              "ScaleX": 1.0,
              "ScaleY": 0.5
            },
            "Position": {
              "X": 1334.0,
              "Y": 375.0
            },
            "Scale": {
              "ScaleX": 1.0,
              "ScaleY": 1.0
            },
            "CColor": {},
            "IconVisible": false,
            "PrePosition": {
              "X": 1.0,
              "Y": 0.5
            },
            "PreSize": {
              "X": 1.0,
              "Y": 1.0
            },
            "Tag": 133,
            "ActionTag": -190572981,
            "Size": {
              "X": 1334.0,
              "Y": 750.0
            },
            "VisibleForFrame":false,
            "Name": "background_sparrowHz",
            "ctype": "SpriteObjectData"
          },
          {
            "FontSize": 14,
            "ButtonText": "",
            "TextColor": {
              "R": 65,
              "G": 65,
              "B": 70
            },
            "DisabledFileData": {
              "Type": "PlistSubImage",
              "Path": "bt_voice_1.png",
              "Plist": "gameScene.plist"
            },
            "PressedFileData": {
              "Type": "PlistSubImage",
              "Path": "bt_voice_2.png",
              "Plist": "gameScene.plist"
            },
            "NormalFileData": {
              "Type": "PlistSubImage",
              "Path": "bt_voice_1.png",
              "Plist": "gameScene.plist"
            },
            "Scale9Enable": true,
            "Scale9OriginX": 15,
            "Scale9OriginY": 11,
            "Scale9Width": 56,
            "Scale9Height": 64,
            "OutlineColor": {
              "G": 0,
              "B": 0
            },
            "ShadowColor": {
              "R": 110,
              "G": 110,
              "B": 110
            },
            "ShadowOffsetX": 2.0,
            "ShadowOffsetY": -2.0,
            "TouchEnable": true,
            "AnchorPoint": {
              "ScaleX": 0.5,
              "ScaleY": 0.5
            },
            "Position": {
              "X": 1272.217,
              "Y": 284.4748
            },
            "Scale": {
              "ScaleX": 1.0,
              "ScaleY": 1.0
            },
            "CColor": {},
            "IconVisible": false,
            "PrePosition": {
              "X": 0.9537,
              "Y": 0.3793
            },
            "PreSize": {
              "X": 0.0645,
              "Y": 0.1147
            },
            "LeftMargin": 1229.217,
            "RightMargin": 18.783,
            "TopMargin": 422.5252,
            "BottomMargin": 241.4748,
            "Tag": 5,
            "ActionTag": 147989285,
            "Size": {
              "X": 86.0,
              "Y": 86.0
            },
            "VisibleForFrame": false,
            "Name": "bt_voice",
            "ctype": "ButtonObjectData"
          },
          {
            "FileData": {
              "Type": "PlistSubImage",
              "Path": "sp_announcementBg.png",
              "Plist": "gameScene.plist"
            },
            "BlendFunc": {
              "Src": 1,
              "Dst": 771
            },
            "AnchorPoint": {
              "ScaleX": 0.5,
              "ScaleY": 0.5
            },
            "Position": {
              "X": 650.9999,
              "Y": 725.4355
            },
            "Scale": {
              "ScaleX": 1.0,
              "ScaleY": 1.0
            },
            "CColor": {},
            "IconVisible": false,
            "PrePosition": {
              "X": 0.488,
              "Y": 0.9672
            },
            "PreSize": {
              "X": 0.4918,
              "Y": 0.0693
            },
            "LeftMargin": 322.9999,
            "RightMargin": 355.0001,
            "TopMargin": -1.4355,
            "BottomMargin": 699.4355,
            "Tag": 8,
            "Children": [
              {
                "FileData": {
                  "Type": "PlistSubImage",
                  "Path": "sp_announcement.png",
                  "Plist": "gameScene.plist"
                },
                "BlendFunc": {
                  "Src": 1,
                  "Dst": 771
                },
                "AnchorPoint": {
                  "ScaleX": 0.5,
                  "ScaleY": 0.5
                },
                "Position": {
                  "X": 68.2537,
                  "Y": 29.2584
                },
                "Scale": {
                  "ScaleX": 1.0,
                  "ScaleY": 1.0
                },
                "CColor": {},
                "IconVisible": false,
                "PrePosition": {
                  "X": 0.104,
                  "Y": 0.5627
                },
                "PreSize": {
                  "X": 0.0671,
                  "Y": 0.6154
                },
                "LeftMargin": 46.2537,
                "RightMargin": 565.7463,
                "TopMargin": 6.7416,
                "BottomMargin": 13.2584,
                "Tag": 1,
                "ActionTag": -143002495,
                "Size": {
                  "X": 44.0,
                  "Y": 32.0
                },
                "Name": "sp_announcement",
                "ctype": "SpriteObjectData"
              }
            ],
            "ActionTag": -1941582168,
            "Size": {
              "X": 656.0,
              "Y": 52.0
            },
            "Name": "sp_announcementBg",
            "ctype": "SpriteObjectData"
          },
          {
            "FileData": {
              "Type": "PlistSubImage",
              "Path": "sp_clock_0.png",
              "Plist": "gameScene.plist"
            },
            "BlendFunc": {
              "Src": 1,
              "Dst": 771
            },
            "AnchorPoint": {
              "ScaleX": 0.5,
              "ScaleY": 0.5
            },
            "Position": {
              "X": 667.7288,
              "Y": 359.2443
            },
            "Scale": {
              "ScaleX": 1.0,
              "ScaleY": 1.0
            },
            "CColor": {},
            "IconVisible": false,
            "PrePosition": {
              "X": 0.5005,
              "Y": 0.479
            },
            "PreSize": {
              "X": 0.1702,
              "Y": 0.308
            },
            "LeftMargin": 554.2288,
            "RightMargin": 552.7712,
            "TopMargin": 275.2557,
            "BottomMargin": 243.7443,
            "Tag": 2001,
            "ActionTag": 721712143,
            "Size": {
              "X": 227.0,
              "Y": 231.0
            },
            "Name": "sp_clock_0",
            "ctype": "SpriteObjectData"
          },
          {
            "FileData": {
              "Type": "PlistSubImage",
              "Path": "sp_clock_1_1.png",
              "Plist": "gameScene.plist"
            },
            "BlendFunc": {
              "Src": 1,
              "Dst": 771
            },
            "AnchorPoint": {
              "ScaleX": 0.5,
              "ScaleY": 0.5
            },
            "Position": {
              "X": 667.0,
              "Y": 360.0
            },
            "Scale": {
              "ScaleX": 1.0,
              "ScaleY": 1.0
            },
            "CColor": {},
            "IconVisible": false,
            "PrePosition": {
              "X": 0.5,
              "Y": 0.48
            },
            "PreSize": {
              "X": 0.1702,
              "Y": 0.308
            },
            "LeftMargin": 553.5,
            "RightMargin": 553.5,
            "TopMargin": 274.5,
            "BottomMargin": 244.5,
            "Tag": 9,
            "Children": [
              {
                "CharWidth": 21,
                "CharHeight": 31,
                "LabelText": "89",
                "StartChar": "0",
                "LabelAtlasFileImage_CNB": {
                  "Type": "Normal",
                  "Path": "game/num_clock.png",
                  "Plist": ""
                },
                "AnchorPoint": {
                  "ScaleX": 0.5,
                  "ScaleY": 0.5
                },
                "Position": {
                  "X": 117.7733,
                  "Y": 117.3804
                },
                "Scale": {
                  "ScaleX": 1.0,
                  "ScaleY": 1.0
                },
                "CColor": {},
                "IconVisible": false,
                "PrePosition": {
                  "X": 0.5188,
                  "Y": 0.5081
                },
                "PreSize": {
                  "X": 0.185,
                  "Y": 0.1342
                },
                "LeftMargin": 96.7733,
                "RightMargin": 88.2267,
                "TopMargin": 98.1196,
                "BottomMargin": 101.8804,
                "Tag": 1,
                "ActionTag": 1664108806,
                "Size": {
                  "X": 42.0,
                  "Y": 31.0
                },
                "Name": "AsLab_time",
                "ctype": "TextAtlasObjectData"
              }
            ],
            "ActionTag": -4052651,
            "Size": {
              "X": 227.0,
              "Y": 231.0
            },
            "Name": "sp_clock",
            "ctype": "SpriteObjectData"
          },
          {
            "FileData": {
              "Type": "PlistSubImage",
              "Path": "sp_listenBg_1.png",
              "Plist": "gameScene.plist"
            },
            "BlendFunc": {
              "Src": 1,
              "Dst": 771
            },
            "AnchorPoint": {},
            "Position": {
              "X": 41.5389,
              "Y": 2.0252
            },
            "Scale": {
              "ScaleX": 1.0,
              "ScaleY": 1.0
            },
            "CColor": {},
            "IconVisible": false,
            "PrePosition": {
              "X": 0.0311,
              "Y": 0.0027
            },
            "PreSize": {
              "X": 0.2459,
              "Y": 0.14
            },
            "LeftMargin": 41.5389,
            "RightMargin": 964.4611,
            "TopMargin": 642.9748,
            "BottomMargin": 2.0252,
            "Tag": 10,
            "ActionTag": 337011487,
            "Size": {
              "X": 328.0,
              "Y": 105.0
            },
            "Name": "sp_listenBg",
            "ctype": "SpriteObjectData"
          },
          {
            "FileData": {
              "Type": "Normal",
              "Path": "Player.json",
              "Plist": ""
            },
            "StretchWidthEnable": false,
            "StretchHeightEnable": false,
            "InnerActionSpeed": 1.0,
            "AnchorPoint": {},
            "Position": {
              "X": 324.274,
              "Y": 635.72
            },
            "Scale": {
              "ScaleX": 1.0,
              "ScaleY": 1.0
            },
            "CColor": {},
            "IconVisible": true,
            "PrePosition": {
              "X": 0.2431,
              "Y": 0.8476
            },
            "PreSize": {
              "X": 0.0,
              "Y": 0.0
            },
            "LeftMargin": 324.274,
            "RightMargin": 1009.726,
            "TopMargin": 114.28,
            "BottomMargin": 635.72,
            "Tag": 11,
            "ActionTag": 1072808184,
            "Size": {
              "X": 0.0,
              "Y": 0.0
            },
            "Name": "FileNode_1",
            "ctype": "ProjectNodeObjectData"
          },
          {
            "FileData": {
              "Type": "Normal",
              "Path": "PlayerOther_1.json",
              "Plist": ""
            },
            "StretchWidthEnable": false,
            "StretchHeightEnable": false,
            "InnerActionSpeed": 1.0,
            "AnchorPoint": {},
            "Position": {
              "X": 82.7854,
              "Y": 440.0233
            },
            "Scale": {
              "ScaleX": 1.0,
              "ScaleY": 1.0
            },
            "CColor": {},
            "IconVisible": true,
            "PrePosition": {
              "X": 0.0621,
              "Y": 0.5867
            },
            "PreSize": {
              "X": 0.0,
              "Y": 0.0
            },
            "LeftMargin": 82.7854,
            "RightMargin": 1251.2146,
            "TopMargin": 309.9767,
            "BottomMargin": 440.0233,
            "Tag": 12,
            "ActionTag": -651639449,
            "Size": {
              "X": 0.0,
              "Y": 0.0
            },
            "Name": "FileNode_2",
            "ctype": "ProjectNodeObjectData"
          },
          {
            "FileData": {
              "Type": "Normal",
              "Path": "PlayerOwn.json",
              "Plist": ""
            },
            "StretchWidthEnable": false,
            "StretchHeightEnable": false,
            "InnerActionSpeed": 1.0,
            "AnchorPoint": {},
            "Position": {
              "X": 85.89,
              "Y": 260.1
            },
            "Scale": {
              "ScaleX": 1.0,
              "ScaleY": 1.0
            },
            "CColor": {},
            "IconVisible": true,
            "PrePosition": {
              "X": 0.0419,
              "Y": 0.2668
            },
            "PreSize": {
              "X": 0.0,
              "Y": 0.0
            },
            "LeftMargin": 55.89,
            "RightMargin": 1278.11,
            "TopMargin": 549.9,
            "BottomMargin": 200.1,
            "Tag": 13,
            "ActionTag": -66220346,
            "Size": {
              "X": 0.0,
              "Y": 0.0
            },
            "Name": "FileNode_3",
            "ctype": "ProjectNodeObjectData"
          },
          {
            "FileData": {
              "Type": "Normal",
              "Path": "PlayerOther_2.json",
              "Plist": ""
            },
            "StretchWidthEnable": false,
            "StretchHeightEnable": false,
            "InnerActionSpeed": 1.0,
            "AnchorPoint": {},
            "Position": {
              "X": 1279.6039,
              "Y": 472.2448
            },
            "Scale": {
              "ScaleX": 1.0,
              "ScaleY": 1.0
            },
            "CColor": {},
            "IconVisible": true,
            "PrePosition": {
              "X": 0.9592,
              "Y": 0.6297
            },
            "PreSize": {
              "X": 0.0,
              "Y": 0.0
            },
            "LeftMargin": 1279.6039,
            "RightMargin": 54.3961,
            "TopMargin": 277.7552,
            "BottomMargin": 472.2448,
            "Tag": 14,
            "ActionTag": -783811294,
            "Size": {
              "X": 0.0,
              "Y": 0.0
            },
            "Name": "FileNode_4",
            "ctype": "ProjectNodeObjectData"
          },
          {
            "FileData": {
              "Type": "PlistSubImage",
              "Path": "sp_sparrowPlate.png",
              "Plist": "gameScene.plist"
            },
            "BlendFunc": {
              "Src": 1,
              "Dst": 771
            },
            "AnchorPoint": {
              "ScaleX": 0.5,
              "ScaleY": 0.5
            },
            "Position": {
              "X": 354.328,
              "Y": 417.099
            },
            "Scale": {
              "ScaleX": 1.0,
              "ScaleY": 1.0
            },
            "CColor": {},
            "IconVisible": false,
            "PrePosition": {
              "X": 0.2656,
              "Y": 0.5561
            },
            "PreSize": {
              "X": 0.0922,
              "Y": 0.1973
            },
            "LeftMargin": 292.828,
            "RightMargin": 918.172,
            "TopMargin": 258.901,
            "BottomMargin": 343.099,
            "Tag": 19,
            "ActionTag": -895342960,
            "Size": {
              "X": 123.0,
              "Y": 148.0
            },
            "Name": "sp_sparrowPlate",
            "ctype": "SpriteObjectData"
          },
          {
            "FontSize": 24,
            "LabelText": "剩136张",
            "FontResource": {
              "Type": "Normal",
              "Path": "fonts/round_body.ttf",
              "Plist": ""
            },
            "OutlineColor": {
              "G": 0,
              "B": 0
            },
            "ShadowColor": {
              "R": 110,
              "G": 110,
              "B": 110
            },
            "ShadowOffsetX": 2.0,
            "ShadowOffsetY": -2.0,
            "AnchorPoint": {
              "ScaleY": 0.5
            },
            "Position": {
              "X": 491.4417,
              "Y": 393.3581
            },
            "Scale": {
              "ScaleX": 1.0,
              "ScaleY": 1.0
            },
            "CColor": {},
            "IconVisible": false,
            "PrePosition": {
              "X": 0.3684,
              "Y": 0.5245
            },
            "PreSize": {
              "X": 0.066,
              "Y": 0.0373
            },
            "LeftMargin": 491.4417,
            "RightMargin": 754.5583,
            "TopMargin": 342.6419,
            "BottomMargin": 379.3581,
            "Tag": 20,
            "ActionTag": 2040513789,
            "Size": {
              "X": 88.0,
              "Y": 28.0
            },
            "Name": "Text_remainNumber",
            "ctype": "TextObjectData"
          },
          {
            "FileData": {
              "Type": "PlistSubImage",
              "Path": "sp_gameBtn_bg.png",
              "Plist": "gameScene.plist"
            },
            "BlendFunc": {
              "Src": 1,
              "Dst": 771
            },
            "AnchorPoint": {
              "ScaleX": 0.5,
              "ScaleY": 0.5
            },
            "Position": {
              "X": 703.1949,
              "Y": 431.2978
            },
            "Scale": {
              "ScaleX": 0.7327,
              "ScaleY": 0.8228
            },
            "CColor": {},
            "IconVisible": false,
            "PrePosition": {
              "X": 0.5271,
              "Y": 0.5751
            },
            "PreSize": {
              "X": 0.419,
              "Y": 0.164
            },
            "LeftMargin": 423.6949,
            "RightMargin": 351.3051,
            "TopMargin": 257.2022,
            "BottomMargin": 369.7978,
            "Tag": 800,
            "Children": [
              {
                "FontSize": 14,
                "ButtonText": "",
                "TextColor": {
                  "R": 65,
                  "G": 65,
                  "B": 70
                },
                "DisabledFileData": {
                  "Type": "PlistSubImage",
                  "Path": "bt_bridge_3.png",
                  "Plist": "gameScene.plist"
                },
                "PressedFileData": {
                  "Type": "PlistSubImage",
                  "Path": "sp_flag_bridge.png",
                  "Plist": "gameScene.plist"
                },
                "NormalFileData": {
                  "Type": "PlistSubImage",
                  "Path": "bt_bridge_1.png",
                  "Plist": "gameScene.plist"
                },
                "Scale9Enable": true,
                "Scale9OriginX": 15,
                "Scale9OriginY": 11,
                "Scale9Width": 82,
                "Scale9Height": 82,
                "OutlineColor": {
                  "G": 0,
                  "B": 0
                },
                "ShadowColor": {
                  "R": 110,
                  "G": 110,
                  "B": 110
                },
                "ShadowOffsetX": 2.0,
                "ShadowOffsetY": -2.0,
                "TouchEnable": true,
                "AnchorPoint": {
                  "ScaleX": 0.5,
                  "ScaleY": 0.5
                },
                "Position": {
                  "X": -394.3253,
                  "Y": 70.0
                },
                "Scale": {
                  "ScaleX": 1.0,
                  "ScaleY": 1.0
                },
                "CColor": {},
                "IconVisible": false,
                "PrePosition": {
                  "X": -0.7054,
                  "Y": 0.5691
                },
                "PreSize": {
                  "X": 0.2004,
                  "Y": 0.8455
                },
                "LeftMargin": -450.3253,
                "RightMargin": 897.3253,
                "TopMargin": 1.0,
                "BottomMargin": 18.0,
                "Tag": 970,
                "ActionTag": 2090952377,
                "Size": {
                  "X": 112.0,
                  "Y": 104.0
                },
                "Name": "bt_gang_1",
                "ctype": "ButtonObjectData"
              },
              {
                "FontSize": 14,
                "ButtonText": "",
                "TextColor": {
                  "R": 65,
                  "G": 65,
                  "B": 70
                },
                "DisabledFileData": {
                  "Type": "PlistSubImage",
                  "Path": "bt_bridge_3.png",
                  "Plist": "gameScene.plist"
                },
                "PressedFileData": {
                  "Type": "PlistSubImage",
                  "Path": "sp_flag_bridge.png",
                  "Plist": "gameScene.plist"
                },
                "NormalFileData": {
                  "Type": "PlistSubImage",
                  "Path": "bt_bridge_1.png",
                  "Plist": "gameScene.plist"
                },
                "Scale9Enable": true,
                "Scale9OriginX": 15,
                "Scale9OriginY": 11,
                "Scale9Width": 82,
                "Scale9Height": 82,
                "OutlineColor": {
                  "G": 0,
                  "B": 0
                },
                "ShadowColor": {
                  "R": 110,
                  "G": 110,
                  "B": 110
                },
                "ShadowOffsetX": 2.0,
                "ShadowOffsetY": -2.0,
                "TouchEnable": true,
                "AnchorPoint": {
                  "ScaleX": 0.5843,
                  "ScaleY": 0.4616
                },
                "Position": {
                  "X": 55.0338,
                  "Y": 70.0
                },
                "Scale": {
                  "ScaleX": 1.0,
                  "ScaleY": 1.0
                },
                "CColor": {},
                "IconVisible": false,
                "PrePosition": {
                  "X": 0.0985,
                  "Y": 0.5691
                },
                "PreSize": {
                  "X": 0.2004,
                  "Y": 0.8455
                },
                "LeftMargin": -10.4078,
                "RightMargin": 457.4078,
                "TopMargin": -2.9936,
                "BottomMargin": 21.9936,
                "Tag": 971,
                "ActionTag": -1556629122,
                "Size": {
                  "X": 112.0,
                  "Y": 104.0
                },
                "Name": "bt_gang_2",
                "ctype": "ButtonObjectData"
              },
              {
                "FontSize": 14,
                "ButtonText": "",
                "TextColor": {
                  "R": 65,
                  "G": 65,
                  "B": 70
                },
                "DisabledFileData": {
                  "Type": "PlistSubImage",
                  "Path": "bt_bridge_3.png",
                  "Plist": "gameScene.plist"
                },
                "PressedFileData": {
                  "Type": "PlistSubImage",
                  "Path": "sp_flag_bridge.png",
                  "Plist": "gameScene.plist"
                },
                "NormalFileData": {
                  "Type": "PlistSubImage",
                  "Path": "bt_bridge_1.png",
                  "Plist": "gameScene.plist"
                },
                "Scale9Enable": true,
                "Scale9OriginX": 15,
                "Scale9OriginY": 11,
                "Scale9Width": 82,
                "Scale9Height": 82,
                "OutlineColor": {
                  "G": 0,
                  "B": 0
                },
                "ShadowColor": {
                  "R": 110,
                  "G": 110,
                  "B": 110
                },
                "ShadowOffsetX": 2.0,
                "ShadowOffsetY": -2.0,
                "TouchEnable": true,
                "AnchorPoint": {
                  "ScaleX": 0.5,
                  "ScaleY": 0.5
                },
                "Position": {
                  "X": 500.2501,
                  "Y": 70.0
                },
                "Scale": {
                  "ScaleX": 1.0,
                  "ScaleY": 1.0
                },
                "CColor": {},
                "IconVisible": false,
                "PrePosition": {
                  "X": 0.8949,
                  "Y": 0.5691
                },
                "PreSize": {
                  "X": 0.2004,
                  "Y": 0.8455
                },
                "LeftMargin": 444.2501,
                "RightMargin": 2.7499,
                "TopMargin": 1.0,
                "BottomMargin": 18.0,
                "Tag": 972,
                "ActionTag": 1698891814,
                "Size": {
                  "X": 112.0,
                  "Y": 104.0
                },
                "Name": "bt_gang_3",
                "ctype": "ButtonObjectData"
              },
              {
                "FontSize": 14,
                "ButtonText": "",
                "TextColor": {
                  "R": 65,
                  "G": 65,
                  "B": 70
                },
                "DisabledFileData": {
                  "Type": "PlistSubImage",
                  "Path": "bt_bridge_3.png",
                  "Plist": "gameScene.plist"
                },
                "PressedFileData": {
                  "Type": "PlistSubImage",
                  "Path": "sp_flag_bridge.png",
                  "Plist": "gameScene.plist"
                },
                "NormalFileData": {
                  "Type": "PlistSubImage",
                  "Path": "bt_bridge_1.png",
                  "Plist": "gameScene.plist"
                },
                "Scale9Enable": true,
                "Scale9OriginX": 15,
                "Scale9OriginY": 11,
                "Scale9Width": 82,
                "Scale9Height": 82,
                "OutlineColor": {
                  "G": 0,
                  "B": 0
                },
                "ShadowColor": {
                  "R": 110,
                  "G": 110,
                  "B": 110
                },
                "ShadowOffsetX": 2.0,
                "ShadowOffsetY": -2.0,
                "TouchEnable": true,
                "AnchorPoint": {
                  "ScaleX": 0.5,
                  "ScaleY": 0.5
                },
                "Position": {
                  "X": 817.7328,
                  "Y": 70.0
                },
                "Scale": {
                  "ScaleX": 1.0,
                  "ScaleY": 1.0
                },
                "CColor": {},
                "IconVisible": false,
                "PrePosition": {
                  "X": 1.4628,
                  "Y": 0.5691
                },
                "PreSize": {
                  "X": 0.2004,
                  "Y": 0.8455
                },
                "LeftMargin": 761.7328,
                "RightMargin": -314.7328,
                "TopMargin": 1.0,
                "BottomMargin": 18.0,
                "Tag": 973,
                "ActionTag": 1690792736,
                "Size": {
                  "X": 112.0,
                  "Y": 104.0
                },
                "Name": "bt_gang_4",
                "ctype": "ButtonObjectData"
              }
            ],
            "ActionTag": 1860134247,
            "Size": {
              "X": 559.0,
              "Y": 123.0
            },
            "Name": "sp_gameBtn_Gang_bg",
            "ctype": "SpriteObjectData"
          },
          {
            "FileData": {
              "Type": "PlistSubImage",
              "Path": "sp_gameBtn_bg.png",
              "Plist": "gameScene.plist"
            },
            "BlendFunc": {
              "Src": 1,
              "Dst": 771
            },
            "AnchorPoint": {
              "ScaleX": 0.5,
              "ScaleY": 0.5
            },
            "Position": {
              "X": 705.4111,
              "Y": 429.0818
            },
            "Scale": {
              "ScaleX": 0.7327,
              "ScaleY": 0.8228
            },
            "CColor": {},
            "IconVisible": false,
            "PrePosition": {
              "X": 0.5288,
              "Y": 0.5721
            },
            "PreSize": {
              "X": 0.419,
              "Y": 0.164
            },
            "LeftMargin": 425.9111,
            "RightMargin": 349.0889,
            "TopMargin": 259.4182,
            "BottomMargin": 367.5818,
            "Tag": 801,
            "Children": [
              {
                "FontSize": 14,
                "ButtonText": "",
                "TextColor": {
                  "R": 65,
                  "G": 65,
                  "B": 70
                },
                "DisabledFileData": {
                  "Type": "PlistSubImage",
                  "Path": "bt_eat_3.png",
                  "Plist": "gameScene.plist"
                },
                "PressedFileData": {
                  "Type": "PlistSubImage",
                  "Path": "bt_eat_2.png",
                  "Plist": "gameScene.plist"
                },
                "NormalFileData": {
                  "Type": "PlistSubImage",
                  "Path": "bt_eat_1.png",
                  "Plist": "gameScene.plist"
                },
                "Scale9Enable": true,
                "Scale9OriginX": 15,
                "Scale9OriginY": 11,
                "Scale9Width": 76,
                "Scale9Height": 81,
                "OutlineColor": {
                  "G": 0,
                  "B": 0
                },
                "ShadowColor": {
                  "R": 110,
                  "G": 110,
                  "B": 110
                },
                "ShadowOffsetX": 2.0,
                "ShadowOffsetY": -2.0,
                "TouchEnable": true,
                "AnchorPoint": {
                  "ScaleX": 0.5,
                  "ScaleY": 0.5
                },
                "Position": {
                  "X": -254.1022,
                  "Y": 77.7042
                },
                "Scale": {
                  "ScaleX": 1.0,
                  "ScaleY": 1.0
                },
                "CColor": {},
                "IconVisible": false,
                "PrePosition": {
                  "X": -0.4546,
                  "Y": 0.6317
                },
                "PreSize": {
                  "X": 0.1896,
                  "Y": 0.8374
                },
                "LeftMargin": -307.1022,
                "RightMargin": 760.1022,
                "TopMargin": -6.2042,
                "BottomMargin": 26.2042,
                "Tag": 964,
                "ActionTag": 1078914371,
                "Size": {
                  "X": 106.0,
                  "Y": 103.0
                },
                "Name": "bt_Chi_1",
                "ctype": "ButtonObjectData"
              },
              {
                "FontSize": 14,
                "ButtonText": "",
                "TextColor": {
                  "R": 65,
                  "G": 65,
                  "B": 70
                },
                "DisabledFileData": {
                  "Type": "PlistSubImage",
                  "Path": "bt_eat_3.png",
                  "Plist": "gameScene.plist"
                },
                "PressedFileData": {
                  "Type": "PlistSubImage",
                  "Path": "sp_flag_eat.png",
                  "Plist": "gameScene.plist"
                },
                "NormalFileData": {
                  "Type": "PlistSubImage",
                  "Path": "bt_eat_1.png",
                  "Plist": "gameScene.plist"
                },
                "Scale9Enable": true,
                "Scale9OriginX": 15,
                "Scale9OriginY": 11,
                "Scale9Width": 76,
                "Scale9Height": 81,
                "OutlineColor": {
                  "G": 0,
                  "B": 0
                },
                "ShadowColor": {
                  "R": 110,
                  "G": 110,
                  "B": 110
                },
                "ShadowOffsetX": 2.0,
                "ShadowOffsetY": -2.0,
                "TouchEnable": true,
                "AnchorPoint": {
                  "ScaleX": 0.5843,
                  "ScaleY": 0.4616
                },
                "Position": {
                  "X": 282.3622,
                  "Y": 62.6062
                },
                "Scale": {
                  "ScaleX": 1.0,
                  "ScaleY": 1.0
                },
                "CColor": {},
                "IconVisible": false,
                "PrePosition": {
                  "X": 0.5051,
                  "Y": 0.509
                },
                "PreSize": {
                  "X": 0.1896,
                  "Y": 0.8374
                },
                "LeftMargin": 220.4264,
                "RightMargin": 232.5736,
                "TopMargin": 4.9386,
                "BottomMargin": 15.0614,
                "Tag": 965,
                "ActionTag": 1957488119,
                "Size": {
                  "X": 106.0,
                  "Y": 103.0
                },
                "Name": "bt_Chi_2",
                "ctype": "ButtonObjectData"
              },
              {
                "FontSize": 14,
                "ButtonText": "",
                "TextColor": {
                  "R": 65,
                  "G": 65,
                  "B": 70
                },
                "DisabledFileData": {
                  "Type": "PlistSubImage",
                  "Path": "bt_eat_3.png",
                  "Plist": "gameScene.plist"
                },
                "PressedFileData": {
                  "Type": "PlistSubImage",
                  "Path": "sp_flag_eat.png",
                  "Plist": "gameScene.plist"
                },
                "NormalFileData": {
                  "Type": "PlistSubImage",
                  "Path": "bt_eat_1.png",
                  "Plist": "gameScene.plist"
                },
                "Scale9Enable": true,
                "Scale9OriginX": 15,
                "Scale9OriginY": 11,
                "Scale9Width": 76,
                "Scale9Height": 81,
                "OutlineColor": {
                  "G": 0,
                  "B": 0
                },
                "ShadowColor": {
                  "R": 110,
                  "G": 110,
                  "B": 110
                },
                "ShadowOffsetX": 2.0,
                "ShadowOffsetY": -2.0,
                "TouchEnable": true,
                "AnchorPoint": {
                  "ScaleX": 0.5,
                  "ScaleY": 0.5
                },
                "Position": {
                  "X": 721.2084,
                  "Y": 68.138
                },
                "Scale": {
                  "ScaleX": 1.0,
                  "ScaleY": 1.0
                },
                "CColor": {},
                "IconVisible": false,
                "PrePosition": {
                  "X": 1.2902,
                  "Y": 0.554
                },
                "PreSize": {
                  "X": 0.1896,
                  "Y": 0.8374
                },
                "LeftMargin": 668.2084,
                "RightMargin": -215.2084,
                "TopMargin": 3.362,
                "BottomMargin": 16.638,
                "Tag": 966,
                "ActionTag": 1869266984,
                "Size": {
                  "X": 106.0,
                  "Y": 103.0
                },
                "Name": "bt_Chi_3",
                "ctype": "ButtonObjectData"
              }
            ],
            "ActionTag": -459462453,
            "Size": {
              "X": 559.0,
              "Y": 123.0
            },
            "Name": "sp_gameBtn_Chi_bg",
            "ctype": "SpriteObjectData"
          },
          {
            "FontSize": 36,
            "LabelText": "局号：123456789",
            "FontResource": {
              "Type": "Normal",
              "Path": "fonts/round_body.ttf",
              "Plist": ""
            },
            "OutlineColor": {
              "G": 0,
              "B": 0
            },
            "ShadowColor": {
              "R": 110,
              "G": 110,
              "B": 110
            },
            "ShadowOffsetX": 2.0,
            "ShadowOffsetY": -2.0,
            "AnchorPoint": {
              "ScaleY": 0.5
            },
            "Position": {
              "X": 1032.2677,
              "Y": 643.7145
            },
            "Scale": {
              "ScaleX": 1.0,
              "ScaleY": 1.0
            },
            "CColor": {},
            "IconVisible": false,
            "PrePosition": {
              "X": 0.7738,
              "Y": 0.8583
            },
            "PreSize": {
              "X": 0.2166,
              "Y": 0.056
            },
            "LeftMargin": 1032.2677,
            "RightMargin": 12.7323,
            "TopMargin": 85.2855,
            "BottomMargin": 622.7145,
            "Tag": 802,
            "ActionTag": -298154839,
            "Size": {
              "X": 289.0,
              "Y": 42.0
            },
            "Name": "Text_WaitOther",
            "ctype": "TextObjectData"
          },
          {
            "FontSize": 22,
            "ButtonText": "下局牌库",
            "TextColor": {
              "G": 0,
              "B": 0
            },
            "DisabledFileData": {
              "Type": "Default",
              "Path": "Default/Button_Disable.png",
              "Plist": ""
            },
            "PressedFileData": {
              "Type": "Default",
              "Path": "Default/Button_Press.png",
              "Plist": ""
            },
            "NormalFileData": {
              "Type": "Default",
              "Path": "Default/Button_Normal.png",
              "Plist": ""
            },
            "Scale9Enable": true,
            "Scale9OriginX": 15,
            "Scale9OriginY": 11,
            "Scale9Width": 16,
            "Scale9Height": 14,
            "OutlineColor": {
              "G": 0,
              "B": 0
            },
            "ShadowColor": {
              "R": 110,
              "G": 110,
              "B": 110
            },
            "ShadowOffsetX": 2.0,
            "ShadowOffsetY": -2.0,
            "TouchEnable": true,
            "AnchorPoint": {
              "ScaleX": 0.5,
              "ScaleY": 0.5
            },
            "Position": {
              "X": 1271.7668,
              "Y": 559.3614
            },
            "Scale": {
              "ScaleX": 1.0,
              "ScaleY": 1.0
            },
            "CColor": {},
            "IconVisible": false,
            "PrePosition": {
              "X": 0.9533,
              "Y": 0.7458
            },
            "PreSize": {
              "X": 0.0637,
              "Y": 0.0467
            },
            "LeftMargin": 1229.2668,
            "RightMargin": 19.7332,
            "TopMargin": 173.1386,
            "BottomMargin": 541.8614,
            "Tag": 803,
            "ActionTag": -182331426,
            "Size": {
              "X": 85.0,
              "Y": 35.0
            },
            "Name": "text_nextCardData",
            "ctype": "ButtonObjectData"
          },
          {
            "FileData": {
              "Type": "PlistSubImage",
              "Path": "389_sp_tableBtBg.png",
              "Plist": "gameScene.plist"
            },
            "BlendFunc": {
              "Src": 1,
              "Dst": 771
            },
            "AnchorPoint": {
              "ScaleX": 1.0,
              "ScaleY": 0.5
            },
            "Position": {
              "X": 1251.1432,
              "Y": 702.4184
            },
            "Scale": {
              "ScaleX": 1.0,
              "ScaleY": 1.0
            },
            "CColor": {},
            "IconVisible": false,
            "PrePosition": {
              "X": 0.9379,
              "Y": 0.9366
            },
            "PreSize": {
              "X": 0.4415,
              "Y": 0.108
            },
            "LeftMargin": 662.1432,
            "RightMargin": 82.8568,
            "TopMargin": 7.0816,
            "BottomMargin": 661.9184,
            "Tag": 1,
            "Children": [
              {
                "FontSize": 14,
                "ButtonText": "",
                "TextColor": {
                  "R": 65,
                  "G": 65,
                  "B": 70
                },
                "DisabledFileData": {
                  "Type": "PlistSubImage",
                  "Path": "bt_chat_1.png",
                  "Plist": "gameScene.plist"
                },
                "PressedFileData": {
                  "Type": "PlistSubImage",
                  "Path": "bt_chat_2.png",
                  "Plist": "gameScene.plist"
                },
                "NormalFileData": {
                  "Type": "PlistSubImage",
                  "Path": "bt_chat_1.png",
                  "Plist": "gameScene.plist"
                },
                "Scale9Enable": true,
                "Scale9OriginX": 15,
                "Scale9OriginY": 11,
                "Scale9Width": 39,
                "Scale9Height": 47,
                "OutlineColor": {
                  "G": 0,
                  "B": 0
                },
                "ShadowColor": {
                  "R": 110,
                  "G": 110,
                  "B": 110
                },
                "ShadowOffsetX": 2.0,
                "ShadowOffsetY": -2.0,
                "TouchEnable": true,
                "AnchorPoint": {
                  "ScaleX": 0.5,
                  "ScaleY": 0.5
                },
                "Position": {
                  "X": 385.0146,
                  "Y": 42.0001
                },
                "Scale": {
                  "ScaleX": 1.0,
                  "ScaleY": 1.0
                },
                "CColor": {},
                "IconVisible": false,
                "PrePosition": {
                  "X": 0.6537,
                  "Y": 0.5185
                },
                "PreSize": {
                  "X": 0.1171,
                  "Y": 0.8642
                },
                "LeftMargin": 350.5146,
                "RightMargin": 169.4854,
                "TopMargin": 3.9999,
                "BottomMargin": 7.0001,
                "Tag": 41,
                "ActionTag": -1085812233,
                "Size": {
                  "X": 69.0,
                  "Y": 70.0
                },
                "Name": "bt_chat",
                "ctype": "ButtonObjectData"
              },
              {
                "FontSize": 14,
                "ButtonText": "",
                "TextColor": {
                  "R": 65,
                  "G": 65,
                  "B": 70
                },
                "DisabledFileData": {
                  "Type": "PlistSubImage",
                  "Path": "389_bt_set_1.png",
                  "Plist": "gameScene.plist"
                },
                "PressedFileData": {
                  "Type": "PlistSubImage",
                  "Path": "389_bt_set_2.png",
                  "Plist": "gameScene.plist"
                },
                "NormalFileData": {
                  "Type": "PlistSubImage",
                  "Path": "389_bt_set_1.png",
                  "Plist": "gameScene.plist"
                },
                "Scale9Enable": true,
                "Scale9OriginX": 15,
                "Scale9OriginY": 11,
                "Scale9Width": 39,
                "Scale9Height": 48,
                "OutlineColor": {
                  "G": 0,
                  "B": 0
                },
                "ShadowColor": {
                  "R": 110,
                  "G": 110,
                  "B": 110
                },
                "ShadowOffsetX": 2.0,
                "ShadowOffsetY": -2.0,
                "TouchEnable": true,
                "AnchorPoint": {
                  "ScaleX": 0.5,
                  "ScaleY": 0.5
                },
                "Position": {
                  "X": 541.0102,
                  "Y": 42.0001
                },
                "Scale": {
                  "ScaleX": 1.0,
                  "ScaleY": 1.0
                },
                "CColor": {},
                "IconVisible": false,
                "PrePosition": {
                  "X": 0.9185,
                  "Y": 0.5185
                },
                "PreSize": {
                  "X": 0.1171,
                  "Y": 0.8642
                },
                "LeftMargin": 506.5102,
                "RightMargin": 13.4898,
                "TopMargin": 3.9999,
                "BottomMargin": 7.0001,
                "Tag": 42,
                "ActionTag": 207525709,
                "Size": {
                  "X": 69.0,
                  "Y": 70.0
                },
                "Name": "bt_set",
                "ctype": "ButtonObjectData"
              },
              {
                "NormalBackFileData": {
                  "Type": "PlistSubImage",
                  "Path": "bt_soundOff_1.png",
                  "Plist": "gameScene.plist"
                },
                "PressedBackFileData": {
                  "Type": "PlistSubImage",
                  "Path": "bt_soundOff_1.png",
                  "Plist": "gameScene.plist"
                },
                "DisableBackFileData": {
                  "Type": "PlistSubImage",
                  "Path": "bt_soundOff_1.png",
                  "Plist": "gameScene.plist"
                },
                "NodeNormalFileData": {
                  "Type": "PlistSubImage",
                  "Path": "bt_soundOff_2.png",
                  "Plist": "gameScene.plist"
                },
                "NodeDisableFileData": {
                  "Type": "PlistSubImage",
                  "Path": "bt_soundOff_1.png",
                  "Plist": "gameScene.plist"
                },
                "TouchEnable": true,
                "AnchorPoint": {
                  "ScaleX": 0.5,
                  "ScaleY": 0.5
                },
                "Position": {
                  "X": -169.3543,
                  "Y": -37.3353
                },
                "Scale": {
                  "ScaleX": 1.0,
                  "ScaleY": 1.0
                },
                "CColor": {},
                "IconVisible": false,
                "PrePosition": {
                  "X": -0.2875,
                  "Y": -0.4609
                },
                "PreSize": {
                  "X": 0.0832,
                  "Y": 0.7901
                },
                "LeftMargin": -193.8543,
                "RightMargin": 733.8543,
                "TopMargin": 86.3353,
                "BottomMargin": -69.3353,
                "Tag": 142,
                "ActionTag": -1663252505,
                "Size": {
                  "X": 49.0,
                  "Y": 64.0
                },
                "VisibleForFrame": false,
                "Name": "cbx_soundOff",
                "ctype": "CheckBoxObjectData"
              },
              {
                "FontSize": 14,
                "ButtonText": "",
                "TextColor": {
                  "R": 65,
                  "G": 65,
                  "B": 70
                },
                "DisabledFileData": {
                  "Type": "PlistSubImage",
                  "Path": "bt_exit_1.png",
                  "Plist": "gameScene.plist"
                },
                "PressedFileData": {
                  "Type": "PlistSubImage",
                  "Path": "bt_exit_2.png",
                  "Plist": "gameScene.plist"
                },
                "NormalFileData": {
                  "Type": "PlistSubImage",
                  "Path": "bt_exit_1.png",
                  "Plist": "gameScene.plist"
                },
                "Scale9Enable": true,
                "Scale9OriginX": 15,
                "Scale9OriginY": 11,
                "Scale9Width": 39,
                "Scale9Height": 48,
                "OutlineColor": {
                  "G": 0,
                  "B": 0
                },
                "ShadowColor": {
                  "R": 110,
                  "G": 110,
                  "B": 110
                },
                "ShadowOffsetX": 2.0,
                "ShadowOffsetY": -2.0,
                "TouchEnable": true,
                "AnchorPoint": {
                  "ScaleX": 0.5,
                  "ScaleY": 0.5
                },
                "Position": {
                  "X": 233.7338,
                  "Y": 42.0176
                },
                "Scale": {
                  "ScaleX": 1.0,
                  "ScaleY": 1.0
                },
                "CColor": {},
                "IconVisible": false,
                "PrePosition": {
                  "X": 0.3968,
                  "Y": 0.5187
                },
                "PreSize": {
                  "X": 0.1171,
                  "Y": 0.8642
                },
                "LeftMargin": 199.2338,
                "RightMargin": 320.7662,
                "TopMargin": 3.9824,
                "BottomMargin": 7.0176,
                "Tag": 43,
                "ActionTag": 1747526079,
                "Size": {
                  "X": 69.0,
                  "Y": 70.0
                },
                "Name": "bt_exit",
                "ctype": "ButtonObjectData"
              },
              {
                "FontSize": 14,
                "ButtonText": "",
                "TextColor": {
                  "R": 65,
                  "G": 65,
                  "B": 70
                },
                "DisabledFileData": {
                  "Type": "PlistSubImage",
                  "Path": "bt_trustee_1.png",
                  "Plist": "gameScene.plist"
                },
                "PressedFileData": {
                  "Type": "PlistSubImage",
                  "Path": "bt_trustee_2.png",
                  "Plist": "gameScene.plist"
                },
                "NormalFileData": {
                  "Type": "PlistSubImage",
                  "Path": "bt_trustee_1.png",
                  "Plist": "gameScene.plist"
                },
                "Scale9Enable": true,
                "Scale9OriginX": 15,
                "Scale9OriginY": 11,
                "Scale9Width": 39,
                "Scale9Height": 48,
                "OutlineColor": {
                  "G": 0,
                  "B": 0
                },
                "ShadowColor": {
                  "R": 110,
                  "G": 110,
                  "B": 110
                },
                "ShadowOffsetX": 2.0,
                "ShadowOffsetY": -2.0,
                "TouchEnable": true,
                "AnchorPoint": {
                  "ScaleX": 0.5,
                  "ScaleY": 0.5
                },
                "Position": {
                  "X": 310.0027,
                  "Y": 42.0067
                },
                "Scale": {
                  "ScaleX": 1.0,
                  "ScaleY": 1.0
                },
                "CColor": {},
                "IconVisible": false,
                "PrePosition": {
                  "X": 0.5263,
                  "Y": 0.5186
                },
                "PreSize": {
                  "X": 0.1171,
                  "Y": 0.8642
                },
                "LeftMargin": 275.5027,
                "RightMargin": 244.4973,
                "TopMargin": 3.9933,
                "BottomMargin": 7.0067,
                "Tag": 44,
                "ActionTag": 73796068,
                "Size": {
                  "X": 69.0,
                  "Y": 70.0
                },
                "Name": "bt_trustee",
                "ctype": "ButtonObjectData"
              },
              {
                "FontSize": 48,
                "ButtonText": "",
                "TextColor": {
                  "B": 0
                },
                "DisabledFileData": {
                  "Type": "PlistSubImage",
                  "Path": "bt_howPlay_1.png",
                  "Plist": "gameScene.plist"
                },
                "PressedFileData": {
                  "Type": "PlistSubImage",
                  "Path": "bt_howPlay_2.png",
                  "Plist": "gameScene.plist"
                },
                "NormalFileData": {
                  "Type": "PlistSubImage",
                  "Path": "bt_howPlay_1.png",
                  "Plist": "gameScene.plist"
                },
                "Scale9Enable": true,
                "Scale9OriginX": 15,
                "Scale9OriginY": 11,
                "Scale9Width": 39,
                "Scale9Height": 47,
                "OutlineColor": {
                  "G": 0,
                  "B": 0
                },
                "ShadowColor": {
                  "R": 110,
                  "G": 110,
                  "B": 110
                },
                "ShadowOffsetX": 2.0,
                "ShadowOffsetY": -2.0,
                "TouchEnable": true,
                "AnchorPoint": {
                  "ScaleX": 0.5,
                  "ScaleY": 0.5
                },
                "Position": {
                  "X": 462.0257,
                  "Y": 42.0001
                },
                "Scale": {
                  "ScaleX": 1.0,
                  "ScaleY": 1.0
                },
                "CColor": {},
                "IconVisible": false,
                "PrePosition": {
                  "X": 0.7844,
                  "Y": 0.5185
                },
                "PreSize": {
                  "X": 0.1171,
                  "Y": 0.8642
                },
                "LeftMargin": 427.5257,
                "RightMargin": 92.4743,
                "TopMargin": 3.9999,
                "BottomMargin": 7.0001,
                "Tag": 45,
                "ActionTag": -1513293172,
                "Size": {
                  "X": 69.0,
                  "Y": 70.0
                },
                "Name": "bt_howPlay",
                "ctype": "ButtonObjectData"
              }
            ],
            "ActionTag": 153377357,
            "Size": {
              "X": 589.0,
              "Y": 81.0
            },
            "Name": "sp_tableBtBg",
            "ctype": "SpriteObjectData"
          },
          {
            "FontSize": 14,
            "ButtonText": "",
            "TextColor": {
              "R": 65,
              "G": 65,
              "B": 70
            },
            "DisabledFileData": {
              "Type": "PlistSubImage",
              "Path": "389_bt_switch_1.png",
              "Plist": "gameScene.plist"
            },
            "PressedFileData": {
              "Type": "PlistSubImage",
              "Path": "389_bt_switch_2.png",
              "Plist": "gameScene.plist"
            },
            "NormalFileData": {
              "Type": "PlistSubImage",
              "Path": "389_bt_switch_1.png",
              "Plist": "gameScene.plist"
            },
            "Scale9Enable": true,
            "Scale9OriginX": 15,
            "Scale9OriginY": 11,
            "Scale9Width": 39,
            "Scale9Height": 48,
            "OutlineColor": {
              "G": 0,
              "B": 0
            },
            "ShadowColor": {
              "R": 110,
              "G": 110,
              "B": 110
            },
            "ShadowOffsetX": 2.0,
            "ShadowOffsetY": -2.0,
            "TouchEnable": true,
            "AnchorPoint": {
              "ScaleX": 0.5,
              "ScaleY": 0.5
            },
            "Position": {
              "X": 1290.0,
              "Y": 706.1647
            },
            "Scale": {
              "ScaleX": 1.0,
              "ScaleY": 1.0
            },
            "CColor": {},
            "IconVisible": false,
            "PrePosition": {
              "X": 0.967,
              "Y": 0.9416
            },
            "PreSize": {
              "X": 0.0517,
              "Y": 0.0933
            },
            "LeftMargin": 1255.5,
            "RightMargin": 9.5,
            "TopMargin": 8.8353,
            "BottomMargin": 671.1647,
            "Tag": 2,
            "ActionTag": 2018638277,
            "Size": {
              "X": 69.0,
              "Y": 70.0
            },
            "Name": "bt_switch",
            "ctype": "ButtonObjectData"
          },
          {
            "FileData": {
              "Type": "PlistSubImage",
              "Path": "sp_huibg.png",
              "Plist": "gameScene.plist"
            },
            "BlendFunc": {
              "Src": 1,
              "Dst": 771
            },
            "AnchorPoint": {
              "ScaleX": 0.5,
              "ScaleY": 0.5
            },
            "Position": {
              "X": 88.06,
              "Y": 600.0
            },
            "Scale": {
              "ScaleX": 1.0,
              "ScaleY": 1.0
            },
            "CColor": {},
            "IconVisible": false,
            "PrePosition": {
              "X": 0.066,
              "Y": 0.8
            },
            "PreSize": {
              "X": 0.1087,
              "Y": 0.3093
            },
            "LeftMargin": 15.56,
            "RightMargin": 1173.4399,
            "TopMargin": 34.0,
            "BottomMargin": 484.0,
            "Tag": 295,
            "ActionTag": -457124023,
            "Size": {
              "X": 145.0,
              "Y": 232.0
            },
            "VisibleForFrame": false,
            "Name": "sp_huiBg",
            "ctype": "SpriteObjectData"
          },
          {
            "FontSize": 24,
            "LabelText": "1/4圈",
            "FontResource": {
              "Type": "Normal",
              "Path": "fonts/round_body.ttf",
              "Plist": ""
            },
            "OutlineColor": {
              "G": 0,
              "B": 0
            },
            "ShadowColor": {
              "R": 110,
              "G": 110,
              "B": 110
            },
            "ShadowOffsetX": 2.0,
            "ShadowOffsetY": -2.0,
            "AnchorPoint": {
              "ScaleY": 0.5
            },
            "Position": {
              "X": 753.7161,
              "Y": 392.8727
            },
            "Scale": {
              "ScaleX": 1.0,
              "ScaleY": 1.0
            },
            "CColor": {},
            "IconVisible": false,
            "PrePosition": {
              "X": 0.565,
              "Y": 0.5238
            },
            "PreSize": {
              "X": 0.0442,
              "Y": 0.0373
            },
            "LeftMargin": 753.7161,
            "RightMargin": 521.2839,
            "TopMargin": 343.1273,
            "BottomMargin": 378.8727,
            "Tag": 810,
            "ActionTag": -1027747865,
            "Size": {
              "X": 59.0,
              "Y": 28.0
            },
            "Name": "Text_ju_num",
            "ctype": "TextObjectData"
          },
          {
            "FileData": {
              "Type": "PlistSubImage",
              "Path": "sp_play_list.png",
              "Plist": "gameScene.plist"
            },
            "BlendFunc": {
              "Src": 1,
              "Dst": 771
            },
            "AnchorPoint": {
              "ScaleX": 0.5,
              "ScaleY": 0.5
            },
            "Position": {
              "X": 1156.2555,
              "Y": 593.1743
            },
            "Scale": {
              "ScaleX": 0.7327,
              "ScaleY": 0.8228
            },
            "CColor": {},
            "IconVisible": false,
            "PrePosition": {
              "X": 0.8668,
              "Y": 0.7909
            },
            "PreSize": {
              "X": 0.1964,
              "Y": 0.2213
            },
            "LeftMargin": 1025.2555,
            "RightMargin": 46.7445,
            "TopMargin": 73.8257,
            "BottomMargin": 510.1743,
            "Tag": 2000,
            "ActionTag": 108347359,
            "Size": {
              "X": 262.0,
              "Y": 166.0
            },
            "Name": "sp_play_list",
            "ctype": "SpriteObjectData"
          },
          {
            "FontSize": 36,
            "LabelText": "房间号：123456",
            "FontResource": {
              "Type": "Normal",
              "Path": "fonts/round_body.ttf",
              "Plist": ""
            },
            "OutlineColor": {
              "G": 0,
              "B": 0
            },
            "ShadowColor": {
              "R": 110,
              "G": 110,
              "B": 110
            },
            "ShadowOffsetX": 2.0,
            "ShadowOffsetY": -2.0,
            "AnchorPoint": {
              "ScaleY": 0.5
            },
            "Position": {
              "X": 16.7762,
              "Y": 727.7476
            },
            "Scale": {
              "ScaleX": 1.0,
              "ScaleY": 1.0
            },
            "CColor": {},
            "IconVisible": false,
            "PrePosition": {
              "X": 0.0126,
              "Y": 0.9703
            },
            "PreSize": {
              "X": 0.1979,
              "Y": 0.056
            },
            "LeftMargin": 16.7762,
            "RightMargin": 1053.2239,
            "TopMargin": 1.2524,
            "BottomMargin": 706.7476,
            "Tag": 899,
            "ActionTag": 591168600,
            "Size": {
              "X": 264.0,
              "Y": 42.0
            },
            "Name": "Text_RoomID",
            "ctype": "TextObjectData"
          },
          {
            "FontSize": 14,
            "ButtonText": "",
            "TextColor": {
              "R": 65,
              "G": 65,
              "B": 70
            },
            "DisabledFileData": {
              "Type": "PlistSubImage",
              "Path": "bt_start_1.png",
              "Plist": "gameScene.plist"
            },
            "PressedFileData": {
              "Type": "PlistSubImage",
              "Path": "bt_start_2.png",
              "Plist": "gameScene.plist"
            },
            "NormalFileData": {
              "Type": "PlistSubImage",
              "Path": "bt_start_1.png",
              "Plist": "gameScene.plist"
            },
            "Scale9Enable": true,
            "Scale9OriginX": 15,
            "Scale9OriginY": 11,
            "Scale9Width": 154,
            "Scale9Height": 40,
            "OutlineColor": {
              "G": 0,
              "B": 0
            },
            "ShadowColor": {
              "R": 110,
              "G": 110,
              "B": 110
            },
            "ShadowOffsetX": 2.0,
            "ShadowOffsetY": -2.0,
            "TouchEnable": true,
            "AnchorPoint": {
              "ScaleX": 0.5,
              "ScaleY": 0.5
            },
            "Position": {
              "X": 666.9999,
              "Y": 244.0021
            },
            "Scale": {
              "ScaleX": 1.0,
              "ScaleY": 1.0
            },
            "CColor": {},
            "IconVisible": false,
            "PrePosition": {
              "X": 0.5,
              "Y": 0.3253
            },
            "PreSize": {
              "X": 0.1087,
              "Y": 0.08
            },
            "LeftMargin": 594.4999,
            "RightMargin": 594.5001,
            "TopMargin": 475.9979,
            "BottomMargin": 214.0021,
            "Tag": 3,
            "ActionTag": 90896694,
            "Size": {
              "X": 145.0,
              "Y": 60.0
            },
            "Name": "bt_start",
            "ctype": "ButtonObjectData"
          },
          {
            "FontSize": 14,
            "ButtonText": "",
            "TextColor": {
              "R": 65,
              "G": 65,
              "B": 70
            },
            "DisabledFileData": {
              "Type": "PlistSubImage",
              "Path": "389_bt_set_1.png",
              "Plist": "gameScene.plist"
            },
            "PressedFileData": {
              "Type": "PlistSubImage",
              "Path": "389_bt_set_2.png",
              "Plist": "gameScene.plist"
            },
            "NormalFileData": {
              "Type": "PlistSubImage",
              "Path": "389_bt_set_1.png",
              "Plist": "gameScene.plist"
            },
            "Scale9Enable": true,
            "Scale9OriginX": 15,
            "Scale9OriginY": 11,
            "Scale9Width": 39,
            "Scale9Height": 48,
            "OutlineColor": {
              "G": 0,
              "B": 0
            },
            "ShadowColor": {
              "R": 110,
              "G": 110,
              "B": 110
            },
            "ShadowOffsetX": 2.0,
            "ShadowOffsetY": -2.0,
            "TouchEnable": true,
            "AnchorPoint": {
              "ScaleX": 0.5,
              "ScaleY": 0.5
            },
            "Position": {
              "X": 1248.3381,
              "Y": 707.2255
            },
            "Scale": {
              "ScaleX": 1.0,
              "ScaleY": 1.0
            },
            "CColor": {},
            "IconVisible": false,
            "PrePosition": {
              "X": 0.9358,
              "Y": 0.943
            },
            "PreSize": {
              "X": 0.0517,
              "Y": 0.0933
            },
            "LeftMargin": 1213.8381,
            "RightMargin": 51.1619,
            "TopMargin": 7.7745,
            "BottomMargin": 672.2255,
            "Tag": 362,
            "ActionTag": -998981609,
            "Size": {
              "X": 69.0,
              "Y": 70.0
            },
            "Name": "bt_set_new1",
            "ctype": "ButtonObjectData"
          },
          {
            "FontSize": 14,
            "ButtonText": "",
            "TextColor": {
              "R": 65,
              "G": 65,
              "B": 70
            },
            "DisabledFileData": {
              "Type": "PlistSubImage",
              "Path": "bt_chat_1.png",
              "Plist": "gameScene.plist"
            },
            "PressedFileData": {
              "Type": "PlistSubImage",
              "Path": "bt_chat_2.png",
              "Plist": "gameScene.plist"
            },
            "NormalFileData": {
              "Type": "PlistSubImage",
              "Path": "bt_chat_1.png",
              "Plist": "gameScene.plist"
            },
            "Scale9Enable": true,
            "Scale9OriginX": 15,
            "Scale9OriginY": 11,
            "Scale9Width": 39,
            "Scale9Height": 47,
            "OutlineColor": {
              "G": 0,
              "B": 0
            },
            "ShadowColor": {
              "R": 110,
              "G": 110,
              "B": 110
            },
            "ShadowOffsetX": 2.0,
            "ShadowOffsetY": -2.0,
            "TouchEnable": true,
            "AnchorPoint": {
              "ScaleX": 0.5,
              "ScaleY": 0.5
            },
            "Position": {
              "X": 1291.3099,
              "Y": 624.1755
            },
            "Scale": {
              "ScaleX": 1.0,
              "ScaleY": 1.0
            },
            "CColor": {},
            "IconVisible": false,
            "PrePosition": {
              "X": 0.968,
              "Y": 0.8322
            },
            "PreSize": {
              "X": 0.0517,
              "Y": 0.092
            },
            "LeftMargin": 1256.8099,
            "RightMargin": 8.1901,
            "TopMargin": 91.3245,
            "BottomMargin": 589.6755,
            "Tag": 363,
            "ActionTag": 1961683547,
            "Size": {
              "X": 69.0,
              "Y": 69.0
            },
            "Name": "bt_chat_new1",
            "ctype": "ButtonObjectData"
          },
          {
            "FileData": {
              "Type": "PlistSubImage",
              "Path": "sp_gameBtn_bg.png",
              "Plist": "gameScene.plist"
            },
            "BlendFunc": {
              "Src": 1,
              "Dst": 771
            },
            "AnchorPoint": {
              "ScaleX": 0.5,
              "ScaleY": 0.5
            },
            "Position": {
              "X": 942.7855,
              "Y": 207.3883
            },
            "Scale": {
              "ScaleX": 1.0,
              "ScaleY": 1.0
            },
            "CColor": {},
            "IconVisible": false,
            "PrePosition": {
              "X": 0.7067,
              "Y": 0.2765
            },
            "PreSize": {
              "X": 0.419,
              "Y": 0.164
            },
            "LeftMargin": 663.2855,
            "RightMargin": 111.7145,
            "TopMargin": 481.1117,
            "BottomMargin": 145.8883,
            "Tag": 6,
            "Children": [
              {
                "FontSize": 14,
                "ButtonText": "",
                "TextColor": {
                  "R": 65,
                  "G": 65,
                  "B": 70
                },
                "DisabledFileData": {
                  "Type": "PlistSubImage",
                  "Path": "bt_bump_3.png",
                  "Plist": "gameScene.plist"
                },
                "PressedFileData": {
                  "Type": "PlistSubImage",
                  "Path": "bt_bump_2.png",
                  "Plist": "gameScene.plist"
                },
                "NormalFileData": {
                  "Type": "PlistSubImage",
                  "Path": "bt_bump_1.png",
                  "Plist": "gameScene.plist"
                },
                "Scale9Enable": true,
                "Scale9OriginX": 15,
                "Scale9OriginY": 11,
                "Scale9Width": 85,
                "Scale9Height": 83,
                "OutlineColor": {
                  "G": 0,
                  "B": 0
                },
                "ShadowColor": {
                  "R": 110,
                  "G": 110,
                  "B": 110
                },
                "ShadowOffsetX": 2.0,
                "ShadowOffsetY": -2.0,
                "TouchEnable": true,
                "AnchorPoint": {
                  "ScaleX": 0.5,
                  "ScaleY": 0.5
                },
                "Position": {
                  "X": 53.9995,
                  "Y": 54.9999
                },
                "Scale": {
                  "ScaleX": 1.0,
                  "ScaleY": 1.0
                },
                "CColor": {},
                "IconVisible": false,
                "PrePosition": {
                  "X": 0.0966,
                  "Y": 0.4472
                },
                "PreSize": {
                  "X": 0.2057,
                  "Y": 0.8537
                },
                "LeftMargin": -3.5005,
                "RightMargin": 447.5005,
                "TopMargin": 15.5001,
                "BottomMargin": 2.4999,
                "Tag": 967,
                "ActionTag": 1674723339,
                "Size": {
                  "X": 115.0,
                  "Y": 105.0
                },
                "Name": "bt_bump",
                "ctype": "ButtonObjectData"
              },
              {
                "FontSize": 14,
                "ButtonText": "",
                "TextColor": {
                  "R": 65,
                  "G": 65,
                  "B": 70
                },
                "DisabledFileData": {
                  "Type": "PlistSubImage",
                  "Path": "bt_bridge_3.png",
                  "Plist": "gameScene.plist"
                },
                "PressedFileData": {
                  "Type": "PlistSubImage",
                  "Path": "bt_bridge_2.png",
                  "Plist": "gameScene.plist"
                },
                "NormalFileData": {
                  "Type": "PlistSubImage",
                  "Path": "bt_bridge_1.png",
                  "Plist": "gameScene.plist"
                },
                "Scale9Enable": true,
                "Scale9OriginX": 15,
                "Scale9OriginY": 11,
                "Scale9Width": 82,
                "Scale9Height": 82,
                "OutlineColor": {
                  "G": 0,
                  "B": 0
                },
                "ShadowColor": {
                  "R": 110,
                  "G": 110,
                  "B": 110
                },
                "ShadowOffsetX": 2.0,
                "ShadowOffsetY": -2.0,
                "TouchEnable": true,
                "AnchorPoint": {
                  "ScaleX": 0.5,
                  "ScaleY": 0.5
                },
                "Position": {
                  "X": 360.0,
                  "Y": 54.9999
                },
                "Scale": {
                  "ScaleX": 1.0,
                  "ScaleY": 1.0
                },
                "CColor": {},
                "IconVisible": false,
                "PrePosition": {
                  "X": 0.644,
                  "Y": 0.4472
                },
                "PreSize": {
                  "X": 0.2004,
                  "Y": 0.8455
                },
                "LeftMargin": 304.0,
                "RightMargin": 143.0,
                "TopMargin": 16.0001,
                "BottomMargin": 2.9999,
                "Tag": 968,
                "ActionTag": -164916539,
                "Size": {
                  "X": 112.0,
                  "Y": 104.0
                },
                "Name": "bt_brigde",
                "ctype": "ButtonObjectData"
              },
              {
                "FontSize": 14,
                "ButtonText": "",
                "TextColor": {
                  "R": 65,
                  "G": 65,
                  "B": 70
                },
                "DisabledFileData": {
                  "Type": "PlistSubImage",
                  "Path": "bt_win_3.png",
                  "Plist": "gameScene.plist"
                },
                "PressedFileData": {
                  "Type": "PlistSubImage",
                  "Path": "bt_win_2.png",
                  "Plist": "gameScene.plist"
                },
                "NormalFileData": {
                  "Type": "PlistSubImage",
                  "Path": "bt_win_1.png",
                  "Plist": "gameScene.plist"
                },
                "Scale9Enable": true,
                "Scale9OriginX": 15,
                "Scale9OriginY": 11,
                "Scale9Width": 119,
                "Scale9Height": 117,
                "OutlineColor": {
                  "G": 0,
                  "B": 0
                },
                "ShadowColor": {
                  "R": 110,
                  "G": 110,
                  "B": 110
                },
                "ShadowOffsetX": 2.0,
                "ShadowOffsetY": -2.0,
                "TouchEnable": true,
                "AnchorPoint": {
                  "ScaleX": 0.5,
                  "ScaleY": 0.5
                },
                "Position": {
                  "X": -100.0,
                  "Y": 55.0
                },
                "Scale": {
                  "ScaleX": 1.0,
                  "ScaleY": 1.0
                },
                "CColor": {},
                "IconVisible": false,
                "PrePosition": {
                  "X": -0.1789,
                  "Y": 0.4472
                },
                "PreSize": {
                  "X": 0.2665,
                  "Y": 1.1301
                },
                "LeftMargin": -174.5,
                "RightMargin": 584.5,
                "TopMargin": -1.5,
                "BottomMargin": -14.5,
                "Tag": 975,
                "ActionTag": 2110231608,
                "Size": {
                  "X": 149.0,
                  "Y": 139.0
                },
                "Name": "bt_win",
                "ctype": "ButtonObjectData"
              },
              {
                "FontSize": 14,
                "ButtonText": "",
                "TextColor": {
                  "R": 65,
                  "G": 65,
                  "B": 70
                },
                "DisabledFileData": {
                  "Type": "PlistSubImage",
                  "Path": "bt_pass_1.png",
                  "Plist": "gameScene.plist"
                },
                "PressedFileData": {
                  "Type": "PlistSubImage",
                  "Path": "bt_pass_2.png",
                  "Plist": "gameScene.plist"
                },
                "NormalFileData": {
                  "Type": "PlistSubImage",
                  "Path": "bt_pass_1.png",
                  "Plist": "gameScene.plist"
                },
                "Scale9Enable": true,
                "Scale9OriginX": 15,
                "Scale9OriginY": 11,
                "Scale9Width": 75,
                "Scale9Height": 81,
                "OutlineColor": {
                  "G": 0,
                  "B": 0
                },
                "ShadowColor": {
                  "R": 110,
                  "G": 110,
                  "B": 110
                },
                "ShadowOffsetX": 2.0,
                "ShadowOffsetY": -2.0,
                "TouchEnable": true,
                "AnchorPoint": {
                  "ScaleX": 0.5,
                  "ScaleY": 0.5
                },
                "Position": {
                  "X": 500.0,
                  "Y": 55.0
                },
                "Scale": {
                  "ScaleX": 1.0,
                  "ScaleY": 1.0
                },
                "CColor": {},
                "IconVisible": false,
                "PrePosition": {
                  "X": 0.8945,
                  "Y": 0.4472
                },
                "PreSize": {
                  "X": 0.2057,
                  "Y": 0.878
                },
                "LeftMargin": 442.5,
                "RightMargin": 1.5,
                "TopMargin": 14.0,
                "BottomMargin": 1.0,
                "Tag": 976,
                "ActionTag": -208333492,
                "Size": {
                  "X": 115.0,
                  "Y": 108.0
                },
                "Name": "bt_pass",
                "ctype": "ButtonObjectData"
              },
              {
                "FontSize": 14,
                "ButtonText": "",
                "TextColor": {
                  "R": 65,
                  "G": 65,
                  "B": 70
                },
                "DisabledFileData": {
                  "Type": "PlistSubImage",
                  "Path": "bt_eat_3.png",
                  "Plist": "gameScene.plist"
                },
                "PressedFileData": {
                  "Type": "PlistSubImage",
                  "Path": "bt_eat_2.png",
                  "Plist": "gameScene.plist"
                },
                "NormalFileData": {
                  "Type": "PlistSubImage",
                  "Path": "bt_eat_1.png",
                  "Plist": "gameScene.plist"
                },
                "Scale9Enable": true,
                "Scale9OriginX": 15,
                "Scale9OriginY": 11,
                "Scale9Width": 76,
                "Scale9Height": 81,
                "OutlineColor": {
                  "G": 0,
                  "B": 0
                },
                "ShadowColor": {
                  "R": 110,
                  "G": 110,
                  "B": 110
                },
                "ShadowOffsetX": 2.0,
                "ShadowOffsetY": -2.0,
                "TouchEnable": true,
                "AnchorPoint": {
                  "ScaleX": 0.5,
                  "ScaleY": 0.5
                },
                "Position": {
                  "X": 210.0,
                  "Y": 55.0
                },
                "Scale": {
                  "ScaleX": 1.0,
                  "ScaleY": 1.0
                },
                "CColor": {},
                "IconVisible": false,
                "PrePosition": {
                  "X": 0.3757,
                  "Y": 0.4472
                },
                "PreSize": {
                  "X": 0.1896,
                  "Y": 0.8374
                },
                "LeftMargin": 157.0,
                "RightMargin": 296.0,
                "TopMargin": 16.5,
                "BottomMargin": 3.5,
                "Tag": 962,
                "ActionTag": 1137186308,
                "Size": {
                  "X": 106.0,
                  "Y": 103.0
                },
                "Name": "bt_chi",
                "ctype": "ButtonObjectData"
              },
              {
                "FontSize": 14,
                "ButtonText": "",
                "TextColor": {
                  "R": 65,
                  "G": 65,
                  "B": 70
                },
                "DisabledFileData": {
                  "Type": "PlistSubImage",
                  "Path": "bt_bridge_3.png",
                  "Plist": "gameScene.plist"
                },
                "PressedFileData": {
                  "Type": "PlistSubImage",
                  "Path": "bt_bridge_1.png",
                  "Plist": "gameScene.plist"
                },
                "NormalFileData": {
                  "Type": "PlistSubImage",
                  "Path": "bt_bridge_2.png",
                  "Plist": "gameScene.plist"
                },
                "Scale9Enable": true,
                "Scale9OriginX": 15,
                "Scale9OriginY": 11,
                "Scale9Width": 82,
                "Scale9Height": 82,
                "OutlineColor": {
                  "G": 0,
                  "B": 0
                },
                "ShadowColor": {
                  "R": 110,
                  "G": 110,
                  "B": 110
                },
                "ShadowOffsetX": 2.0,
                "ShadowOffsetY": -2.0,
                "TouchEnable": true,
                "AnchorPoint": {
                  "ScaleX": 0.5,
                  "ScaleY": 0.5
                },
                "Position": {
                  "X": 360.0,
                  "Y": 55.0
                },
                "Scale": {
                  "ScaleX": 1.0,
                  "ScaleY": 1.0
                },
                "CColor": {},
                "IconVisible": false,
                "PrePosition": {
                  "X": 0.644,
                  "Y": 0.4472
                },
                "PreSize": {
                  "X": 0.2004,
                  "Y": 0.8455
                },
                "LeftMargin": 304.0,
                "RightMargin": 143.0,
                "TopMargin": 16.0,
                "BottomMargin": 3.0,
                "Tag": 969,
                "ActionTag": -1678987204,
                "Size": {
                  "X": 112.0,
                  "Y": 104.0
                },
                "Name": "bt_brigde_group",
                "ctype": "ButtonObjectData"
              },
              {
                "FontSize": 14,
                "ButtonText": "",
                "TextColor": {
                  "R": 65,
                  "G": 65,
                  "B": 70
                },
                "DisabledFileData": {
                  "Type": "PlistSubImage",
                  "Path": "bt_eat_3.png",
                  "Plist": "gameScene.plist"
                },
                "PressedFileData": {
                  "Type": "PlistSubImage",
                  "Path": "bt_eat_1.png",
                  "Plist": "gameScene.plist"
                },
                "NormalFileData": {
                  "Type": "PlistSubImage",
                  "Path": "bt_eat_2.png",
                  "Plist": "gameScene.plist"
                },
                "Scale9Enable": true,
                "Scale9OriginX": 15,
                "Scale9OriginY": 11,
                "Scale9Width": 76,
                "Scale9Height": 81,
                "OutlineColor": {
                  "G": 0,
                  "B": 0
                },
                "ShadowColor": {
                  "R": 110,
                  "G": 110,
                  "B": 110
                },
                "ShadowOffsetX": 2.0,
                "ShadowOffsetY": -2.0,
                "TouchEnable": true,
                "AnchorPoint": {
                  "ScaleX": 0.5,
                  "ScaleY": 0.5
                },
                "Position": {
                  "X": 210.0,
                  "Y": 55.0
                },
                "Scale": {
                  "ScaleX": 1.0,
                  "ScaleY": 1.0
                },
                "CColor": {},
                "IconVisible": false,
                "PrePosition": {
                  "X": 0.3757,
                  "Y": 0.4472
                },
                "PreSize": {
                  "X": 0.1896,
                  "Y": 0.8374
                },
                "LeftMargin": 157.0,
                "RightMargin": 296.0,
                "TopMargin": 16.5,
                "BottomMargin": 3.5,
                "Tag": 963,
                "ActionTag": 469744416,
                "Size": {
                  "X": 106.0,
                  "Y": 103.0
                },
                "Name": "bt_chi_group",
                "ctype": "ButtonObjectData"
              }
            ],
            "ActionTag": -1533313229,
            "Size": {
              "X": 559.0,
              "Y": 123.0
            },
            "Name": "sp_gameBtn_bg",
            "ctype": "SpriteObjectData"
          }
        ],
        "Size": {
          "X": 1334.0,
          "Y": 750.0
        },
        "Name": "Scene",
        "ctype": "SingleNodeObjectData"
      },
      "UsedResources": [
        "Default/Button_Disable.png",
        "Default/Button_Normal.png",
        "Default/Button_Press.png",
        "fonts/round_body.ttf",
        "gameScene.plist",
        "gameScene.png",
        "game/background_sparrowHz.png",
        "game/num_clock.png",
        "Player.json",
        "PlayerOther_1.json",
        "PlayerOther_2.json",
        "PlayerOwn.json"
      ],
      "ctype": "GameFileData"
    }
  },
  "Type": "Scene"
}