{
  "ID": "92ed1a20-a5fd-4a38-ac4a-9f864d254956",
  "Version": "2.3.4",
  "Name": "PlayerOwn",
  "Content": {
    "Content": {
      "Animation": {
        "Duration": 0,
        "Speed": 1.0,
        "Timelines": [],
        "ctype": "TimelineActionData"
      },
      "AnimationList": [],
      "ObjectData": {
        "Tag": 32,
        "Children": [
          {
            "FileData": {
              "Type": "PlistSubImage",
              "Path": "sp_headBgOwn.png",
              "Plist": "gameScene.plist"
            },
            "BlendFunc": {
              "Src": 1,
              "Dst": 771
            },
            "AnchorPoint": {
              "ScaleX": 0.5,
              "ScaleY": 0.5
            },
            "Position": {
              "X": 0.0,
              "Y": 0.0
            },
            "Scale": {
              "ScaleX": 1.2,
              "ScaleY": 1.2
            },
            "CColor": {},
            "IconVisible": false,
            "PrePosition": {
              "X": 0.0,
              "Y": 0.0
            },
            "PreSize": {
              "X": 0.0,
              "Y": 0.0
            },
            "LeftMargin": -41.0,
            "RightMargin": -41.0,
            "TopMargin": -41.0,
            "BottomMargin": -41.0,
            "Tag": 2,
            "ActionTag": 1066147988,
            "Size": {
              "X": 82.0,
              "Y": 82.0
            },
            "Name": "sp_headCover",
            "ctype": "SpriteObjectData"
          },
          {
            "FontSize": 17,
            "LabelText": "",
            "FontResource": {
              "Type": "Normal",
              "Path": "fonts/round_body.ttf",
              "Plist": ""
            },
            "HorizontalAlignmentType": "HT_Center",
            "VerticalAlignmentType": "VT_Center",
            "OutlineColor": {
              "G": 0,
              "B": 0
            },
            "ShadowColor": {
              "R": 110,
              "G": 110,
              "B": 110
            },
            "ShadowOffsetX": 2.0,
            "ShadowOffsetY": -2.0,
            "AnchorPoint": {
              "ScaleX": 0.5,
              "ScaleY": 0.5
            },
            "Position": {
              "X": 7.5404,
              "Y": -60.7534
            },
            "Scale": {
              "ScaleX": 1.0,
              "ScaleY": 1.0
            },
            "CColor": {},
            "IconVisible": false,
            "PrePosition": {
              "X": 0.0,
              "Y": 0.0
            },
            "PreSize": {
              "X": 0.0,
              "Y": 0.0
            },
            "LeftMargin": 73.0404,
            "RightMargin": -124.0404,
            "TopMargin": -32.7534,
            "BottomMargin": 12.7534,
            "Tag": 3,
            "ActionTag": -1714128219,
            "Size": {
              "X": 51.0,
              "Y": 20.0
            },
            "Name": "Text_nickname",
            "ctype": "TextObjectData"
          },
          {
            "FileData": {
              "Type": "PlistSubImage",
              "Path": "sp_scoreFlag.png",
              "Plist": "gameScene.plist"
            },
            "BlendFunc": {
              "Src": 1,
              "Dst": 771
            },
            "AnchorPoint": {
              "ScaleX": 0.5,
              "ScaleY": 0.5
            },
            "Position": {
              "X": 73.1809,
              "Y": -17.9993
            },
            "Scale": {
              "ScaleX": 1.0,
              "ScaleY": 1.0
            },
            "CColor": {},
            "IconVisible": false,
            "PrePosition": {
              "X": 0.0,
              "Y": 0.0
            },
            "PreSize": {
              "X": 0.0,
              "Y": 0.0
            },
            "LeftMargin": 45.1809,
            "RightMargin": -101.1809,
            "TopMargin": -0.0007,
            "BottomMargin": -35.9993,
            "Tag": 35,
            "ActionTag": -1061430479,
            "Size": {
              "X": 56.0,
              "Y": 36.0
            },
            "Name": "sp_scoreFlag",
            "ctype": "SpriteObjectData"
          },
          {
            "CharWidth": 12,
            "CharHeight": 14,
            "LabelText": ".3/456/789",
            "StartChar": ".",
            "LabelAtlasFileImage_CNB": {
              "Type": "Normal",
              "Path": "game/num_score.png",
              "Plist": ""
            },
            "AnchorPoint": {
              "ScaleY": 0.5
            },
            "Position": {
              "X": -50.4941,
              "Y": -90.4949
            },
            "Scale": {
              "ScaleX": 1.5,
              "ScaleY": 1.5
            },
            "CColor": {},
            "IconVisible": false,
            "PrePosition": {
              "X": 0.0,
              "Y": 0.0
            },
            "PreSize": {
              "X": 0.0,
              "Y": 0.0
            },
            "LeftMargin": 106.4941,
            "RightMargin": -226.4941,
            "TopMargin": 14.4949,
            "BottomMargin": -28.4949,
            "Tag": 4,
            "ActionTag": 514959088,
            "Size": {
              "X": 120.0,
              "Y": 14.0
            },
            "Name": "Aslab_score",
            "ctype": "TextAtlasObjectData"
          },
          {
            "FileData": {
              "Type": "PlistSubImage",
              "Path": "sp_ready.png",
              "Plist": "gameScene.plist"
            },
            "BlendFunc": {
              "Src": 1,
              "Dst": 771
            },
            "AnchorPoint": {
              "ScaleX": 0.4927,
              "ScaleY": 0.4511
            },
            "Position": {
              "X": 337.9462,
              "Y": -1.1874
            },
            "Scale": {
              "ScaleX": 1.0,
              "ScaleY": 1.0
            },
            "CColor": {},
            "IconVisible": false,
            "PrePosition": {
              "X": 0.0,
              "Y": 0.0
            },
            "PreSize": {
              "X": 0.0,
              "Y": 0.0
            },
            "LeftMargin": 265.0266,
            "RightMargin": -413.0266,
            "TopMargin": -41.0779,
            "BottomMargin": -35.9221,
            "Tag": 5,
            "ActionTag": -729668461,
            "Size": {
              "X": 148.0,
              "Y": 77.0
            },
            "Name": "sp_ready",
            "ctype": "SpriteObjectData"
          },
          {
            "FileData": {
              "Type": "PlistSubImage",
              "Path": "sp_trustee.png",
              "Plist": "gameScene.plist"
            },
            "BlendFunc": {
              "Src": 1,
              "Dst": 771
            },
            "AnchorPoint": {
              "ScaleX": 0.5,
              "ScaleY": 0.5
            },
            "Position": {
              "X": 210.7159,
              "Y": 22.0728
            },
            "Scale": {
              "ScaleX": 1.0,
              "ScaleY": 1.0
            },
            "CColor": {},
            "IconVisible": false,
            "PrePosition": {
              "X": 0.0,
              "Y": 0.0
            },
            "PreSize": {
              "X": 0.0,
              "Y": 0.0
            },
            "LeftMargin": 194.2159,
            "RightMargin": -227.2159,
            "TopMargin": -39.5728,
            "BottomMargin": 4.5728,
            "Tag": 6,
            "ActionTag": 1234088309,
            "Size": {
              "X": 33.0,
              "Y": 35.0
            },
            "Name": "sp_trustee",
            "ctype": "SpriteObjectData"
          },
          {
            "FileData": {
              "Type": "PlistSubImage",
              "Path": "sp_banker.png",
              "Plist": "gameScene.plist"
            },
            "BlendFunc": {
              "Src": 1,
              "Dst": 771
            },
            "AnchorPoint": {
              "ScaleX": 0.5,
              "ScaleY": 0.5
            },
            "Position": {
              "X": 28.9937,
              "Y": 29.6955
            },
            "Scale": {
              "ScaleX": 1.0,
              "ScaleY": 1.0
            },
            "CColor": {},
            "IconVisible": false,
            "PrePosition": {
              "X": 0.0,
              "Y": 0.0
            },
            "PreSize": {
              "X": 0.0,
              "Y": 0.0
            },
            "LeftMargin": 2.4937,
            "RightMargin": -55.4937,
            "TopMargin": -58.6955,
            "BottomMargin": 0.6955,
            "Tag": 7,
            "ActionTag": 2048453043,
            "Size": {
              "X": 53.0,
              "Y": 58.0
            },
            "Name": "sp_banker",
            "ctype": "SpriteObjectData"
          },
          {
            "FileData": {
              "Type": "PlistSubImage",
              "Path": "sp_roomHost.png",
              "Plist": "gameScene.plist"
            },
            "BlendFunc": {
              "Src": 1,
              "Dst": 771
            },
            "AnchorPoint": {
              "ScaleX": 0.5,
              "ScaleY": 0.5
            },
            "Position": {
              "X": -60.6546,
              "Y": -3.2371
            },
            "Scale": {
              "ScaleX": 1.0,
              "ScaleY": 1.0
            },
            "CColor": {},
            "IconVisible": false,
            "PrePosition": {
              "X": 0.0,
              "Y": 0.0
            },
            "PreSize": {
              "X": 0.0,
              "Y": 0.0
            },
            "LeftMargin": 230.6546,
            "RightMargin": -270.6546,
            "TopMargin": -34.7629,
            "BottomMargin": -41.2371,
            "Tag": 8,
            "ActionTag": -45623000,
            "Size": {
              "X": 40.0,
              "Y": 76.0
            },
            "Name": "sp_roomHost",
            "ctype": "SpriteObjectData"
          }
        ],
        "Size": {
          "X": 0.0,
          "Y": 0.0
        },
        "Name": "Layer",
        "ctype": "LayerObjectData"
      },
      "UsedResources": [
        "fonts/round_body.ttf",
        "gameScene.plist",
        "gameScene.png",
        "game/num_score.png"
      ],
      "ctype": "GameFileData"
    }
  },
  "Type": "Layer"
}