{
  "ID": "1ccb59f9-f3b4-46a4-96d9-f6db2eb04f2e",
  "Version": "2.3.4",
  "Name": "nodeUserData",
  "Content": {
    "Content": {
      "Animation": {
        "Duration": 0,
        "Speed": 1.0,
        "Timelines": [],
        "ctype": "TimelineActionData"
      },
      "AnimationList": [],
      "ObjectData": {
        "Tag": 71,
        "Children": [
          {
            "FontSize": 24,
            "LabelText": "测试账号",
            "FontResource": {
              "Type": "Normal",
              "Path": "../fonts/round_body.ttf",
              "Plist": ""
            },
            "OutlineColor": {
              "G": 0,
              "B": 0
            },
            "ShadowColor": {
              "R": 110,
              "G": 110,
              "B": 110
            },
            "ShadowOffsetX": 2.0,
            "ShadowOffsetY": -2.0,
            "AnchorPoint": {
              "ScaleY": 0.5
            },
            "Position": {
              "X": 6.0,
              "Y": 132.1771
            },
            "Scale": {
              "ScaleX": 1.0,
              "ScaleY": 1.0
            },
            "CColor": {},
            "IconVisible": false,
            "PrePosition": {
              "X": 0.0,
              "Y": 0.0
            },
            "PreSize": {
              "X": 0.0,
              "Y": 0.0
            },
            "LeftMargin": 6.0,
            "RightMargin": -105.0,
            "TopMargin": -146.1771,
            "BottomMargin": 118.1771,
            "Tag": 100,
            "ActionTag": -1674625780,
            "Size": {
              "X": 99.0,
              "Y": 28.0
            },
            "Name": "Text_account",
            "ctype": "TextObjectData"
          },
          {
            "FontSize": 24,
            "LabelText": "ID：263598",
            "FontResource": {
              "Type": "Normal",
              "Path": "../fonts/round_body.ttf",
              "Plist": ""
            },
            "OutlineColor": {
              "G": 0,
              "B": 0
            },
            "ShadowColor": {
              "R": 110,
              "G": 110,
              "B": 110
            },
            "ShadowOffsetX": 2.0,
            "ShadowOffsetY": -2.0,
            "AnchorPoint": {
              "ScaleY": 0.5
            },
            "Position": {
              "X": 6.0005,
              "Y": 62.9999
            },
            "Scale": {
              "ScaleX": 1.0,
              "ScaleY": 1.0
            },
            "CColor": {},
            "IconVisible": false,
            "PrePosition": {
              "X": 0.0,
              "Y": 0.0
            },
            "PreSize": {
              "X": 0.0,
              "Y": 0.0
            },
            "LeftMargin": 6.0005,
            "RightMargin": -138.0005,
            "TopMargin": -76.9999,
            "BottomMargin": 48.9999,
            "Tag": 101,
            "ActionTag": 598437441,
            "Size": {
              "X": 132.0,
              "Y": 28.0
            },
            "Name": "Text_id",
            "ctype": "TextObjectData"
          },
          {
            "FileData": {
              "Type": "Default",
              "Path": "../Default/Sprite.png",
              "Plist": ""
            },
            "BlendFunc": {
              "Src": 1,
              "Dst": 771
            },
            "AnchorPoint": {
              "ScaleX": 0.5,
              "ScaleY": 0.5
            },
            "Position": {
              "X": -77.9993,
              "Y": 100.0002
            },
            "Scale": {
              "ScaleX": 1.0,
              "ScaleY": 1.0
            },
            "CColor": {},
            "IconVisible": false,
            "PrePosition": {
              "X": 0.0,
              "Y": 0.0
            },
            "PreSize": {
              "X": 0.0,
              "Y": 0.0
            },
            "LeftMargin": -100.9993,
            "RightMargin": 54.9993,
            "TopMargin": -123.0002,
            "BottomMargin": 77.0002,
            "Tag": 9,
            "ActionTag": -1988638433,
            "Size": {
              "X": 46.0,
              "Y": 46.0
            },
            "Name": "sp_headTag",
            "ctype": "SpriteObjectData"
          },
          {
            "FileData": {
              "Type": "PlistSubImage",
              "Path": "sp_huitimes.png",
              "Plist": "privateRoom/privateRoom.plist"
            },
            "BlendFunc": {
              "Src": 1,
              "Dst": 771
            },
            "AnchorPoint": {
              "ScaleX": 0.5,
              "ScaleY": 0.5
            },
            "Position": {
              "X": -72.0,
              "Y": 18.0
            },
            "Scale": {
              "ScaleX": 1.0,
              "ScaleY": 1.0
            },
            "CColor": {},
            "IconVisible": false,
            "PrePosition": {
              "X": 0.0,
              "Y": 0.0
            },
            "PreSize": {
              "X": 0.0,
              "Y": 0.0
            },
            "LeftMargin": -129.5,
            "RightMargin": 14.5,
            "TopMargin": -30.5,
            "BottomMargin": 5.5,
            "Tag": 90,
            "ActionTag": 72177488,
            "Size": {
              "X": 115.0,
              "Y": 25.0
            },
            "Name": "sp_huiTimes",
            "ctype": "SpriteObjectData"
          },
          {
            "FontSize": 24,
            "LabelText": "0",
            "FontResource": {
              "Type": "Normal",
              "Path": "../fonts/round_body.ttf",
              "Plist": ""
            },
            "OutlineColor": {
              "G": 0,
              "B": 0
            },
            "ShadowColor": {
              "R": 110,
              "G": 110,
              "B": 110
            },
            "ShadowOffsetX": 2.0,
            "ShadowOffsetY": -2.0,
            "AnchorPoint": {
              "ScaleX": 0.5,
              "ScaleY": 0.5
            },
            "Position": {
              "X": 43.0,
              "Y": 18.0
            },
            "Scale": {
              "ScaleX": 1.0,
              "ScaleY": 1.0
            },
            "CColor": {},
            "IconVisible": false,
            "PrePosition": {
              "X": 0.0,
              "Y": 0.0
            },
            "PreSize": {
              "X": 0.0,
              "Y": 0.0
            },
            "LeftMargin": 34.5,
            "RightMargin": -51.5,
            "TopMargin": -32.0,
            "BottomMargin": 4.0,
            "Tag": 102,
            "ActionTag": -1236258662,
            "Size": {
              "X": 17.0,
              "Y": 28.0
            },
            "Name": "Text_huNum",
            "ctype": "TextObjectData"
          },
          {
            "FileData": {
              "Type": "PlistSubImage",
              "Path": "sp_dianpao.png",
              "Plist": "privateRoom/privateRoom.plist"
            },
            "BlendFunc": {
              "Src": 1,
              "Dst": 771
            },
            "AnchorPoint": {
              "ScaleX": 0.5,
              "ScaleY": 0.5
            },
            "Position": {
              "X": -72.0,
              "Y": -34.0
            },
            "Scale": {
              "ScaleX": 1.0,
              "ScaleY": 1.0
            },
            "CColor": {},
            "IconVisible": false,
            "PrePosition": {
              "X": 0.0,
              "Y": 0.0
            },
            "PreSize": {
              "X": 0.0,
              "Y": 0.0
            },
            "LeftMargin": -129.0,
            "RightMargin": 15.0,
            "TopMargin": 21.5,
            "BottomMargin": -46.5,
            "Tag": 91,
            "ActionTag": -1579201315,
            "Size": {
              "X": 114.0,
              "Y": 25.0
            },
            "Name": "sp_dianpaoTimes",
            "ctype": "SpriteObjectData"
          },
          {
            "FontSize": 24,
            "LabelText": "0",
            "FontResource": {
              "Type": "Normal",
              "Path": "../fonts/round_body.ttf",
              "Plist": ""
            },
            "OutlineColor": {
              "G": 0,
              "B": 0
            },
            "ShadowColor": {
              "R": 110,
              "G": 110,
              "B": 110
            },
            "ShadowOffsetX": 2.0,
            "ShadowOffsetY": -2.0,
            "AnchorPoint": {
              "ScaleX": 0.5,
              "ScaleY": 0.5
            },
            "Position": {
              "X": 42.0,
              "Y": -34.0
            },
            "Scale": {
              "ScaleX": 1.0,
              "ScaleY": 1.0
            },
            "CColor": {},
            "IconVisible": false,
            "PrePosition": {
              "X": 0.0,
              "Y": 0.0
            },
            "PreSize": {
              "X": 0.0,
              "Y": 0.0
            },
            "LeftMargin": 33.5,
            "RightMargin": -50.5,
            "TopMargin": 20.0,
            "BottomMargin": -48.0,
            "Tag": 103,
            "ActionTag": 2025300024,
            "Size": {
              "X": 17.0,
              "Y": 28.0
            },
            "Name": "Text_diaopaoNum",
            "ctype": "TextObjectData"
          },
          {
            "FileData": {
              "Type": "PlistSubImage",
              "Path": "sp_zimo.png",
              "Plist": "privateRoom/privateRoom.plist"
            },
            "BlendFunc": {
              "Src": 1,
              "Dst": 771
            },
            "AnchorPoint": {
              "ScaleX": 0.5,
              "ScaleY": 0.5
            },
            "Position": {
              "X": -72.0,
              "Y": -88.0
            },
            "Scale": {
              "ScaleX": 1.0,
              "ScaleY": 1.0
            },
            "CColor": {},
            "IconVisible": false,
            "PrePosition": {
              "X": 0.0,
              "Y": 0.0
            },
            "PreSize": {
              "X": 0.0,
              "Y": 0.0
            },
            "LeftMargin": -128.0,
            "RightMargin": 16.0,
            "TopMargin": 75.5,
            "BottomMargin": -100.5,
            "Tag": 92,
            "ActionTag": 561524783,
            "Size": {
              "X": 112.0,
              "Y": 25.0
            },
            "Name": "sp_zimoTimes",
            "ctype": "SpriteObjectData"
          },
          {
            "FontSize": 24,
            "LabelText": "0",
            "FontResource": {
              "Type": "Normal",
              "Path": "../fonts/round_body.ttf",
              "Plist": ""
            },
            "OutlineColor": {
              "G": 0,
              "B": 0
            },
            "ShadowColor": {
              "R": 110,
              "G": 110,
              "B": 110
            },
            "ShadowOffsetX": 2.0,
            "ShadowOffsetY": -2.0,
            "AnchorPoint": {
              "ScaleX": 0.5,
              "ScaleY": 0.5
            },
            "Position": {
              "X": 42.0,
              "Y": -88.0
            },
            "Scale": {
              "ScaleX": 1.0,
              "ScaleY": 1.0
            },
            "CColor": {},
            "IconVisible": false,
            "PrePosition": {
              "X": 0.0,
              "Y": 0.0
            },
            "PreSize": {
              "X": 0.0,
              "Y": 0.0
            },
            "LeftMargin": 33.5,
            "RightMargin": -50.5,
            "TopMargin": 74.0,
            "BottomMargin": -102.0,
            "Tag": 104,
            "ActionTag": 404264790,
            "Size": {
              "X": 17.0,
              "Y": 28.0
            },
            "Name": "Text_zimoNum",
            "ctype": "TextObjectData"
          },
          {
            "FileData": {
              "Type": "PlistSubImage",
              "Path": "sp_anGang.png",
              "Plist": "privateRoom/privateRoom.plist"
            },
            "BlendFunc": {
              "Src": 1,
              "Dst": 771
            },
            "AnchorPoint": {
              "ScaleX": 0.5,
              "ScaleY": 0.5
            },
            "Position": {
              "X": -72.0,
              "Y": -137.9999
            },
            "Scale": {
              "ScaleX": 1.0,
              "ScaleY": 1.0
            },
            "CColor": {},
            "IconVisible": false,
            "PrePosition": {
              "X": 0.0,
              "Y": 0.0
            },
            "PreSize": {
              "X": 0.0,
              "Y": 0.0
            },
            "LeftMargin": -128.5,
            "RightMargin": 15.5,
            "TopMargin": 125.4999,
            "BottomMargin": -150.4999,
            "Tag": 93,
            "ActionTag": 1182969239,
            "Size": {
              "X": 113.0,
              "Y": 25.0
            },
            "VisibleForFrame": false,
            "Name": "sp_angangTimes",
            "ctype": "SpriteObjectData"
          },
          {
            "FontSize": 24,
            "LabelText": "0",
            "FontResource": {
              "Type": "Normal",
              "Path": "../fonts/round_body.ttf",
              "Plist": ""
            },
            "OutlineColor": {
              "G": 0,
              "B": 0
            },
            "ShadowColor": {
              "R": 110,
              "G": 110,
              "B": 110
            },
            "ShadowOffsetX": 2.0,
            "ShadowOffsetY": -2.0,
            "AnchorPoint": {
              "ScaleX": 0.5,
              "ScaleY": 0.5
            },
            "Position": {
              "X": 43.0018,
              "Y": -138.0
            },
            "Scale": {
              "ScaleX": 1.0,
              "ScaleY": 1.0
            },
            "CColor": {},
            "IconVisible": false,
            "PrePosition": {
              "X": 0.0,
              "Y": 0.0
            },
            "PreSize": {
              "X": 0.0,
              "Y": 0.0
            },
            "LeftMargin": 34.5018,
            "RightMargin": -51.5018,
            "TopMargin": 124.0,
            "BottomMargin": -152.0,
            "Tag": 105,
            "ActionTag": -1032092274,
            "Size": {
              "X": 17.0,
              "Y": 28.0
            },
            "VisibleForFrame": false,
            "Name": "Text_anGangNum",
            "ctype": "TextObjectData"
          },
          {
            "FileData": {
              "Type": "PlistSubImage",
              "Path": "sp_mingGang.png",
              "Plist": "privateRoom/privateRoom.plist"
            },
            "BlendFunc": {
              "Src": 1,
              "Dst": 771
            },
            "AnchorPoint": {
              "ScaleX": 0.5,
              "ScaleY": 0.5
            },
            "Position": {
              "X": -72.0,
              "Y": -192.0
            },
            "Scale": {
              "ScaleX": 1.0,
              "ScaleY": 1.0
            },
            "CColor": {},
            "IconVisible": false,
            "PrePosition": {
              "X": 0.0,
              "Y": 0.0
            },
            "PreSize": {
              "X": 0.0,
              "Y": 0.0
            },
            "LeftMargin": -128.5,
            "RightMargin": 15.5,
            "TopMargin": 179.5,
            "BottomMargin": -204.5,
            "Tag": 94,
            "ActionTag": 482098413,
            "Size": {
              "X": 113.0,
              "Y": 25.0
            },
            "VisibleForFrame": false,
            "Name": "sp_minggangTimes",
            "ctype": "SpriteObjectData"
          },
          {
            "FontSize": 24,
            "LabelText": "2",
            "FontResource": {
              "Type": "Normal",
              "Path": "../fonts/round_body.ttf",
              "Plist": ""
            },
            "OutlineColor": {
              "G": 0,
              "B": 0
            },
            "ShadowColor": {
              "R": 110,
              "G": 110,
              "B": 110
            },
            "ShadowOffsetX": 2.0,
            "ShadowOffsetY": -2.0,
            "AnchorPoint": {
              "ScaleX": 0.5,
              "ScaleY": 0.5
            },
            "Position": {
              "X": 43.0016,
              "Y": -192.0
            },
            "Scale": {
              "ScaleX": 1.0,
              "ScaleY": 1.0
            },
            "CColor": {},
            "IconVisible": false,
            "PrePosition": {
              "X": 0.0,
              "Y": 0.0
            },
            "PreSize": {
              "X": 0.0,
              "Y": 0.0
            },
            "LeftMargin": 35.0016,
            "RightMargin": -51.0016,
            "TopMargin": 178.0,
            "BottomMargin": -206.0,
            "Tag": 106,
            "ActionTag": -840589994,
            "Size": {
              "X": 16.0,
              "Y": 28.0
            },
            "VisibleForFrame": false,
            "Name": "Text_gongGangNum",
            "ctype": "TextObjectData"
          },
          {
            "FileData": {
              "Type": "PlistSubImage",
              "Path": "sp_zhuangtimes.png",
              "Plist": "privateRoom/privateRoom.plist"
            },
            "BlendFunc": {
              "Src": 1,
              "Dst": 771
            },
            "AnchorPoint": {
              "ScaleX": 0.5,
              "ScaleY": 0.5
            },
            "Position": {
              "X": -71.0,
              "Y": -143.5185
            },
            "Scale": {
              "ScaleX": 1.0,
              "ScaleY": 1.0
            },
            "CColor": {},
            "IconVisible": false,
            "PrePosition": {
              "X": 0.0,
              "Y": 0.0
            },
            "PreSize": {
              "X": 0.0,
              "Y": 0.0
            },
            "LeftMargin": -128.0,
            "RightMargin": 14.0,
            "TopMargin": 131.0185,
            "BottomMargin": -156.0185,
            "Tag": 95,
            "ActionTag": -1908401049,
            "Size": {
              "X": 114.0,
              "Y": 25.0
            },
            "Name": "sp_zhuangTimes",
            "ctype": "SpriteObjectData"
          },
          {
            "FontSize": 24,
            "LabelText": "2",
            "FontResource": {
              "Type": "Normal",
              "Path": "../fonts/round_body.ttf",
              "Plist": ""
            },
            "OutlineColor": {
              "G": 0,
              "B": 0
            },
            "ShadowColor": {
              "R": 110,
              "G": 110,
              "B": 110
            },
            "ShadowOffsetX": 2.0,
            "ShadowOffsetY": -2.0,
            "AnchorPoint": {
              "ScaleX": 0.5,
              "ScaleY": 0.5
            },
            "Position": {
              "X": 41.5001,
              "Y": -143.5187
            },
            "Scale": {
              "ScaleX": 1.0,
              "ScaleY": 1.0
            },
            "CColor": {},
            "IconVisible": false,
            "PrePosition": {
              "X": 0.0,
              "Y": 0.0
            },
            "PreSize": {
              "X": 0.0,
              "Y": 0.0
            },
            "LeftMargin": 33.5001,
            "RightMargin": -49.5001,
            "TopMargin": 129.5187,
            "BottomMargin": -157.5187,
            "Tag": 107,
            "ActionTag": 1565791330,
            "Size": {
              "X": 16.0,
              "Y": 28.0
            },
            "Name": "Text_zhuNum",
            "ctype": "TextObjectData"
          },
          {
            "FileData": {
              "Type": "PlistSubImage",
              "Path": "sp_zhanji.png",
              "Plist": "privateRoom/privateRoom.plist"
            },
            "BlendFunc": {
              "Src": 1,
              "Dst": 771
            },
            "AnchorPoint": {
              "ScaleX": 0.5,
              "ScaleY": 0.5
            },
            "Position": {
              "X": -64.5001,
              "Y": -268.9838
            },
            "Scale": {
              "ScaleX": 1.0,
              "ScaleY": 1.0
            },
            "CColor": {},
            "IconVisible": false,
            "PrePosition": {
              "X": 0.0,
              "Y": 0.0
            },
            "PreSize": {
              "X": 0.0,
              "Y": 0.0
            },
            "LeftMargin": -128.0001,
            "RightMargin": 1.0001,
            "TopMargin": 244.4838,
            "BottomMargin": -293.4838,
            "Tag": 96,
            "ActionTag": -496137565,
            "Size": {
              "X": 127.0,
              "Y": 49.0
            },
            "Name": "sp_zhanji",
            "ctype": "SpriteObjectData"
          },
          {
            "FontSize": 48,
            "LabelText": "+1002",
            "FontResource": {
              "Type": "Normal",
              "Path": "../fonts/round_body.ttf",
              "Plist": ""
            },
            "OutlineColor": {
              "G": 0,
              "B": 0
            },
            "ShadowColor": {
              "R": 110,
              "G": 110,
              "B": 110
            },
            "ShadowOffsetX": 2.0,
            "ShadowOffsetY": -2.0,
            "AnchorPoint": {
              "ScaleX": 0.5,
              "ScaleY": 0.5
            },
            "Position": {
              "X": 95.5588,
              "Y": -267.5578
            },
            "Scale": {
              "ScaleX": 1.0,
              "ScaleY": 1.0
            },
            "CColor": {},
            "IconVisible": false,
            "PrePosition": {
              "X": 0.0,
              "Y": 0.0
            },
            "PreSize": {
              "X": 0.0,
              "Y": 0.0
            },
            "LeftMargin": 30.5588,
            "RightMargin": -160.5588,
            "TopMargin": 239.5578,
            "BottomMargin": -295.5578,
            "Tag": 108,
            "ActionTag": -251055276,
            "Size": {
              "X": 130.0,
              "Y": 56.0
            },
            "Name": "Text_gradeTotalNum",
            "ctype": "TextObjectData"
          },
          {
            "FileData": {
              "Type": "PlistSubImage",
              "Path": "sp_bigWinner.png",
              "Plist": "privateRoom/privateRoom.plist"
            },
            "BlendFunc": {
              "Src": 1,
              "Dst": 771
            },
            "AnchorPoint": {
              "ScaleX": 0.5,
              "ScaleY": 0.5
            },
            "Position": {
              "X": 6.72,
              "Y": -373.4615
            },
            "Scale": {
              "ScaleX": 1.0,
              "ScaleY": 1.0
            },
            "CColor": {},
            "IconVisible": false,
            "PrePosition": {
              "X": 0.0,
              "Y": 0.0
            },
            "PreSize": {
              "X": 0.0,
              "Y": 0.0
            },
            "LeftMargin": -89.28,
            "RightMargin": -102.72,
            "TopMargin": 319.4615,
            "BottomMargin": -427.4615,
            "Tag": 12,
            "ActionTag": -1061795470,
            "Size": {
              "X": 192.0,
              "Y": 108.0
            },
            "VisibleForFrame": false,
            "Name": "sp_bigWinner",
            "ctype": "SpriteObjectData"
          },
          {
            "FileData": {
              "Type": "PlistSubImage",
              "Path": "sp_best.png",
              "Plist": "privateRoom/privateRoom.plist"
            },
            "BlendFunc": {
              "Src": 1,
              "Dst": 771
            },
            "AnchorPoint": {
              "ScaleX": 0.5,
              "ScaleY": 0.5
            },
            "Position": {
              "X": 120.0,
              "Y": 135.0
            },
            "Scale": {
              "ScaleX": 1.0,
              "ScaleY": 1.0
            },
            "CColor": {},
            "IconVisible": false,
            "PrePosition": {
              "X": 0.0,
              "Y": 0.0
            },
            "PreSize": {
              "X": 0.0,
              "Y": 0.0
            },
            "LeftMargin": 60.5,
            "RightMargin": -179.5,
            "TopMargin": -196.5,
            "BottomMargin": 73.5,
            "Tag": 13,
            "ActionTag": 1118326654,
            "Size": {
              "X": 119.0,
              "Y": 123.0
            },
            "VisibleForFrame": false,
            "Name": "sp_best",
            "ctype": "SpriteObjectData"
          },
          {
            "FileData": {
              "Type": "PlistSubImage",
              "Path": "sp_head.png",
              "Plist": "privateRoom/privateRoom.plist"
            },
            "BlendFunc": {
              "Src": 1,
              "Dst": 771
            },
            "AnchorPoint": {
              "ScaleX": 0.5,
              "ScaleY": 0.5
            },
            "Position": {
              "X": -78.0,
              "Y": 100.0
            },
            "Scale": {
              "ScaleX": 1.0,
              "ScaleY": 1.0
            },
            "CColor": {},
            "IconVisible": false,
            "PrePosition": {
              "X": 0.0,
              "Y": 0.0
            },
            "PreSize": {
              "X": 0.0,
              "Y": 0.0
            },
            "LeftMargin": -134.5,
            "RightMargin": 21.5,
            "TopMargin": -156.5,
            "BottomMargin": 43.5,
            "Tag": 10,
            "ActionTag": 1279680131,
            "Size": {
              "X": 113.0,
              "Y": 113.0
            },
            "Name": "sp_head",
            "ctype": "SpriteObjectData"
          },
          {
            "FileData": {
              "Type": "PlistSubImage",
              "Path": "sp_roomHost_1.png",
              "Plist": "privateRoom/privateRoom.plist"
            },
            "BlendFunc": {
              "Src": 1,
              "Dst": 771
            },
            "AnchorPoint": {
              "ScaleX": 0.5,
              "ScaleY": 0.5
            },
            "Position": {
              "X": -117.2357,
              "Y": 117.9513
            },
            "Scale": {
              "ScaleX": 1.0,
              "ScaleY": 1.0
            },
            "CColor": {},
            "IconVisible": false,
            "PrePosition": {
              "X": 0.0,
              "Y": 0.0
            },
            "PreSize": {
              "X": 0.0,
              "Y": 0.0
            },
            "LeftMargin": -140.7357,
            "RightMargin": 93.7357,
            "TopMargin": -133.4513,
            "BottomMargin": 102.4513,
            "Tag": 11,
            "ActionTag": 512729120,
            "Size": {
              "X": 47.0,
              "Y": 31.0
            },
            "VisibleForFrame": false,
            "Name": "sp_roomHost",
            "ctype": "SpriteObjectData"
          },
          {
            "FontSize": 21,
            "LabelText": "100",
            "FontResource": {
              "Type": "Normal",
              "Path": "../fonts/round_body.ttf",
              "Plist": ""
            },
            "OutlineColor": {
              "G": 0,
              "B": 0
            },
            "ShadowColor": {
              "R": 110,
              "G": 110,
              "B": 110
            },
            "ShadowOffsetX": 2.0,
            "ShadowOffsetY": -2.0,
            "AnchorPoint": {
              "ScaleX": 0.5488,
              "ScaleY": 0.4972
            },
            "Position": {
              "X": -256.4092,
              "Y": 127.5517
            },
            "Scale": {
              "ScaleX": 1.0,
              "ScaleY": 1.0
            },
            "CColor": {},
            "IconVisible": false,
            "PrePosition": {
              "X": 0.0,
              "Y": 0.0
            },
            "PreSize": {
              "X": 0.0,
              "Y": 0.0
            },
            "LeftMargin": -275.6172,
            "RightMargin": 240.6172,
            "TopMargin": -140.1217,
            "BottomMargin": 115.1217,
            "ActionTag": -1087103918,
            "Size": {
              "X": 35.0,
              "Y": 25.0
            },
            "VisibleForFrame": false,
            "Name": "Text_maNum",
            "ctype": "TextObjectData"
          },
          {
            "FileData": {
              "Type": "Normal",
              "Path": "privateRoom/gangfen.png",
              "Plist": ""
            },
            "BlendFunc": {
              "Src": 1,
              "Dst": 771
            },
            "AnchorPoint": {
              "ScaleX": 0.5,
              "ScaleY": 0.5
            },
            "Position": {
              "X": -95.5001,
              "Y": -198.6608
            },
            "Scale": {
              "ScaleX": 1.0,
              "ScaleY": 1.0
            },
            "CColor": {},
            "IconVisible": false,
            "PrePosition": {
              "X": 0.0,
              "Y": 0.0
            },
            "PreSize": {
              "X": 0.0,
              "Y": 0.0
            },
            "LeftMargin": -128.0001,
            "RightMargin": 63.0001,
            "TopMargin": 186.1608,
            "BottomMargin": -211.1608,
            "Tag": 181,
            "ActionTag": 716616964,
            "Size": {
              "X": 65.0,
              "Y": 25.0
            },
            "Name": "sp_gangfen",
            "ctype": "SpriteObjectData"
          },
          {
            "FontSize": 24,
            "LabelText": "-2",
            "FontResource": {
              "Type": "Normal",
              "Path": "../fonts/round_body.ttf",
              "Plist": ""
            },
            "OutlineColor": {
              "G": 0,
              "B": 0
            },
            "ShadowColor": {
              "R": 110,
              "G": 110,
              "B": 110
            },
            "ShadowOffsetX": 2.0,
            "ShadowOffsetY": -2.0,
            "AnchorPoint": {
              "ScaleX": 0.5,
              "ScaleY": 0.5
            },
            "Position": {
              "X": 39.0588,
              "Y": -200.1609
            },
            "Scale": {
              "ScaleX": 1.0,
              "ScaleY": 1.0
            },
            "CColor": {},
            "IconVisible": false,
            "PrePosition": {
              "X": 0.0,
              "Y": 0.0
            },
            "PreSize": {
              "X": 0.0,
              "Y": 0.0
            },
            "LeftMargin": 24.0588,
            "RightMargin": -54.0588,
            "TopMargin": 186.1609,
            "BottomMargin": -214.1609,
            "Tag": 183,
            "ActionTag": -1603431231,
            "Size": {
              "X": 30.0,
              "Y": 28.0
            },
            "Name": "Text_43",
            "ctype": "TextObjectData"
          }
        ],
        "Size": {
          "X": 0.0,
          "Y": 0.0
        },
        "Name": "Node",
        "ctype": "SingleNodeObjectData"
      },
      "UsedResources": [
        "../Default/Sprite.png",
        "../fonts/round_body.ttf",
        "privateRoom/gangfen.png",
        "privateRoom/privateRoom.plist",
        "privateRoom/privateRoom.png"
      ],
      "ctype": "GameFileData"
    }
  },
  "Type": "Node"
}