{
  "ID": "283709be-02a2-4d04-bd17-d2f2c4d92047",
  "Version": "2.3.4",
  "Name": "RoomResultLayer",
  "Content": {
    "Content": {
      "Animation": {
        "Duration": 0,
        "Speed": 1.0,
        "Timelines": [],
        "ctype": "TimelineActionData"
      },
      "AnimationList": [],
      "ObjectData": {
        "Tag": 65,
        "Children": [
          {
            "FileData": {
              "Type": "PlistSubImage",
              "Path": "sp_roomResult_bg1.png",
              "Plist": "privateRoom/privateRoom.plist"
            },
            "BlendFunc": {
              "Src": 1,
              "Dst": 771
            },
            "AnchorPoint": {
              "ScaleX": 0.5,
              "ScaleY": 0.5
            },
            "Position": {
              "X": 667.0001,
              "Y": 376.2932
            },
            "Scale": {
              "ScaleX": 1.0,
              "ScaleY": 1.0
            },
            "CColor": {},
            "IconVisible": false,
            "PrePosition": {
              "X": 0.5,
              "Y": 0.5017
            },
            "PreSize": {
              "X": 1.0,
              "Y": 1.0
            },
            "LeftMargin": 0.0001,
            "RightMargin": -0.0001,
            "TopMargin": -1.2932,
            "BottomMargin": 1.2932,
            "Tag": 66,
            "ActionTag": -1930470121,
            "Size": {
              "X": 1334.0,
              "Y": 750.0
            },
            "Name": "sp_roomResult_bg",
            "ctype": "SpriteObjectData"
          },
          {
            "FontSize": 14,
            "ButtonText": "",
            "TextColor": {
              "R": 65,
              "G": 65,
              "B": 70
            },
            "DisabledFileData": {
              "Type": "PlistSubImage",
              "Path": "bt_leaveRoom_1.png",
              "Plist": "privateRoom/privateRoom.plist"
            },
            "PressedFileData": {
              "Type": "PlistSubImage",
              "Path": "bt_leaveRoom_2.png",
              "Plist": "privateRoom/privateRoom.plist"
            },
            "NormalFileData": {
              "Type": "PlistSubImage",
              "Path": "bt_leaveRoom_1.png",
              "Plist": "privateRoom/privateRoom.plist"
            },
            "Scale9Enable": true,
            "Scale9OriginX": 15,
            "Scale9OriginY": 11,
            "Scale9Width": 211,
            "Scale9Height": 59,
            "OutlineColor": {
              "G": 0,
              "B": 0
            },
            "ShadowColor": {
              "R": 110,
              "G": 110,
              "B": 110
            },
            "ShadowOffsetX": 2.0,
            "ShadowOffsetY": -2.0,
            "TouchEnable": true,
            "AnchorPoint": {
              "ScaleX": 0.5,
              "ScaleY": 0.5
            },
            "Position": {
              "X": 354.0,
              "Y": 45.0009
            },
            "Scale": {
              "ScaleX": 1.0,
              "ScaleY": 1.0
            },
            "CColor": {},
            "IconVisible": false,
            "PrePosition": {
              "X": 0.2654,
              "Y": 0.06
            },
            "PreSize": {
              "X": 0.1807,
              "Y": 0.108
            },
            "LeftMargin": 233.5,
            "RightMargin": 859.5,
            "TopMargin": 664.4991,
            "BottomMargin": 4.5009,
            "Tag": 69,
            "ActionTag": 700991358,
            "Size": {
              "X": 241.0,
              "Y": 81.0
            },
            "Name": "bt_leaveRoom",
            "ctype": "ButtonObjectData"
          },
          {
            "FontSize": 14,
            "ButtonText": "",
            "TextColor": {
              "R": 65,
              "G": 65,
              "B": 70
            },
            "DisabledFileData": {
              "Type": "PlistSubImage",
              "Path": "bt_share_1.png",
              "Plist": "privateRoom/privateRoom.plist"
            },
            "PressedFileData": {
              "Type": "PlistSubImage",
              "Path": "bt_share_2.png",
              "Plist": "privateRoom/privateRoom.plist"
            },
            "NormalFileData": {
              "Type": "PlistSubImage",
              "Path": "bt_share_1.png",
              "Plist": "privateRoom/privateRoom.plist"
            },
            "Scale9Enable": true,
            "Scale9OriginX": 15,
            "Scale9OriginY": 11,
            "Scale9Width": 211,
            "Scale9Height": 59,
            "OutlineColor": {
              "G": 0,
              "B": 0
            },
            "ShadowColor": {
              "R": 110,
              "G": 110,
              "B": 110
            },
            "ShadowOffsetX": 2.0,
            "ShadowOffsetY": -2.0,
            "TouchEnable": true,
            "AnchorPoint": {
              "ScaleX": 0.5,
              "ScaleY": 0.5
            },
            "Position": {
              "X": 934.0062,
              "Y": 45.0
            },
            "Scale": {
              "ScaleX": 1.0,
              "ScaleY": 1.0
            },
            "CColor": {},
            "IconVisible": false,
            "PrePosition": {
              "X": 0.7002,
              "Y": 0.06
            },
            "PreSize": {
              "X": 0.1807,
              "Y": 0.108
            },
            "LeftMargin": 813.5062,
            "RightMargin": 279.4938,
            "TopMargin": 664.5,
            "BottomMargin": 4.5,
            "Tag": 70,
            "ActionTag": 1873516002,
            "Size": {
              "X": 241.0,
              "Y": 81.0
            },
            "Name": "bt_share",
            "ctype": "ButtonObjectData"
          },
          {
            "FileData": {
              "Type": "Normal",
              "Path": "nodeUserData.json",
              "Plist": ""
            },
            "StretchWidthEnable": false,
            "StretchHeightEnable": false,
            "InnerActionSpeed": 1.0,
            "AnchorPoint": {},
            "Position": {
              "X": 167.219,
              "Y": 470.2996
            },
            "Scale": {
              "ScaleX": 1.0,
              "ScaleY": 1.0
            },
            "CColor": {},
            "IconVisible": true,
            "PrePosition": {
              "X": 0.1254,
              "Y": 0.6271
            },
            "PreSize": {
              "X": 0.0,
              "Y": 0.0
            },
            "LeftMargin": 167.219,
            "RightMargin": 1166.781,
            "TopMargin": 279.7004,
            "BottomMargin": 470.2996,
            "Tag": 73,
            "ActionTag": -1084553291,
            "Size": {
              "X": 0.0,
              "Y": 0.0
            },
            "Name": "FileNode_1",
            "ctype": "ProjectNodeObjectData"
          },
          {
            "FileData": {
              "Type": "Normal",
              "Path": "nodeUserData.json",
              "Plist": ""
            },
            "StretchWidthEnable": false,
            "StretchHeightEnable": false,
            "InnerActionSpeed": 1.0,
            "AnchorPoint": {},
            "Position": {
              "X": 490.2576,
              "Y": 471.614
            },
            "Scale": {
              "ScaleX": 1.0,
              "ScaleY": 1.0
            },
            "CColor": {},
            "IconVisible": true,
            "PrePosition": {
              "X": 0.3675,
              "Y": 0.6288
            },
            "PreSize": {
              "X": 0.0,
              "Y": 0.0
            },
            "LeftMargin": 490.2576,
            "RightMargin": 843.7424,
            "TopMargin": 278.386,
            "BottomMargin": 471.614,
            "Tag": 132,
            "ActionTag": 2085352986,
            "Size": {
              "X": 0.0,
              "Y": 0.0
            },
            "Name": "FileNode_2",
            "ctype": "ProjectNodeObjectData"
          },
          {
            "FileData": {
              "Type": "Normal",
              "Path": "nodeUserData.json",
              "Plist": ""
            },
            "StretchWidthEnable": false,
            "StretchHeightEnable": false,
            "InnerActionSpeed": 1.0,
            "AnchorPoint": {},
            "Position": {
              "X": 816.1864,
              "Y": 467.6696
            },
            "Scale": {
              "ScaleX": 1.0,
              "ScaleY": 1.0
            },
            "CColor": {},
            "IconVisible": true,
            "PrePosition": {
              "X": 0.6118,
              "Y": 0.6236
            },
            "PreSize": {
              "X": 0.0,
              "Y": 0.0
            },
            "LeftMargin": 816.1864,
            "RightMargin": 517.8136,
            "TopMargin": 282.3304,
            "BottomMargin": 467.6696,
            "Tag": 145,
            "ActionTag": 1742288563,
            "Size": {
              "X": 0.0,
              "Y": 0.0
            },
            "Name": "FileNode_3",
            "ctype": "ProjectNodeObjectData"
          },
          {
            "FileData": {
              "Type": "Normal",
              "Path": "nodeUserData.json",
              "Plist": ""
            },
            "StretchWidthEnable": false,
            "StretchHeightEnable": false,
            "InnerActionSpeed": 1.0,
            "AnchorPoint": {},
            "Position": {
              "X": 1138.7743,
              "Y": 465.0395
            },
            "Scale": {
              "ScaleX": 1.0,
              "ScaleY": 1.0
            },
            "CColor": {},
            "IconVisible": true,
            "PrePosition": {
              "X": 0.8537,
              "Y": 0.6201
            },
            "PreSize": {
              "X": 0.0,
              "Y": 0.0
            },
            "LeftMargin": 1138.7743,
            "RightMargin": 195.2257,
            "TopMargin": 284.9605,
            "BottomMargin": 465.0395,
            "Tag": 158,
            "ActionTag": -1629111249,
            "Size": {
              "X": 0.0,
              "Y": 0.0
            },
            "Name": "FileNode_4",
            "ctype": "ProjectNodeObjectData"
          },
          {
            "FontSize": 20,
            "LabelText": "局号",
            "OutlineColor": {
              "G": 0,
              "B": 0
            },
            "ShadowColor": {
              "R": 110,
              "G": 110,
              "B": 110
            },
            "ShadowOffsetX": 2.0,
            "ShadowOffsetY": -2.0,
            "AnchorPoint": {
              "ScaleX": 0.5,
              "ScaleY": 0.5
            },
            "Position": {
              "X": 57.1698,
              "Y": 109.3734
            },
            "Scale": {
              "ScaleX": 1.2249,
              "ScaleY": 1.1721
            },
            "CColor": {
              "G": 0,
              "B": 0
            },
            "IconVisible": false,
            "PrePosition": {
              "X": 0.0429,
              "Y": 0.1458
            },
            "PreSize": {
              "X": 0.03,
              "Y": 0.0267
            },
            "LeftMargin": 37.1698,
            "RightMargin": 1256.8302,
            "TopMargin": 630.6266,
            "BottomMargin": 99.3734,
            "Tag": 100,
            "ActionTag": 1484585095,
            "Size": {
              "X": 40.0,
              "Y": 20.0
            },
            "Name": "txt_TimesHistory",
            "ctype": "TextObjectData"
          }
        ],
        "Size": {
          "X": 960.0,
          "Y": 640.0
        },
        "Name": "Scene",
        "ctype": "SingleNodeObjectData"
      },
      "UsedResources": [
        "nodeUserData.json",
        "privateRoom/privateRoom.plist",
        "privateRoom/privateRoom.png"
      ],
      "ctype": "GameFileData"
    }
  },
  "Type": "Scene"
}